﻿
DisplayName "Administrator's Tower 4F"



EVENT   1
 PAGE   1
  If(1,1032,0,4,0)
   ShowMessageFace("radio_fc1",0,0,2,1)
   ShowMessage("\\n<Radio>早く、マスターに会って下サイ……")
   205(-1,bytes(0x04,0x08,0x6f,0x3a,0x13,0x52,0x50,0x47,0x3a,0x3a,0x4d,0x6f,0x76,0x65,0x52,0x6f,0x75,0x74,0x65,0x09,0x3a,0x0c,0x40,0x72,0x65,0x70,0x65,0x61,0x74,0x46,0x3a,0x0f,0x40,0x73,0x6b,0x69,0x70,0x70,0x61,0x62,0x6c,0x65,0x46,0x3a,0x0a,0x40,0x77,0x61,0x69,0x74,0x54,0x3a,0x0a,0x40,0x6c,0x69,0x73,0x74,0x5b,0x07,0x6f,0x3a,0x15,0x52,0x50,0x47,0x3a,0x3a,0x4d,0x6f,0x76,0x65,0x43,0x6f,0x6d,0x6d,0x61,0x6e,0x64,0x07,0x3a,0x0a,0x40,0x63,0x6f,0x64,0x65,0x69,0x06,0x3a,0x10,0x40,0x70,0x61,0x72,0x61,0x6d,0x65,0x74,0x65,0x72,0x73,0x5b,0x00,0x6f,0x3b,0x0a,0x07,0x3b,0x0b,0x69,0x00,0x3b,0x0c,0x5b,0x00))
   0()
  EndIf()
  If(1,1032,0,5,0)
   ShowMessageFace("shirom_fc2",1,0,2,2)
   ShowMessage("\\n<La Croix>すぐ下の階までアドラメレクが来ている。 行くのは危険だ……")
   205(-1,bytes(0x04,0x08,0x6f,0x3a,0x13,0x52,0x50,0x47,0x3a,0x3a,0x4d,0x6f,0x76,0x65,0x52,0x6f,0x75,0x74,0x65,0x09,0x3a,0x0c,0x40,0x72,0x65,0x70,0x65,0x61,0x74,0x46,0x3a,0x0f,0x40,0x73,0x6b,0x69,0x70,0x70,0x61,0x62,0x6c,0x65,0x46,0x3a,0x0a,0x40,0x77,0x61,0x69,0x74,0x54,0x3a,0x0a,0x40,0x6c,0x69,0x73,0x74,0x5b,0x07,0x6f,0x3a,0x15,0x52,0x50,0x47,0x3a,0x3a,0x4d,0x6f,0x76,0x65,0x43,0x6f,0x6d,0x6d,0x61,0x6e,0x64,0x07,0x3a,0x0a,0x40,0x63,0x6f,0x64,0x65,0x69,0x06,0x3a,0x10,0x40,0x70,0x61,0x72,0x61,0x6d,0x65,0x74,0x65,0x72,0x73,0x5b,0x00,0x6f,0x3b,0x0a,0x07,0x3b,0x0b,0x69,0x00,0x3b,0x0c,0x5b,0x00))
   0()
  EndIf()
  0()



EVENT   6
 PAGE   1
  217()
  241(bytes(0x04,0x08,0x6f,0x3a,0x0d,0x52,0x50,0x47,0x3a,0x3a,0x42,0x47,0x4d,0x08,0x3a,0x0a,0x40,0x6e,0x61,0x6d,0x65,0x49,0x22,0x0a,0x73,0x74,0x65,0x69,0x6e,0x06,0x3a,0x06,0x45,0x54,0x3a,0x0c,0x40,0x76,0x6f,0x6c,0x75,0x6d,0x65,0x69,0x69,0x3a,0x0b,0x40,0x70,0x69,0x74,0x63,0x68,0x69,0x69))
  PictureDisplay(5,"80_shirom_st52",0,0,0,0,100,100,0,0)
  PictureMove(5,null,0,0,0,0,100,100,255,0,30,true)
  ShowMessageFace("shirom_fc2",1,0,2,1)
  ShowMessage("\\n<La Croix>ようこそ、世界を越えた客人よ…… 私はラ・クロワ、この塔の主だ。")
  If(0,6,0)
   ShowMessageFace("sonia_fc3",7,0,2,2)
   ShowMessage("\\n<Sonya>あなたは、いったい……")
   0()
  Else()
   ShowMessageFace("ruka_fc1",0,0,2,3)
   ShowMessage("\\n<Luka>あなたは、いったい……")
   0()
  EndIf()
  If(4,134,0)
   ShowMessageFace("chrom_fc2",5,0,2,4)
   ShowMessage("\\n<Chrome>…………！？")
   ShowMessageFace("shirom_fc2",1,0,2,5)
   ShowMessage("\\n<La Croix>……………………")
   0()
  EndIf()
  PictureClear(5)
  Wait(15)
  250(bytes(0x04,0x08,0x6f,0x3a,0x0c,0x52,0x50,0x47,0x3a,0x3a,0x53,0x45,0x08,0x3a,0x0a,0x40,0x6e,0x61,0x6d,0x65,0x49,0x22,0x0d,0x6d,0x6f,0x6e,0x5f,0x62,0x6f,0x6d,0x31,0x06,0x3a,0x06,0x45,0x54,0x3a,0x0b,0x40,0x70,0x69,0x74,0x63,0x68,0x69,0x69,0x3a,0x0c,0x40,0x76,0x6f,0x6c,0x75,0x6d,0x65,0x69,0x69))
  225(7,7,120,true)
  ShowMessageFace("radio_fc1",0,0,2,6)
  ShowMessage("\\n<Radio>アドラメレク、塔内に侵入しマシた……")
  ShowMessageFace("shirom_fc2",1,0,2,7)
  ShowMessage("\\n<La Croix>防衛モンスターを全てぶつけろ。 少しでも時間を稼げ……")
  ShowMessageFace("radio_fc1",0,0,2,8)
  ShowMessage("\\n<Radio>了解しマシた、戦力を一点に集中シマす……")
  PictureDisplay(5,"80_shirom_st52",0,0,0,0,100,100,0,0)
  PictureMove(5,null,0,0,0,0,100,100,255,0,30,true)
  ShowMessageFace("shirom_fc2",1,0,2,9)
  ShowMessage("\\n<La Croix>そういうわけで、時間が惜しい。 私の素性を、悠長に説明している余裕はない……")
  ShowMessageFace("shirom_fc2",1,0,2,10)
  ShowMessage("\\n<La Croix>まあ、アンデッドモンスターとでも思うがいい…… この世界、もはや命ある者は存在していない。")
  ShowMessageFace("ruka_fc1",0,0,2,11)
  ShowMessage("\\n<Luka>どうして、そんな事に…… いったい何があったんですか！？")
  ShowMessageFace("shirom_fc2",1,0,2,12)
  ShowMessage("\\n<La Croix>ヨハネス暦1456年、レミナ地点より世界の混沌化は始まった。 次元の亀裂が世界を覆い、混沌が空間を浸食し――")
  ShowMessageFace("shirom_fc2",1,0,2,13)
  ShowMessage("\\n<La Croix>それから30年で、このザマだ。 そしてあと1時間ももたず、この世界は混沌に消えるだろう。")
  If(0,4,0)
   ShowMessageFace("alice_fc6",0,0,2,14)
   ShowMessage("\\n<Alice>その原因はなんだ？ どうして、世界の混沌化は始まった……？")
   0()
  EndIf()
  If(0,5,0)
   ShowMessageFace("iriasu_fc4",7,0,2,15)
   ShowMessage("\\n<Ilias>その原因はなんです？ どうして、世界の混沌化は始まったのです……？")
   0()
  EndIf()
  ShowMessageFace("shirom_fc2",1,0,2,16)
  ShowMessage("\\n<La Croix>世界に混沌が広まっていく中…… 強者や、高い知能を持った者がこの塔に集まった。")
  ShowMessageFace("shirom_fc2",1,0,2,17)
  ShowMessage("\\n<La Croix>いや……追い詰められたというべきか。 みな必死で状況の打開を願い、そして斃れていった……")
  ShowMessageFace("shirom_fc2",1,0,2,18)
  ShowMessage("\\n<La Croix>ある者はアポトーシスに討たれ…… ある者は、混沌に飲み込まれ……")
  ShowMessageFace("shirom_fc2",1,0,2,19)
  ShowMessage("\\n<La Croix>そんな苦闘の日々の中で…… 私や同志達は混沌に関する研究を必死で進めた。")
  ShowMessageFace("shirom_fc2",1,0,2,20)
  ShowMessage("\\n<La Croix>そして判明したのは…… この世界は、正しい歴史を辿っていないという事実だった。")
  ShowMessageFace("ruka_fc1",0,0,2,21)
  ShowMessage("\\n<Luka>正しい、歴史……！？")
  ShowMessageFace("",0,0,2,22)
  ShowMessage("それは、父さんのメモにもあった―― そして、白兎も言っていた――")
  ShowMessageFace("shirom_fc2",1,0,2,23)
  ShowMessage("\\n<La Croix>歴史のどこかの時点で、パラドックスが発生したのだ。 矛盾事象は空間を混沌化させ、世界そのものをカオス化する。")
  ShowMessageFace("shirom_fc2",1,0,2,24)
  ShowMessage("\\n<La Croix>そこまでを解き明かした頃には…… もはや、私一人しか残っていなかった。")
  If(0,4,0)
   ShowMessageFace("alice_fc6",0,0,2,25)
   ShowMessage("\\n<Alice>パラドックスがカオス化を生む…… そして、世界を混沌に還す……")
   0()
  EndIf()
  If(0,5,0)
   ShowMessageFace("iriasu_fc4",7,0,2,26)
   ShowMessage("\\n<Ilias>パラドックスがカオス化を生む…… そして、世界を混沌に還す……")
   0()
  EndIf()
  ShowMessageFace("shirom_fc2",1,0,2,27)
  ShowMessage("\\n<La Croix>混沌とは、「無」でもある。 両者は等しいものなのだ……")
  ShowMessageFace("radio_fc1",0,0,2,28)
  ShowMessage("\\n<Radio>アドラメレク、2階へと侵入…… 味方損耗率、50%を越えました……")
  ShowMessageFace("shirom_fc2",1,0,2,29)
  ShowMessage("\\n<La Croix>予備も全てぶつけろ、可能な限り足止めだ……")
  ShowMessageFace("shirom_fc2",1,0,2,30)
  ShowMessage("\\n<La Croix>さて、以上がこの世界で起きた全てだ。 まだ不明な点や、立証されていない部分も多いがな……")
  ShowMessageFace("ruka_fc1",0,0,2,31)
  ShowMessage("\\n<Luka>歴史のどこかでパラドックスが発生したから…… それで、世界がこんな事に……")
  ShowMessageFace("shirom_fc2",1,0,2,32)
  ShowMessage("\\n<La Croix>そして、肝心のパラドックスだが…… どうも、この世界由来の事象ではないようだ。")
  ShowMessageFace("shirom_fc2",1,0,2,33)
  ShowMessage("\\n<La Croix>別の並行世界で発生したパラドックス…… それが、連鎖的にこの世界にも影響をもたらしたのだ。")
  If(0,4,0)
   ShowMessageFace("alice_fc6",0,0,2,34)
   ShowMessage("\\n<Alice>別の並行世界の影響だと……？ そんな事が起きるのなら、もしかして……")
   0()
  EndIf()
  If(0,5,0)
   ShowMessageFace("iriasu_fc4",7,0,2,35)
   ShowMessage("\\n<Ilias>別の並行世界の影響だと……？ そんな事が起き得るのならば、もしかして――")
   0()
  EndIf()
  ShowMessageFace("shirom_fc2",1,0,2,36)
  ShowMessage("\\n<La Croix>察したか……ならば結論を言おう。 お前達の世界も、近いうちに同じ道を辿る。")
  If(0,6,0)
   ShowMessageFace("sonia_fc3",7,0,2,37)
   ShowMessage("\\n<Sonya>私達の世界が……！？")
   0()
  Else()
   ShowMessageFace("ruka_fc1",0,0,2,38)
   ShowMessage("\\n<Luka>僕達の世界が……！？")
   0()
  EndIf()
  ShowMessageFace("shirom_fc2",1,0,2,39)
  ShowMessage("\\n<La Croix>いいや、お前達の世界だけではない。 全ての並行世界が、互いを巻き込みながら消滅していく。")
  ShowMessageFace("shirom_fc2",1,0,2,40)
  ShowMessage("\\n<La Croix>そして、全ての世界が混沌に飲まれ―― 残るのは、完全な「無」だけだ。")
  If(0,4,0)
   ShowMessageFace("alice_fc6",0,0,2,41)
   ShowMessage("\\n<Alice>まさか、そこまでの事が……")
   0()
  EndIf()
  If(0,5,0)
   ShowMessageFace("iriasu_fc4",5,0,2,42)
   ShowMessage("\\n<Ilias>そんな、まさか……")
   0()
  EndIf()
  ShowMessageFace("radio_fc1",0,0,2,43)
  ShowMessage("\\n<Radio>アドラメレク、3階へと侵入…… 味方損耗率、90%以上……")
  ShowMessageFace("shirom_fc2",1,0,2,44)
  ShowMessage("\\n<La Croix>反カオスフィールドを3階に集中、装置は使い潰して構わん。 さて、話していられる時間はもうない……")
  ShowMessageFace("shirom_fc2",1,0,2,45)
  ShowMessage("\\n<La Croix>お前達は、元の世界に戻れ…… これを持ってな。")
  ShowMessageFace("",0,0,2,46)
  ShowMessage("ラ・クロワは、一冊のノートを渡してきた……")
  250(bytes(0x04,0x08,0x6f,0x3a,0x0c,0x52,0x50,0x47,0x3a,0x3a,0x53,0x45,0x08,0x3a,0x0a,0x40,0x6e,0x61,0x6d,0x65,0x49,0x22,0x0a,0x49,0x74,0x65,0x6d,0x31,0x06,0x3a,0x06,0x45,0x54,0x3a,0x0b,0x40,0x70,0x69,0x74,0x63,0x68,0x69,0x69,0x3a,0x0c,0x40,0x76,0x6f,0x6c,0x75,0x6d,0x65,0x69,0x55))
  ChangeInventory_Item(523,0,0,1)
  ShowMessageFace("shirom_fc2",1,0,2,47)
  ShowMessage("\\n<La Croix>それは、私と同志達が戦い抜いた成果。 観測や研究の結果が事細かに記されている……")
  ShowMessageFace("shirom_fc2",1,0,2,48)
  ShowMessage("\\n<La Croix>見る者が見れば、事前に何らかの対策を取り得るかもしれん。 そのノートを……お前の世界にいる私に渡せ。")
  If(4,41,0)
   ShowMessageFace("stein_fc2",0,0,2,49)
   ShowMessage("\\n<Promestein>ちょっと失礼……")
   ShowMessageFace("stein_fc2",2,0,2,50)
   ShowMessage("\\n<Promestein>……ダメです、私にはさっぱり…… 今の私の知識では、歯が立ちそうにありません……")
   0()
  EndIf()
  ShowMessageFace("shirom_fc2",1,0,2,51)
  ShowMessage("\\n<La Croix>このノートを……私達の戦いを無駄にするな。 希望は、お前達に託したぞ……")
  ShowMessageFace("ruka_fc1",0,0,2,52)
  ShowMessage("\\n<Luka>託すって…… じゃあ、ラ・クロワさんは……！？")
  PictureMove(5,null,0,0,0,0,100,100,0,0,30,true)
  Wait(15)
  205(0,bytes(0x04,0x08,0x6f,0x3a,0x13,0x52,0x50,0x47,0x3a,0x3a,0x4d,0x6f,0x76,0x65,0x52,0x6f,0x75,0x74,0x65,0x09,0x3a,0x0c,0x40,0x72,0x65,0x70,0x65,0x61,0x74,0x46,0x3a,0x0f,0x40,0x73,0x6b,0x69,0x70,0x70,0x61,0x62,0x6c,0x65,0x46,0x3a,0x0a,0x40,0x77,0x61,0x69,0x74,0x54,0x3a,0x0a,0x40,0x6c,0x69,0x73,0x74,0x5b,0x0a,0x6f,0x3a,0x15,0x52,0x50,0x47,0x3a,0x3a,0x4d,0x6f,0x76,0x65,0x43,0x6f,0x6d,0x6d,0x61,0x6e,0x64,0x07,0x3a,0x0a,0x40,0x63,0x6f,0x64,0x65,0x69,0x2a,0x3a,0x10,0x40,0x70,0x61,0x72,0x61,0x6d,0x65,0x74,0x65,0x72,0x73,0x5b,0x00,0x6f,0x3b,0x0a,0x07,0x3b,0x0b,0x69,0x09,0x3b,0x0c,0x5b,0x00,0x6f,0x3b,0x0a,0x07,0x3b,0x0b,0x69,0x09,0x3b,0x0c,0x5b,0x00,0x6f,0x3b,0x0a,0x07,0x3b,0x0b,0x69,0x2b,0x3b,0x0c,0x5b,0x00,0x6f,0x3b,0x0a,0x07,0x3b,0x0b,0x69,0x00,0x3b,0x0c,0x5b,0x00))
  205(-1,bytes(0x04,0x08,0x6f,0x3a,0x13,0x52,0x50,0x47,0x3a,0x3a,0x4d,0x6f,0x76,0x65,0x52,0x6f,0x75,0x74,0x65,0x09,0x3a,0x0c,0x40,0x72,0x65,0x70,0x65,0x61,0x74,0x46,0x3a,0x0f,0x40,0x73,0x6b,0x69,0x70,0x70,0x61,0x62,0x6c,0x65,0x46,0x3a,0x0a,0x40,0x77,0x61,0x69,0x74,0x54,0x3a,0x0a,0x40,0x6c,0x69,0x73,0x74,0x5b,0x07,0x6f,0x3a,0x15,0x52,0x50,0x47,0x3a,0x3a,0x4d,0x6f,0x76,0x65,0x43,0x6f,0x6d,0x6d,0x61,0x6e,0x64,0x07,0x3a,0x0a,0x40,0x63,0x6f,0x64,0x65,0x69,0x18,0x3a,0x10,0x40,0x70,0x61,0x72,0x61,0x6d,0x65,0x74,0x65,0x72,0x73,0x5b,0x00,0x6f,0x3b,0x0a,0x07,0x3b,0x0b,0x69,0x00,0x3b,0x0c,0x5b,0x00))
  Wait(15)
  ChangeVariable(1032,1032,0,0,5)
  PictureMove(5,null,0,0,0,0,100,100,255,0,30,true)
  ShowMessageFace("shirom_fc2",1,0,2,53)
  ShowMessage("\\n<La Croix>……最上位アポトーシスが、すぐ下の階まで来ている。 私が脱出の時間を稼ごう。")
  ShowMessageFace("shirom_fc2",1,0,2,54)
  ShowMessage("\\n<La Croix>この部屋の奥にある魔法陣で、1階にまで降りられる。 後はそのままこの世界を脱出しろ。")
  ShowMessageFace("ruka_fc1",0,0,2,55)
  ShowMessage("\\n<Luka>そんな…… この世界が滅びるなら、ラ・クロワさんも逃げないと！")
  If(4,529,0)
   ShowMessageFace("sara_fc1",4,0,2,56)
   ShowMessage("\\n<Sara>一緒に避難しましょう！ このままじゃ、あなたまで……！")
   0()
  EndIf()
  ShowMessageFace("shirom_fc2",1,0,2,57)
  ShowMessage("\\n<La Croix>希望は……すでに託した。 お前はそれを、お前の世界の私に届けろ。")
  ShowMessageFace("ruka_fc1",0,0,2,58)
  ShowMessage("\\n<Luka>ラ・クロワさんを置いていくなんて……！ 僕達も一緒に、最上位アポトーシスとやらと戦う！")
  ShowMessageFace("shirom_fc2",1,0,2,59)
  ShowMessage("\\n<La Croix>……自分の世界も、この世界のようにしたいのか？ お前達がここで潰えれば、全ては消え去る……")
  ShowMessageFace("shirom_fc2",1,0,2,60)
  ShowMessage("\\n<La Croix>早く行け…… そして、お前の世界を守れ。")
  If(0,4,0)
   ShowMessageFace("alice_fc5",2,0,2,61)
   ShowMessage("\\n<Alice>ルカ、義務を果たすぞ…… こいつはこいつの、我々は我々のな……")
   0()
  EndIf()
  If(0,5,0)
   ShowMessageFace("iriasu_fc4",7,0,2,62)
   ShowMessage("\\n<Ilias>行きましょう、ルカ。 託されたもの、なんとしても繋がねばなりません……")
   0()
  EndIf()
  If(4,134,0)
   ShowMessageFace("chrom_fc2",7,0,2,63)
   ShowMessage("\\n<Chrome>……………………")
   0()
  EndIf()
  PictureClear(5)
  241(bytes(0x04,0x08,0x6f,0x3a,0x0d,0x52,0x50,0x47,0x3a,0x3a,0x42,0x47,0x4d,0x08,0x3a,0x0a,0x40,0x6e,0x61,0x6d,0x65,0x49,0x22,0x12,0x64,0x75,0x6e,0x67,0x65,0x6f,0x6e,0x5f,0x6c,0x61,0x62,0x6f,0x31,0x06,0x3a,0x06,0x45,0x54,0x3a,0x0c,0x40,0x76,0x6f,0x6c,0x75,0x6d,0x65,0x69,0x69,0x3a,0x0b,0x40,0x70,0x69,0x74,0x63,0x68,0x69,0x69))
  0()
 PAGE   2
  // condition: variable 1032 >= 5
  0()



EVENT   11
 PAGE   1
  PictureDisplay(5,"80_cirque_st51",0,0,0,0,100,100,0,0)
  PictureMove(5,null,0,0,0,0,100,100,255,0,30,true)
  ShowMessageFace("cirque_fc6",0,0,2,1)
  ShowMessage("\\n<Queen Scylla>……………………")
  ShowMessageFace("",0,0,2,2)
  ShowMessage("返事はない。 完全に活動を停止しているようだ……")
  If(1,1032,0,5,0)
   ShowMessageFace("shirom_fc2",1,0,2,3)
   ShowMessage("\\n<La Croix>アポトーシスとの度重なる激戦で、肉体に限界が来たのだ。 かなり酷使したからな……")
   0()
  EndIf()
  PictureClear(5)
  EndEventProcessing()
  0()



EVENT   8
 PAGE   1
  PictureDisplay(5,"80_cirque_st23",0,0,0,0,100,100,0,0)
  PictureMove(5,null,0,0,0,0,100,100,255,0,30,true)
  ShowMessageFace("cirque_fc3",2,0,2,1)
  ShowMessage("\\n<Rosa>……………………")
  ShowMessageFace("",0,0,2,2)
  ShowMessage("返事はない。 完全に活動を停止しているようだ……")
  If(1,1032,0,5,0)
   ShowMessageFace("shirom_fc2",1,0,2,3)
   ShowMessage("\\n<La Croix>アポトーシスとの度重なる激戦で、肉体に限界が来たのだ。 かなり酷使したからな……")
   0()
  EndIf()
  PictureClear(5)
  EndEventProcessing()
  0()



EVENT   9
 PAGE   1
  PictureDisplay(5,"80_cirque_st33",0,0,0,0,100,100,0,0)
  PictureMove(5,null,0,0,0,0,100,100,255,0,30,true)
  ShowMessageFace("cirque_fc4",2,0,2,1)
  ShowMessage("\\n<Queen Lamia>……………………")
  ShowMessageFace("",0,0,2,2)
  ShowMessage("返事はない。 完全に活動を停止しているようだ……")
  If(1,1032,0,5,0)
   ShowMessageFace("shirom_fc2",1,0,2,3)
   ShowMessage("\\n<La Croix>アポトーシスとの度重なる激戦で、肉体に限界が来たのだ。 かなり酷使したからな……")
   0()
  EndIf()
  PictureClear(5)
  EndEventProcessing()
  0()



EVENT   7
 PAGE   1
  // condition: switch 31 is ON
  0()



EVENT   10
 PAGE   1
  // condition: switch 31 is ON
  0()



EVENT   12
 PAGE   1
  // condition: switch 31 is ON
  0()



EVENT   5
 PAGE   1
  PictureDisplay(5,"80_radio_st01",0,0,0,0,100,100,0,0)
  PictureMove(5,null,0,0,0,0,100,100,255,0,30,true)
  If(1,1032,0,4,0)
   ShowMessageFace("radio_fc1",0,0,2,1)
   ShowMessage("\\n<Radio>どうぞ、マスターとオ話を……")
   0()
  EndIf()
  If(1,1032,0,5,0)
   ShowMessageFace("radio_fc1",0,0,2,2)
   ShowMessage("\\n<Radio>……………………")
   0()
  EndIf()
  PictureClear(5)
  0()



EVENT   2
 PAGE   1
  If(12,"unlock_level < 1")
   ShowMessageFace("",0,0,2,1)
   ShowMessage("The chest is locked.")
   EndEventProcessing()
   0()
  EndIf()
  250(bytes(0x04,0x08,0x6f,0x3a,0x0c,0x52,0x50,0x47,0x3a,0x3a,0x53,0x45,0x08,0x3a,0x0a,0x40,0x6e,0x61,0x6d,0x65,0x49,0x22,0x0a,0x43,0x68,0x65,0x73,0x74,0x06,0x3a,0x06,0x45,0x54,0x3a,0x0b,0x40,0x70,0x69,0x74,0x63,0x68,0x69,0x69,0x3a,0x0c,0x40,0x76,0x6f,0x6c,0x75,0x6d,0x65,0x69,0x55))
  205(0,bytes(0x04,0x08,0x6f,0x3a,0x13,0x52,0x50,0x47,0x3a,0x3a,0x4d,0x6f,0x76,0x65,0x52,0x6f,0x75,0x74,0x65,0x09,0x3a,0x0c,0x40,0x72,0x65,0x70,0x65,0x61,0x74,0x46,0x3a,0x0f,0x40,0x73,0x6b,0x69,0x70,0x70,0x61,0x62,0x6c,0x65,0x46,0x3a,0x0a,0x40,0x77,0x61,0x69,0x74,0x54,0x3a,0x0a,0x40,0x6c,0x69,0x73,0x74,0x5b,0x0b,0x6f,0x3a,0x15,0x52,0x50,0x47,0x3a,0x3a,0x4d,0x6f,0x76,0x65,0x43,0x6f,0x6d,0x6d,0x61,0x6e,0x64,0x07,0x3a,0x0a,0x40,0x63,0x6f,0x64,0x65,0x69,0x29,0x3a,0x10,0x40,0x70,0x61,0x72,0x61,0x6d,0x65,0x74,0x65,0x72,0x73,0x5b,0x00,0x6f,0x3b,0x0a,0x07,0x3b,0x0b,0x69,0x16,0x3b,0x0c,0x5b,0x00,0x6f,0x3b,0x0a,0x07,0x3b,0x0b,0x69,0x14,0x3b,0x0c,0x5b,0x06,0x69,0x08,0x6f,0x3b,0x0a,0x07,0x3b,0x0b,0x69,0x17,0x3b,0x0c,0x5b,0x00,0x6f,0x3b,0x0a,0x07,0x3b,0x0b,0x69,0x14,0x3b,0x0c,0x5b,0x06,0x69,0x08,0x6f,0x3b,0x0a,0x07,0x3b,0x0b,0x69,0x00,0x3b,0x0c,0x5b,0x00))
  ChangeSelfSwitch("A",0)
  ChangeInventory_Item(713,0,0,1)
  0()
 PAGE   2
  // condition: self-switch A is ON
  0()



EVENT   4
 PAGE   1
  0()
 PAGE   2
  // condition: variable 1032 >= 4
  0()



EVENT   13
 PAGE   1
  PictureDisplay(5,"80_radio_st01",0,0,0,0,100,100,0,0)
  PictureMove(5,null,0,0,0,0,100,100,255,0,30,true)
  ChangeSwitch(94,94,0)
  ChangeSaveEnabled(0)
  ShowMessageFace("radio_fc1",0,0,2,1)
  ShowMessage("\\n<Radio>最上位アポトーシス、アドラメレク…… この塔に急速接近中……")
  ShowMessageFace("radio_fc1",0,0,2,2)
  ShowMessage("\\n<Radio>早く、マスターに会って下サイ……")
  PictureClear(5)
  205(4,bytes(0x04,0x08,0x6f,0x3a,0x13,0x52,0x50,0x47,0x3a,0x3a,0x4d,0x6f,0x76,0x65,0x52,0x6f,0x75,0x74,0x65,0x09,0x3a,0x0c,0x40,0x72,0x65,0x70,0x65,0x61,0x74,0x46,0x3a,0x0f,0x40,0x73,0x6b,0x69,0x70,0x70,0x61,0x62,0x6c,0x65,0x46,0x3a,0x0a,0x40,0x77,0x61,0x69,0x74,0x54,0x3a,0x0a,0x40,0x6c,0x69,0x73,0x74,0x5b,0x0e,0x6f,0x3a,0x15,0x52,0x50,0x47,0x3a,0x3a,0x4d,0x6f,0x76,0x65,0x43,0x6f,0x6d,0x6d,0x61,0x6e,0x64,0x07,0x3a,0x0a,0x40,0x63,0x6f,0x64,0x65,0x69,0x06,0x3a,0x10,0x40,0x70,0x61,0x72,0x61,0x6d,0x65,0x74,0x65,0x72,0x73,0x5b,0x00,0x6f,0x3b,0x0a,0x07,0x3b,0x0b,0x69,0x06,0x3b,0x0c,0x5b,0x00,0x6f,0x3b,0x0a,0x07,0x3b,0x0b,0x69,0x06,0x3b,0x0c,0x5b,0x00,0x6f,0x3b,0x0a,0x07,0x3b,0x0b,0x69,0x06,0x3b,0x0c,0x5b,0x00,0x6f,0x3b,0x0a,0x07,0x3b,0x0b,0x69,0x06,0x3b,0x0c,0x5b,0x00,0x6f,0x3b,0x0a,0x07,0x3b,0x0b,0x69,0x06,0x3b,0x0c,0x5b,0x00,0x6f,0x3b,0x0a,0x07,0x3b,0x0b,0x69,0x06,0x3b,0x0c,0x5b,0x00,0x6f,0x3b,0x0a,0x07,0x3b,0x0b,0x69,0x06,0x3b,0x0c,0x5b,0x00,0x6f,0x3b,0x0a,0x07,0x3b,0x0b,0x69,0x00,0x3b,0x0c,0x5b,0x00))
  ChangeVariable(1032,1032,0,0,4)
  0()
 PAGE   2
  // condition: variable 1032 >= 4
  0()



EVENT   14
 PAGE   1
  // condition: variable 1032 >= 5
  217()
  ShowMessageFace("",0,0,2,1)
  ShowMessage("ここから脱出しますか？")
  ShowChoices(strings("Yes","No"),2)
  IfPlayerPicksChoice(0,null)
   ScrollMap(8,5,4)
   Wait(60)
   205(18,bytes(0x04,0x08,0x6f,0x3a,0x13,0x52,0x50,0x47,0x3a,0x3a,0x4d,0x6f,0x76,0x65,0x52,0x6f,0x75,0x74,0x65,0x09,0x3a,0x0c,0x40,0x72,0x65,0x70,0x65,0x61,0x74,0x46,0x3a,0x0f,0x40,0x73,0x6b,0x69,0x70,0x70,0x61,0x62,0x6c,0x65,0x46,0x3a,0x0a,0x40,0x77,0x61,0x69,0x74,0x54,0x3a,0x0a,0x40,0x6c,0x69,0x73,0x74,0x5b,0x07,0x6f,0x3a,0x15,0x52,0x50,0x47,0x3a,0x3a,0x4d,0x6f,0x76,0x65,0x43,0x6f,0x6d,0x6d,0x61,0x6e,0x64,0x07,0x3a,0x0a,0x40,0x63,0x6f,0x64,0x65,0x69,0x15,0x3a,0x10,0x40,0x70,0x61,0x72,0x61,0x6d,0x65,0x74,0x65,0x72,0x73,0x5b,0x00,0x6f,0x3b,0x0a,0x07,0x3b,0x0b,0x69,0x00,0x3b,0x0c,0x5b,0x00))
   205(-1,bytes(0x04,0x08,0x6f,0x3a,0x13,0x52,0x50,0x47,0x3a,0x3a,0x4d,0x6f,0x76,0x65,0x52,0x6f,0x75,0x74,0x65,0x09,0x3a,0x0c,0x40,0x72,0x65,0x70,0x65,0x61,0x74,0x46,0x3a,0x0f,0x40,0x73,0x6b,0x69,0x70,0x70,0x61,0x62,0x6c,0x65,0x46,0x3a,0x0a,0x40,0x77,0x61,0x69,0x74,0x54,0x3a,0x0a,0x40,0x6c,0x69,0x73,0x74,0x5b,0x07,0x6f,0x3a,0x15,0x52,0x50,0x47,0x3a,0x3a,0x4d,0x6f,0x76,0x65,0x43,0x6f,0x6d,0x6d,0x61,0x6e,0x64,0x07,0x3a,0x0a,0x40,0x63,0x6f,0x64,0x65,0x69,0x18,0x3a,0x10,0x40,0x70,0x61,0x72,0x61,0x6d,0x65,0x74,0x65,0x72,0x73,0x5b,0x00,0x6f,0x3b,0x0a,0x07,0x3b,0x0b,0x69,0x00,0x3b,0x0c,0x5b,0x00))
   ShowMessageFace("shirom_fc2",1,0,2,2)
   ShowMessage("\\n<La Croix>最後にもう一つ、お前達に頼み事がある…… ラディオの事だ。")
   ShowMessageFace("radio_fc1",0,0,2,3)
   ShowMessage("\\n<Radio>……………………")
   ShowMessageFace("shirom_fc2",1,0,2,4)
   ShowMessage("\\n<La Croix>こいつは、私の恩ある同志が作った初期型だ。 性能はそう高くないが……ここで壊すには忍びない。")
   ShowMessageFace("shirom_fc2",1,0,2,5)
   ShowMessage("\\n<La Croix>こいつを連れていってはもらえないか？")
   ShowChoices(strings("はい","いいえ"),0)
   IfPlayerPicksChoice(0,null)
    ShowMessageFace("shirom_fc2",1,0,2,6)
    ShowMessage("\\n<La Croix>そうか、感謝する…… ラディオ、マスター権限の移譲だ。")
    0()
   IfPlayerPicksChoice(1,null)
    ShowMessageFace("shirom_fc2",1,0,2,7)
    ShowMessage("\\n<La Croix>そう言われても、押し通すぞ…… ラディオ、マスター権限の移譲だ。")
    0()
   404()
   ShowMessageFace("radio_fc1",0,0,2,8)
   ShowMessage("\\n<Radio>了解しマシた…… ルカを新たなマスターに設定しマシた……")
   PictureClear(5)
   205(5,bytes(0x04,0x08,0x6f,0x3a,0x13,0x52,0x50,0x47,0x3a,0x3a,0x4d,0x6f,0x76,0x65,0x52,0x6f,0x75,0x74,0x65,0x09,0x3a,0x0c,0x40,0x72,0x65,0x70,0x65,0x61,0x74,0x46,0x3a,0x0f,0x40,0x73,0x6b,0x69,0x70,0x70,0x61,0x62,0x6c,0x65,0x46,0x3a,0x0a,0x40,0x77,0x61,0x69,0x74,0x54,0x3a,0x0a,0x40,0x6c,0x69,0x73,0x74,0x5b,0x0e,0x6f,0x3a,0x15,0x52,0x50,0x47,0x3a,0x3a,0x4d,0x6f,0x76,0x65,0x43,0x6f,0x6d,0x6d,0x61,0x6e,0x64,0x07,0x3a,0x0a,0x40,0x63,0x6f,0x64,0x65,0x69,0x2a,0x3a,0x10,0x40,0x70,0x61,0x72,0x61,0x6d,0x65,0x74,0x65,0x72,0x73,0x5b,0x00,0x6f,0x3b,0x0a,0x07,0x3b,0x0b,0x69,0x13,0x3b,0x0c,0x5b,0x07,0x69,0x00,0x69,0x09,0x6f,0x3b,0x0a,0x07,0x3b,0x0b,0x69,0x08,0x3b,0x0c,0x5b,0x00,0x6f,0x3b,0x0a,0x07,0x3b,0x0b,0x69,0x08,0x3b,0x0c,0x5b,0x00,0x6f,0x3b,0x0a,0x07,0x3b,0x0b,0x69,0x06,0x3b,0x0c,0x5b,0x00,0x6f,0x3b,0x0a,0x07,0x3b,0x0b,0x69,0x06,0x3b,0x0c,0x5b,0x00,0x6f,0x3b,0x0a,0x07,0x3b,0x0b,0x69,0x06,0x3b,0x0c,0x5b,0x00,0x6f,0x3b,0x0a,0x07,0x3b,0x0b,0x69,0x06,0x3b,0x0c,0x5b,0x00,0x6f,0x3b,0x0a,0x07,0x3b,0x0b,0x69,0x00,0x3b,0x0c,0x5b,0x00))
   ShowMessageFace("radio_fc1",0,0,2,9)
   ShowMessage("\\n<Radio>よろしくお願いしマス、ますター……")
   205(5,bytes(0x04,0x08,0x6f,0x3a,0x13,0x52,0x50,0x47,0x3a,0x3a,0x4d,0x6f,0x76,0x65,0x52,0x6f,0x75,0x74,0x65,0x09,0x3a,0x0c,0x40,0x72,0x65,0x70,0x65,0x61,0x74,0x46,0x3a,0x0f,0x40,0x73,0x6b,0x69,0x70,0x70,0x61,0x62,0x6c,0x65,0x46,0x3a,0x0a,0x40,0x77,0x61,0x69,0x74,0x54,0x3a,0x0a,0x40,0x6c,0x69,0x73,0x74,0x5b,0x09,0x6f,0x3a,0x15,0x52,0x50,0x47,0x3a,0x3a,0x4d,0x6f,0x76,0x65,0x43,0x6f,0x6d,0x6d,0x61,0x6e,0x64,0x07,0x3a,0x0a,0x40,0x63,0x6f,0x64,0x65,0x69,0x2a,0x3a,0x10,0x40,0x70,0x61,0x72,0x61,0x6d,0x65,0x74,0x65,0x72,0x73,0x5b,0x00,0x6f,0x3b,0x0a,0x07,0x3b,0x0b,0x69,0x06,0x3b,0x0c,0x5b,0x00,0x6f,0x3b,0x0a,0x07,0x3b,0x0b,0x69,0x2c,0x3b,0x0c,0x5b,0x00,0x6f,0x3b,0x0a,0x07,0x3b,0x0b,0x69,0x00,0x3b,0x0c,0x5b,0x00))
   355("add_actor_ex(185)")
   249(bytes(0x04,0x08,0x6f,0x3a,0x0c,0x52,0x50,0x47,0x3a,0x3a,0x4d,0x45,0x08,0x3a,0x0a,0x40,0x6e,0x61,0x6d,0x65,0x49,0x22,0x0c,0x66,0x61,0x6e,0x66,0x61,0x6c,0x65,0x06,0x3a,0x06,0x45,0x54,0x3a,0x0b,0x40,0x70,0x69,0x74,0x63,0x68,0x69,0x69,0x3a,0x0c,0x40,0x76,0x6f,0x6c,0x75,0x6d,0x65,0x69,0x69))
   ShowMessageFace("",0,0,2,10)
   ShowMessage("ラディオが仲間に加わった！")
   Wait(60)
   ShowMessageFace("shirom_fc2",1,0,2,11)
   ShowMessage("\\n<La Croix>……さあ、それでは行け。")
   If(0,6,0)
    ShowMessageFace("sonia_fc2",2,0,2,12)
    ShowMessage("\\n<Sonya>ありがとうございました、ラ・クロワさん……！")
    0()
   EndIf()
   If(0,4,0)
    ShowMessageFace("alice_fc5",2,0,2,13)
    ShowMessage("\\n<Alice>感謝する、ラ・クロワ。 こちらの事は、我々に任せるがいい。")
    0()
   EndIf()
   If(0,5,0)
    ShowMessageFace("iriasu_fc4",7,0,2,14)
    ShowMessage("\\n<Ilias>ラ・クロワ、あなたの働きに賛辞を贈ります。 我々が確かに世界を救いましょう。")
    0()
   EndIf()
   ShowMessageFace("ruka_fc1",0,0,2,15)
   ShowMessage("\\n<Luka>このノート……いや、この世界の人達が繋いだ希望！ 確かに預かりました！")
   If(4,134,0)
    ShowMessageFace("chrom_fc2",7,0,2,16)
    ShowMessage("\\n<Chrome>お、お姉ちゃん……")
    ShowMessageFace("chrom_fc2",7,0,2,17)
    ShowMessage("\\n<Chrome>……………………")
    ShowMessageFace("chrom_fc2",1,0,2,18)
    ShowMessage("\\n<Chrome>儂は栄光あるアルテイスト家の末娘、クロム！ 全て儂に任せるのじゃ！")
    0()
   EndIf()
   PictureClear(5)
   205(-1,bytes(0x04,0x08,0x6f,0x3a,0x13,0x52,0x50,0x47,0x3a,0x3a,0x4d,0x6f,0x76,0x65,0x52,0x6f,0x75,0x74,0x65,0x09,0x3a,0x0c,0x40,0x72,0x65,0x70,0x65,0x61,0x74,0x46,0x3a,0x0f,0x40,0x73,0x6b,0x69,0x70,0x70,0x61,0x62,0x6c,0x65,0x46,0x3a,0x0a,0x40,0x77,0x61,0x69,0x74,0x54,0x3a,0x0a,0x40,0x6c,0x69,0x73,0x74,0x5b,0x07,0x6f,0x3a,0x15,0x52,0x50,0x47,0x3a,0x3a,0x4d,0x6f,0x76,0x65,0x43,0x6f,0x6d,0x6d,0x61,0x6e,0x64,0x07,0x3a,0x0a,0x40,0x63,0x6f,0x64,0x65,0x69,0x15,0x3a,0x10,0x40,0x70,0x61,0x72,0x61,0x6d,0x65,0x74,0x65,0x72,0x73,0x5b,0x00,0x6f,0x3b,0x0a,0x07,0x3b,0x0b,0x69,0x00,0x3b,0x0c,0x5b,0x00))
   250(bytes(0x04,0x08,0x6f,0x3a,0x0c,0x52,0x50,0x47,0x3a,0x3a,0x53,0x45,0x08,0x3a,0x0a,0x40,0x6e,0x61,0x6d,0x65,0x49,0x22,0x0b,0x4d,0x61,0x67,0x69,0x63,0x32,0x06,0x3a,0x06,0x45,0x54,0x3a,0x0b,0x40,0x70,0x69,0x74,0x63,0x68,0x69,0x69,0x3a,0x0c,0x40,0x76,0x6f,0x6c,0x75,0x6d,0x65,0x69,0x55))
   PictureDisplay(1,"sys_white",0,0,0,0,100,100,0,0)
   PictureMove(1,null,0,0,0,0,100,100,255,0,30,true)
   211(0)
   PictureMove(1,null,0,0,0,0,100,100,0,0,30,true)
   PictureClear(1)
   Wait(60)
   ShowMessageFace("shirom_fc2",1,0,2,19)
   ShowMessage("\\n<La Croix>頼むぞ…… 世界を、救え……")
   If(4,134,0)
    ShowMessageFace("shirom_fc2",1,0,2,20)
    ShowMessage("\\n<La Croix>……………………")
    ShowMessageFace("shirom_fc2",1,0,2,21)
    ShowMessage("\\n<La Croix>つくづく、私には過ぎた花道だな。 まさか最後の最後に、クロムの姿が見られるとは……")
    0()
   EndIf()
   ScrollMap(8,4,4)
   205(18,bytes(0x04,0x08,0x6f,0x3a,0x13,0x52,0x50,0x47,0x3a,0x3a,0x4d,0x6f,0x76,0x65,0x52,0x6f,0x75,0x74,0x65,0x09,0x3a,0x0c,0x40,0x72,0x65,0x70,0x65,0x61,0x74,0x46,0x3a,0x0f,0x40,0x73,0x6b,0x69,0x70,0x70,0x61,0x62,0x6c,0x65,0x46,0x3a,0x0a,0x40,0x77,0x61,0x69,0x74,0x54,0x3a,0x0a,0x40,0x6c,0x69,0x73,0x74,0x5b,0x07,0x6f,0x3a,0x15,0x52,0x50,0x47,0x3a,0x3a,0x4d,0x6f,0x76,0x65,0x43,0x6f,0x6d,0x6d,0x61,0x6e,0x64,0x07,0x3a,0x0a,0x40,0x63,0x6f,0x64,0x65,0x69,0x18,0x3a,0x10,0x40,0x70,0x61,0x72,0x61,0x6d,0x65,0x74,0x65,0x72,0x73,0x5b,0x00,0x6f,0x3b,0x0a,0x07,0x3b,0x0b,0x69,0x00,0x3b,0x0c,0x5b,0x00))
   ShowMessageFace("shirom_fc2",1,0,2,22)
   ShowMessage("\\n<La Croix>……シルク・ドゥ・クロワ！ さあ、最後のステージだ！")
   250(bytes(0x04,0x08,0x6f,0x3a,0x0c,0x52,0x50,0x47,0x3a,0x3a,0x53,0x45,0x08,0x3a,0x0a,0x40,0x6e,0x61,0x6d,0x65,0x49,0x22,0x0e,0x6d,0x6f,0x6e,0x5f,0x64,0x6f,0x6f,0x72,0x31,0x06,0x3a,0x06,0x45,0x54,0x3a,0x0b,0x40,0x70,0x69,0x74,0x63,0x68,0x69,0x69,0x3a,0x0c,0x40,0x76,0x6f,0x6c,0x75,0x6d,0x65,0x69,0x69))
   ChangeSwitch(31,31,0)
   Wait(15)
   205(7,bytes(0x04,0x08,0x6f,0x3a,0x13,0x52,0x50,0x47,0x3a,0x3a,0x4d,0x6f,0x76,0x65,0x52,0x6f,0x75,0x74,0x65,0x09,0x3a,0x0c,0x40,0x72,0x65,0x70,0x65,0x61,0x74,0x46,0x3a,0x0f,0x40,0x73,0x6b,0x69,0x70,0x70,0x61,0x62,0x6c,0x65,0x46,0x3a,0x0a,0x40,0x77,0x61,0x69,0x74,0x46,0x3a,0x0a,0x40,0x6c,0x69,0x73,0x74,0x5b,0x0a,0x6f,0x3a,0x15,0x52,0x50,0x47,0x3a,0x3a,0x4d,0x6f,0x76,0x65,0x43,0x6f,0x6d,0x6d,0x61,0x6e,0x64,0x07,0x3a,0x0a,0x40,0x63,0x6f,0x64,0x65,0x69,0x2a,0x3a,0x10,0x40,0x70,0x61,0x72,0x61,0x6d,0x65,0x74,0x65,0x72,0x73,0x5b,0x00,0x6f,0x3b,0x0a,0x07,0x3b,0x0b,0x69,0x08,0x3b,0x0c,0x5b,0x00,0x6f,0x3b,0x0a,0x07,0x3b,0x0b,0x69,0x08,0x3b,0x0c,0x5b,0x00,0x6f,0x3b,0x0a,0x07,0x3b,0x0b,0x69,0x09,0x3b,0x0c,0x5b,0x00,0x6f,0x3b,0x0a,0x07,0x3b,0x0b,0x69,0x00,0x3b,0x0c,0x5b,0x00))
   205(10,bytes(0x04,0x08,0x6f,0x3a,0x13,0x52,0x50,0x47,0x3a,0x3a,0x4d,0x6f,0x76,0x65,0x52,0x6f,0x75,0x74,0x65,0x09,0x3a,0x0c,0x40,0x72,0x65,0x70,0x65,0x61,0x74,0x46,0x3a,0x0f,0x40,0x73,0x6b,0x69,0x70,0x70,0x61,0x62,0x6c,0x65,0x46,0x3a,0x0a,0x40,0x77,0x61,0x69,0x74,0x46,0x3a,0x0a,0x40,0x6c,0x69,0x73,0x74,0x5b,0x0b,0x6f,0x3a,0x15,0x52,0x50,0x47,0x3a,0x3a,0x4d,0x6f,0x76,0x65,0x43,0x6f,0x6d,0x6d,0x61,0x6e,0x64,0x07,0x3a,0x0a,0x40,0x63,0x6f,0x64,0x65,0x69,0x2a,0x3a,0x10,0x40,0x70,0x61,0x72,0x61,0x6d,0x65,0x74,0x65,0x72,0x73,0x5b,0x00,0x6f,0x3b,0x0a,0x07,0x3b,0x0b,0x69,0x07,0x3b,0x0c,0x5b,0x00,0x6f,0x3b,0x0a,0x07,0x3b,0x0b,0x69,0x07,0x3b,0x0c,0x5b,0x00,0x6f,0x3b,0x0a,0x07,0x3b,0x0b,0x69,0x07,0x3b,0x0c,0x5b,0x00,0x6f,0x3b,0x0a,0x07,0x3b,0x0b,0x69,0x18,0x3b,0x0c,0x5b,0x00,0x6f,0x3b,0x0a,0x07,0x3b,0x0b,0x69,0x00,0x3b,0x0c,0x5b,0x00))
   205(12,bytes(0x04,0x08,0x6f,0x3a,0x13,0x52,0x50,0x47,0x3a,0x3a,0x4d,0x6f,0x76,0x65,0x52,0x6f,0x75,0x74,0x65,0x09,0x3a,0x0c,0x40,0x72,0x65,0x70,0x65,0x61,0x74,0x46,0x3a,0x0f,0x40,0x73,0x6b,0x69,0x70,0x70,0x61,0x62,0x6c,0x65,0x46,0x3a,0x0a,0x40,0x77,0x61,0x69,0x74,0x54,0x3a,0x0a,0x40,0x6c,0x69,0x73,0x74,0x5b,0x0a,0x6f,0x3a,0x15,0x52,0x50,0x47,0x3a,0x3a,0x4d,0x6f,0x76,0x65,0x43,0x6f,0x6d,0x6d,0x61,0x6e,0x64,0x07,0x3a,0x0a,0x40,0x63,0x6f,0x64,0x65,0x69,0x2a,0x3a,0x10,0x40,0x70,0x61,0x72,0x61,0x6d,0x65,0x74,0x65,0x72,0x73,0x5b,0x00,0x6f,0x3b,0x0a,0x07,0x3b,0x0b,0x69,0x07,0x3b,0x0c,0x5b,0x00,0x6f,0x3b,0x0a,0x07,0x3b,0x0b,0x69,0x07,0x3b,0x0c,0x5b,0x00,0x6f,0x3b,0x0a,0x07,0x3b,0x0b,0x69,0x09,0x3b,0x0c,0x5b,0x00,0x6f,0x3b,0x0a,0x07,0x3b,0x0b,0x69,0x00,0x3b,0x0c,0x5b,0x00))
   241(bytes(0x04,0x08,0x6f,0x3a,0x0d,0x52,0x50,0x47,0x3a,0x3a,0x42,0x47,0x4d,0x08,0x3a,0x0a,0x40,0x6e,0x61,0x6d,0x65,0x49,0x22,0x0c,0x62,0x6f,0x73,0x73,0x30,0x2d,0x33,0x06,0x3a,0x06,0x45,0x54,0x3a,0x0c,0x40,0x76,0x6f,0x6c,0x75,0x6d,0x65,0x69,0x69,0x3a,0x0b,0x40,0x70,0x69,0x74,0x63,0x68,0x69,0x69))
   Wait(60)
   205(15,bytes(0x04,0x08,0x6f,0x3a,0x13,0x52,0x50,0x47,0x3a,0x3a,0x4d,0x6f,0x76,0x65,0x52,0x6f,0x75,0x74,0x65,0x09,0x3a,0x0c,0x40,0x72,0x65,0x70,0x65,0x61,0x74,0x46,0x3a,0x0f,0x40,0x73,0x6b,0x69,0x70,0x70,0x61,0x62,0x6c,0x65,0x46,0x3a,0x0a,0x40,0x77,0x61,0x69,0x74,0x54,0x3a,0x0a,0x40,0x6c,0x69,0x73,0x74,0x5b,0x0b,0x6f,0x3a,0x15,0x52,0x50,0x47,0x3a,0x3a,0x4d,0x6f,0x76,0x65,0x43,0x6f,0x6d,0x6d,0x61,0x6e,0x64,0x07,0x3a,0x0a,0x40,0x63,0x6f,0x64,0x65,0x69,0x2a,0x3a,0x10,0x40,0x70,0x61,0x72,0x61,0x6d,0x65,0x74,0x65,0x72,0x73,0x5b,0x00,0x6f,0x3b,0x0a,0x07,0x3b,0x0b,0x69,0x06,0x3b,0x0c,0x5b,0x00,0x6f,0x3b,0x0a,0x07,0x3b,0x0b,0x69,0x06,0x3b,0x0c,0x5b,0x00,0x6f,0x3b,0x0a,0x07,0x3b,0x0b,0x69,0x06,0x3b,0x0c,0x5b,0x00,0x6f,0x3b,0x0a,0x07,0x3b,0x0b,0x69,0x06,0x3b,0x0c,0x5b,0x00,0x6f,0x3b,0x0a,0x07,0x3b,0x0b,0x69,0x00,0x3b,0x0c,0x5b,0x00))
   Wait(30)
   PictureDisplay(5,"80_adramelek_st01",0,0,0,0,100,100,0,0)
   PictureMove(5,null,0,0,0,0,100,100,255,0,30,true)
   ShowMessageFace("adramelek_fc0",0,0,2,23)
   ShowMessage("\\n<Adramelech>第二種断界接触――ただちに消去する。")
   ShowMessageFace("shirom_fc2",1,0,2,24)
   ShowMessage("\\n<La Croix>観客もいない、最後の舞台…… だが、思う存分に舞わせてもらおう！")
   Wait(30)
   221()
   242(2)
   PictureClear(5)
   ChangeSwitch(31,31,1)
   211(1)
   Wait(180)
   TeleportPlayer(0,619,36,20,8,2)
   241(bytes(0x04,0x08,0x6f,0x3a,0x0d,0x52,0x50,0x47,0x3a,0x3a,0x42,0x47,0x4d,0x08,0x3a,0x0a,0x40,0x6e,0x61,0x6d,0x65,0x49,0x22,0x16,0x64,0x75,0x6e,0x67,0x65,0x6f,0x6e,0x5f,0x74,0x61,0x72,0x75,0x74,0x61,0x72,0x6f,0x31,0x06,0x3a,0x06,0x45,0x54,0x3a,0x0c,0x40,0x76,0x6f,0x6c,0x75,0x6d,0x65,0x69,0x69,0x3a,0x0b,0x40,0x70,0x69,0x74,0x63,0x68,0x69,0x69))
   222()
   If(0,4,0)
    ShowMessageFace("alice_fc6",0,0,2,25)
    ShowMessage("\\n<Alice>ここまで空間が浸食されて……！ これも、あのアドラメレクとやらの力だというのか！")
    0()
   EndIf()
   If(0,5,0)
    ShowMessageFace("iriasu_fc4",5,0,2,26)
    ShowMessage("\\n<Ilias>ここまで空間が浸食されている……！ これが、最上位アポトーシスの力だというのですか！？")
    0()
   EndIf()
   ShowMessageFace("radio_fc1",0,0,2,27)
   ShowMessage("\\n<Radio>前マスターとアドラメレクの戦闘が開始されマシた……")
   ShowMessageFace("ruka_fc1",0,0,2,28)
   ShowMessage("\\n<Luka>急いで脱出しよう！ ラ・クロワさん達の願い、無駄にしちゃいけない！")
   EndEventProcessing()
   0()
  IfPlayerPicksChoice(1,null)
   205(-1,bytes(0x04,0x08,0x6f,0x3a,0x13,0x52,0x50,0x47,0x3a,0x3a,0x4d,0x6f,0x76,0x65,0x52,0x6f,0x75,0x74,0x65,0x09,0x3a,0x0c,0x40,0x72,0x65,0x70,0x65,0x61,0x74,0x46,0x3a,0x0f,0x40,0x73,0x6b,0x69,0x70,0x70,0x61,0x62,0x6c,0x65,0x46,0x3a,0x0a,0x40,0x77,0x61,0x69,0x74,0x54,0x3a,0x0a,0x40,0x6c,0x69,0x73,0x74,0x5b,0x07,0x6f,0x3a,0x15,0x52,0x50,0x47,0x3a,0x3a,0x4d,0x6f,0x76,0x65,0x43,0x6f,0x6d,0x6d,0x61,0x6e,0x64,0x07,0x3a,0x0a,0x40,0x63,0x6f,0x64,0x65,0x69,0x09,0x3a,0x10,0x40,0x70,0x61,0x72,0x61,0x6d,0x65,0x74,0x65,0x72,0x73,0x5b,0x00,0x6f,0x3b,0x0a,0x07,0x3b,0x0b,0x69,0x00,0x3b,0x0c,0x5b,0x00))
   EndEventProcessing()
   0()
  404()
  0()



EVENT   15
 PAGE   1
  // condition: switch 31 is ON
  0()



EVENT   16
 PAGE   1
  ShowMessageFace("",0,0,2,1)
  ShowMessage("癒しの壺がある……")
  250(bytes(0x04,0x08,0x6f,0x3a,0x0c,0x52,0x50,0x47,0x3a,0x3a,0x53,0x45,0x08,0x3a,0x0a,0x40,0x6e,0x61,0x6d,0x65,0x49,0x22,0x0a,0x48,0x65,0x61,0x6c,0x37,0x06,0x3a,0x06,0x45,0x54,0x3a,0x0b,0x40,0x70,0x69,0x74,0x63,0x68,0x69,0x69,0x3a,0x0c,0x40,0x76,0x6f,0x6c,0x75,0x6d,0x65,0x69,0x55))
  224(bytes(0x04,0x08,0x75,0x3a,0x0a,0x43,0x6f,0x6c,0x6f,0x72,0x25,0x00,0x00,0x00,0x00,0x00,0xe0,0x6f,0x40,0x00,0x00,0x00,0x00,0x00,0xe0,0x6f,0x40,0x00,0x00,0x00,0x00,0x00,0xe0,0x6f,0x40,0x00,0x00,0x00,0x00,0x00,0xe0,0x6f,0x40),30,true)
  314(0,0)
  ShowMessageFace("",0,0,2,2)
  ShowMessage("The party's HP and MP have been fully restored!")
  0()



EVENT   3
 PAGE   1
  If(12,"unlock_level < 1")
   ShowMessageFace("",0,0,2,1)
   ShowMessage("The chest is locked.")
   EndEventProcessing()
   0()
  EndIf()
  250(bytes(0x04,0x08,0x6f,0x3a,0x0c,0x52,0x50,0x47,0x3a,0x3a,0x53,0x45,0x08,0x3a,0x0a,0x40,0x6e,0x61,0x6d,0x65,0x49,0x22,0x0a,0x43,0x68,0x65,0x73,0x74,0x06,0x3a,0x06,0x45,0x54,0x3a,0x0b,0x40,0x70,0x69,0x74,0x63,0x68,0x69,0x69,0x3a,0x0c,0x40,0x76,0x6f,0x6c,0x75,0x6d,0x65,0x69,0x55))
  205(0,bytes(0x04,0x08,0x6f,0x3a,0x13,0x52,0x50,0x47,0x3a,0x3a,0x4d,0x6f,0x76,0x65,0x52,0x6f,0x75,0x74,0x65,0x09,0x3a,0x0c,0x40,0x72,0x65,0x70,0x65,0x61,0x74,0x46,0x3a,0x0f,0x40,0x73,0x6b,0x69,0x70,0x70,0x61,0x62,0x6c,0x65,0x46,0x3a,0x0a,0x40,0x77,0x61,0x69,0x74,0x54,0x3a,0x0a,0x40,0x6c,0x69,0x73,0x74,0x5b,0x0b,0x6f,0x3a,0x15,0x52,0x50,0x47,0x3a,0x3a,0x4d,0x6f,0x76,0x65,0x43,0x6f,0x6d,0x6d,0x61,0x6e,0x64,0x07,0x3a,0x0a,0x40,0x63,0x6f,0x64,0x65,0x69,0x29,0x3a,0x10,0x40,0x70,0x61,0x72,0x61,0x6d,0x65,0x74,0x65,0x72,0x73,0x5b,0x00,0x6f,0x3b,0x0a,0x07,0x3b,0x0b,0x69,0x16,0x3b,0x0c,0x5b,0x00,0x6f,0x3b,0x0a,0x07,0x3b,0x0b,0x69,0x14,0x3b,0x0c,0x5b,0x06,0x69,0x08,0x6f,0x3b,0x0a,0x07,0x3b,0x0b,0x69,0x17,0x3b,0x0c,0x5b,0x00,0x6f,0x3b,0x0a,0x07,0x3b,0x0b,0x69,0x14,0x3b,0x0c,0x5b,0x06,0x69,0x08,0x6f,0x3b,0x0a,0x07,0x3b,0x0b,0x69,0x00,0x3b,0x0c,0x5b,0x00))
  ChangeSelfSwitch("A",0)
  ChangeInventoryWeapon(125,0,0,1,false)
  0()
 PAGE   2
  // condition: self-switch A is ON
  0()



EVENT   17
 PAGE   1
  250(bytes(0x04,0x08,0x6f,0x3a,0x0c,0x52,0x50,0x47,0x3a,0x3a,0x53,0x45,0x08,0x3a,0x0a,0x40,0x6e,0x61,0x6d,0x65,0x49,0x22,0x0a,0x49,0x74,0x65,0x6d,0x31,0x06,0x3a,0x06,0x45,0x54,0x3a,0x0b,0x40,0x70,0x69,0x74,0x63,0x68,0x69,0x69,0x3a,0x0c,0x40,0x76,0x6f,0x6c,0x75,0x6d,0x65,0x69,0x55))
  ChangeSelfSwitch("A",0)
  ChangeInventory_Item(9,0,0,1)
  0()
 PAGE   2
  // condition: self-switch A is ON
  0()



EVENT   18
 PAGE   1
  // condition: variable 1032 >= 5
  ShowMessageFace("shirom_fc2",1,0,2,1)
  ShowMessage("\\n<La Croix>アドラメレクとは、すでに何回か戦っている。 出現するたびに力を増す、最上位のアポトーシスだ。")
  ShowMessageFace("shirom_fc2",1,0,2,2)
  ShowMessage("\\n<La Croix>今のお前達では、決して勝ち目はない。 ここは私が食い止めよう。")
  ShowMessageFace("shirom_fc2",1,0,2,3)
  ShowMessage("\\n<La Croix>さあ、奥の魔法陣から脱出しろ……")
  If(4,134,0)
   If(2,"A",1)
    ChangeSelfSwitch("A",0)
    ShowMessageFace("chrom_fc2",7,0,2,4)
    ShowMessage("\\n<Chrome>お、お姉ちゃん……？ お姉ちゃんだよね……？")
    ShowMessageFace("shirom_fc2",1,0,2,5)
    ShowMessage("\\n<La Croix>……………………")
    ShowMessageFace("shirom_fc2",1,0,2,6)
    ShowMessage("\\n<La Croix>……違う。 私は、お前の姉とは別人だ。")
    ShowMessageFace("shirom_fc2",1,0,2,7)
    ShowMessage("\\n<La Croix>私にも、お前に似た妹がいたが…… 数十年前に、失ってしまった。")
    ShowMessageFace("shirom_fc2",1,0,2,8)
    ShowMessage("\\n<La Croix>そして私も、お前の姉と似ているが別人だ…… 私達はそれぞれ別世界の住人、血の繋がりなどない。")
    ShowMessageFace("chrom_fc2",7,0,2,9)
    ShowMessage("\\n<Chrome>で、でも……！")
    ShowMessageFace("shirom_fc2",1,0,2,10)
    ShowMessage("\\n<La Croix>お前の姉は、おそらく道を誤っているはずだ。 救ってやれるのは、お前しかいない……")
    ShowMessageFace("chrom_fc2",5,0,2,11)
    ShowMessage("\\n<Chrome>……えっ？")
    ShowMessageFace("shirom_fc2",1,0,2,12)
    ShowMessage("\\n<La Croix>行け、クロム。 お前は、お前の姉を救ってやれ……")
    ShowMessageFace("chrom_fc2",7,0,2,13)
    ShowMessage("\\n<Chrome>……………………")
    0()
   EndIf()
   0()
  EndIf()
  0()



EVENT   19
 PAGE   1
  250(bytes(0x04,0x08,0x6f,0x3a,0x0c,0x52,0x50,0x47,0x3a,0x3a,0x53,0x45,0x08,0x3a,0x0a,0x40,0x6e,0x61,0x6d,0x65,0x49,0x22,0x0a,0x49,0x74,0x65,0x6d,0x31,0x06,0x3a,0x06,0x45,0x54,0x3a,0x0b,0x40,0x70,0x69,0x74,0x63,0x68,0x69,0x69,0x3a,0x0c,0x40,0x76,0x6f,0x6c,0x75,0x6d,0x65,0x69,0x55))
  ChangeSelfSwitch("A",0)
  ChangeInventory_Item(37,0,0,1)
  0()
 PAGE   2
  // condition: self-switch A is ON
  0()



EVENT   20
 PAGE   1
  RunCommonEvent(113)
  0()
