
DisplayName "Pocket Castle Royal Parlor"



EVENT   2
 PAGE   1
  0()



EVENT   3
 PAGE   1
  281(0)
  250(bytes(0x04,0x08,0x6f,0x3a,0x0c,0x52,0x50,0x47,0x3a,0x3a,0x53,0x45,0x08,0x3a,0x0a,0x40,0x6e,0x61,0x6d,0x65,0x49,0x22,0x09,0x4d,0x6f,0x76,0x65,0x06,0x3a,0x06,0x45,0x54,0x3a,0x0b,0x40,0x70,0x69,0x74,0x63,0x68,0x69,0x69,0x3a,0x0c,0x40,0x76,0x6f,0x6c,0x75,0x6d,0x65,0x69,0x55))
  TeleportPlayer(0,277,40,30,0,0)
  0()



EVENT   1
 PAGE   1
  RunCommonEvent(111)
  0()



EVENT   5
 PAGE   1
  // condition: switch 1533 is ON
  PictureDisplay(5,"80_grandnoa_st01",0,0,0,0,100,100,0,0)
  PictureMove(5,null,0,0,0,0,100,100,255,0,30,true)
  If(1,3533,0,100,1)
   If(1,4533,0,0,0)
    ChangeVariable(4533,4533,0,0,1)
    ShowMessageFace("grandnoa_fc1",0,0,2,1)
    ShowMessage("\\n<Queen of Grand Noah (Affection:\\V[3533])>これを差し上げましょう……")
    250(bytes(0x04,0x08,0x6f,0x3a,0x0c,0x52,0x50,0x47,0x3a,0x3a,0x53,0x45,0x08,0x3a,0x0a,0x40,0x6e,0x61,0x6d,0x65,0x49,0x22,0x0a,0x49,0x74,0x65,0x6d,0x31,0x06,0x3a,0x06,0x45,0x54,0x3a,0x0b,0x40,0x70,0x69,0x74,0x63,0x68,0x69,0x69,0x3a,0x0c,0x40,0x76,0x6f,0x6c,0x75,0x6d,0x65,0x69,0x55))
    ChangeInventoryArmor(1056,0,0,1,false)
    0()
   EndIf()
   0()
  EndIf()
  If(1,3533,0,500,1)
   If(1,4533,0,1,0)
    ChangeVariable(4533,4533,0,0,2)
    ShowMessageFace("grandnoa_fc1",0,0,2,2)
    ShowMessage("\\n<Queen of Grand Noah (Affection:\\V[3533])>これを差し上げましょう……")
    250(bytes(0x04,0x08,0x6f,0x3a,0x0c,0x52,0x50,0x47,0x3a,0x3a,0x53,0x45,0x08,0x3a,0x0a,0x40,0x6e,0x61,0x6d,0x65,0x49,0x22,0x0a,0x49,0x74,0x65,0x6d,0x31,0x06,0x3a,0x06,0x45,0x54,0x3a,0x0b,0x40,0x70,0x69,0x74,0x63,0x68,0x69,0x69,0x3a,0x0c,0x40,0x76,0x6f,0x6c,0x75,0x6d,0x65,0x69,0x55))
    ChangeInventoryArmor(1071,0,0,1,false)
    0()
   EndIf()
   0()
  EndIf()
  If(1,3533,0,2000,1)
   If(1,4533,0,2,0)
    ChangeVariable(4533,4533,0,0,3)
    ShowMessageFace("grandnoa_fc1",0,0,2,3)
    ShowMessage("\\n<Queen of Grand Noah (Affection:\\V[3533])>これを差し上げましょう……")
    250(bytes(0x04,0x08,0x6f,0x3a,0x0c,0x52,0x50,0x47,0x3a,0x3a,0x53,0x45,0x08,0x3a,0x0a,0x40,0x6e,0x61,0x6d,0x65,0x49,0x22,0x0a,0x49,0x74,0x65,0x6d,0x31,0x06,0x3a,0x06,0x45,0x54,0x3a,0x0b,0x40,0x70,0x69,0x74,0x63,0x68,0x69,0x69,0x3a,0x0c,0x40,0x76,0x6f,0x6c,0x75,0x6d,0x65,0x69,0x55))
    ChangeInventoryArmor(1168,0,0,1,false)
    0()
   EndIf()
   0()
  EndIf()
  If(1,3533,0,4000,1)
   If(1,4533,0,3,0)
    ChangeVariable(4533,4533,0,0,4)
    ShowMessageFace("grandnoa_fc1",0,0,2,4)
    ShowMessage("\\n<Queen of Grand Noah (Affection:\\V[3533])>これを差し上げましょう……")
    250(bytes(0x04,0x08,0x6f,0x3a,0x0c,0x52,0x50,0x47,0x3a,0x3a,0x53,0x45,0x08,0x3a,0x0a,0x40,0x6e,0x61,0x6d,0x65,0x49,0x22,0x0a,0x49,0x74,0x65,0x6d,0x31,0x06,0x3a,0x06,0x45,0x54,0x3a,0x0b,0x40,0x70,0x69,0x74,0x63,0x68,0x69,0x69,0x3a,0x0c,0x40,0x76,0x6f,0x6c,0x75,0x6d,0x65,0x69,0x55))
    ChangeInventoryArmor(1590,0,0,1,false)
    0()
   EndIf()
   0()
  EndIf()
  355("actor_label_jump")
  ShowMessageFace("grandnoa_fc1",0,0,2,5)
  ShowMessage("\\n<Queen of Grand Noah (Affection:\\V[3533])>ああ、メダルは何と美しいのでしょう……")
  JumpToLabel("メニュー")
  DefineLabel("53")
  ShowMessageFace("slime_fc1",0,0,2,6)
  ShowMessage("\\n<Lime (Affection:\\V[3053])>女王様～！　小さなメダル、見つけたよ～！")
  ShowMessageFace("grandnoa_fc1",2,0,2,7)
  ShowMessage("\\n<Queen of Grand Noah (Affection:\\V[3533])>どれどれ……おや、これは違いますね。 ビンの蓋のようです。")
  ShowMessageFace("slime_fc1",2,0,2,8)
  ShowMessage("\\n<Lime (Affection:\\V[3053])>なんだぁ……しょんぼり……")
  ShowMessageFace("grandnoa_fc1",1,0,2,9)
  ShowMessage("\\n<Queen of Grand Noah (Affection:\\V[3533])>……ですが、私はビンの蓋も集めています。 このビスケットと交換しましょう。")
  ShowMessageFace("slime_fc1",0,0,2,10)
  ShowMessage("\\n<Lime (Affection:\\V[3053])>わ～い、ありがと～！")
  ShowMessageFace("sonia_fc1",0,0,2,11)
  ShowMessage("\\n<Sonya (Affection:\\V[3525])>お優しいんですね、女王様。")
  ShowMessageFace("grandnoa_fc1",1,0,2,12)
  ShowMessage("\\n<Queen of Grand Noah (Affection:\\V[3533])>いえ、それなりに珍しいものでしたし。 64年製の、しかもデリア工房製の蓋はなかなか……")
  ShowMessageFace("sonia_fc4",0,0,2,13)
  ShowMessage("\\n<Sonya (Affection:\\V[3525])>（本当に集めてたんだ……)")
  JumpToLabel("メニュー")
  DefineLabel("171")
  ShowMessageFace("lizardboss_fc1",1,0,2,14)
  ShowMessage("\\n<Miranda (Affection:\\V[3171])>あんた、もしかしてグランドノアの！ ここでさらっちまえば、いくら金をむしり取れるか……")
  ShowMessageFace("grandnoa_fc1",0,0,2,15)
  ShowMessage("\\n<Queen of Grand Noah (Affection:\\V[3533])>残念ながら、私は正体不明のメダル女王です。 身代金は出ませんよ。")
  ShowMessageFace("lizardboss_fc1",3,0,2,16)
  ShowMessage("\\n<Miranda (Affection:\\V[3171])>なんだ、人違いかい。 それはすまなかったね……")
  ShowMessageFace("sonia_fc3",2,0,2,17)
  ShowMessage("\\n<Sonya>（簡単にだまされてる！)")
  JumpToLabel("メニュー")
  DefineLabel("525")
  ShowMessageFace("sonia_fc2",2,0,2,18)
  ShowMessage("\\n<Sonya (Affection:\\V[3525])>あの、いいんですか……？ 女王様なのに、冒険の旅に出ちゃって……")
  ShowMessageFace("grandnoa_fc1",0,0,2,19)
  ShowMessage("\\n<Queen of Grand Noah (Affection:\\V[3533])>メダ……世を安寧にするのが統治者の職務。 その為には、長旅も厭わない所存です。")
  ShowMessageFace("sonia_fc4",0,0,2,20)
  ShowMessage("\\n<Sonya (Affection:\\V[3525])>（メダルって言いかけた……)")
  JumpToLabel("メニュー")
  DefineLabel("529")
  ShowMessageFace("sara_fc1",1,0,2,21)
  ShowMessage("\\n<Sara (Affection:\\V[3529])>グランドノア女王、ずいぶんとお久しぶりです。")
  ShowMessageFace("grandnoa_fc1",0,0,2,22)
  ShowMessage("\\n<Queen of Grand Noah (Affection:\\V[3533])>はて、誰と間違えているのです……？ 私は正体不明のメダル女王ですが。")
  ShowMessageFace("sara_fc1",4,0,2,23)
  ShowMessage("\\n<Sara (Affection:\\V[3529])>そのキャラ設定、意地でも通すんですか……？")
  JumpToLabel("メニュー")
  DefineLabel("メニュー")
  StartLoop()
   355("unlimited_choices(11, [\"Give presents\",")
   655("\"Add to party\",")
   655("\"View present list\",\"Never mind\"])")
   If(1,11,0,0,0)
    355("present_start(533)")
    0()
   EndIf()
   If(1,11,0,1,0)
    PictureClear(5)
    355("move_actor_ex(533)")
    EndEventProcessing()
    0()
   EndIf()
   If(1,11,0,2,0)
    ShowMessageFace("",0,0,2,24)
    ShowMessage("Affection  100:\\ia[1056]")
    ShowMessage("Affection  500:\\ia[1071]")
    ShowMessage("Affection 2000:\\ia[1168]")
    ShowMessage("Affection 4000:\\ia[1598]")
    0()
   EndIf()
   If(1,11,0,3,1)
    PictureClear(5)
    EndEventProcessing()
    0()
   EndIf()
   0()
  EndLoop()
  0()
 PAGE   2
  // condition: party contains actor #533
  0()



EVENT   4
 PAGE   1
  // condition: switch 1531 is ON
  PictureDisplay(5,"80_saniria_st11",0,0,0,0,100,100,0,0)
  PictureMove(5,null,0,0,0,0,100,100,255,0,30,true)
  If(1,3531,0,100,1)
   If(1,4531,0,0,0)
    ChangeVariable(4531,4531,0,0,1)
    ShowMessageFace("saniria_fc2",0,0,2,1)
    ShowMessage("\\n<King of San Ilia (Affection:\\V[3531])>これを持っていくといい。 教会からの支援物資だ……")
    250(bytes(0x04,0x08,0x6f,0x3a,0x0c,0x52,0x50,0x47,0x3a,0x3a,0x53,0x45,0x08,0x3a,0x0a,0x40,0x6e,0x61,0x6d,0x65,0x49,0x22,0x0a,0x49,0x74,0x65,0x6d,0x31,0x06,0x3a,0x06,0x45,0x54,0x3a,0x0b,0x40,0x70,0x69,0x74,0x63,0x68,0x69,0x69,0x3a,0x0c,0x40,0x76,0x6f,0x6c,0x75,0x6d,0x65,0x69,0x55))
    ChangeInventoryArmor(1031,0,0,1,false)
    0()
   EndIf()
   0()
  EndIf()
  If(1,3531,0,500,1)
   If(1,4531,0,1,0)
    ChangeVariable(4531,4531,0,0,2)
    ShowMessageFace("saniria_fc2",0,0,2,2)
    ShowMessage("\\n<King of San Ilia (Affection:\\V[3531])>これを持っていくといい。 教会からの支援物資だ……")
    250(bytes(0x04,0x08,0x6f,0x3a,0x0c,0x52,0x50,0x47,0x3a,0x3a,0x53,0x45,0x08,0x3a,0x0a,0x40,0x6e,0x61,0x6d,0x65,0x49,0x22,0x0a,0x49,0x74,0x65,0x6d,0x31,0x06,0x3a,0x06,0x45,0x54,0x3a,0x0b,0x40,0x70,0x69,0x74,0x63,0x68,0x69,0x69,0x3a,0x0c,0x40,0x76,0x6f,0x6c,0x75,0x6d,0x65,0x69,0x55))
    ChangeInventoryArmor(1261,0,0,1,false)
    0()
   EndIf()
   0()
  EndIf()
  If(1,3531,0,2000,1)
   If(1,4531,0,2,0)
    ChangeVariable(4531,4531,0,0,3)
    ShowMessageFace("saniria_fc2",0,0,2,3)
    ShowMessage("\\n<King of San Ilia (Affection:\\V[3531])>これを持っていくといい。 教会からの支援物資だ……")
    250(bytes(0x04,0x08,0x6f,0x3a,0x0c,0x52,0x50,0x47,0x3a,0x3a,0x53,0x45,0x08,0x3a,0x0a,0x40,0x6e,0x61,0x6d,0x65,0x49,0x22,0x0a,0x49,0x74,0x65,0x6d,0x31,0x06,0x3a,0x06,0x45,0x54,0x3a,0x0b,0x40,0x70,0x69,0x74,0x63,0x68,0x69,0x69,0x3a,0x0c,0x40,0x76,0x6f,0x6c,0x75,0x6d,0x65,0x69,0x55))
    ChangeInventoryArmor(1127,0,0,1,false)
    0()
   EndIf()
   0()
  EndIf()
  If(1,3531,0,4000,1)
   If(1,4531,0,3,0)
    ChangeVariable(4531,4531,0,0,4)
    ShowMessageFace("saniria_fc2",0,0,2,4)
    ShowMessage("\\n<King of San Ilia (Affection:\\V[3531])>これを持っていくといい。 教会からの支援物資だ……")
    250(bytes(0x04,0x08,0x6f,0x3a,0x0c,0x52,0x50,0x47,0x3a,0x3a,0x53,0x45,0x08,0x3a,0x0a,0x40,0x6e,0x61,0x6d,0x65,0x49,0x22,0x0a,0x49,0x74,0x65,0x6d,0x31,0x06,0x3a,0x06,0x45,0x54,0x3a,0x0b,0x40,0x70,0x69,0x74,0x63,0x68,0x69,0x69,0x3a,0x0c,0x40,0x76,0x6f,0x6c,0x75,0x6d,0x65,0x69,0x55))
    ChangeInventoryArmor(1034,0,0,1,false)
    0()
   EndIf()
   0()
  EndIf()
  355("actor_label_jump")
  ShowMessageFace("saniria_fc2",0,0,2,5)
  ShowMessage("\\n<King of San Ilia (Affection:\\V[3531])>メンテナンス完了…… 私ならいつでも発進できるが？")
  JumpToLabel("メニュー")
  DefineLabel("26")
  ShowMessageFace("saniria_fc2",0,0,2,6)
  ShowMessage("\\n<King of San Ilia (Affection:\\V[3531])>まさか、イリアス様がこのようなお姿に……")
  ShowMessageFace("iriasu_fc4",2,0,2,7)
  ShowMessage("\\n<Ilias (Affection:\\V[3026])>私は、あなたの姿にびっくりですよ……")
  ShowMessageFace("saniria_fc2",0,0,2,8)
  ShowMessage("\\n<King of San Ilia (Affection:\\V[3531])>お互い、どのような姿であっても…… 粉骨砕身、神の徒として尽くしましょう。")
  ShowMessageFace("iriasu_fc4",2,0,2,9)
  ShowMessage("\\n<Ilias (Affection:\\V[3026])>砕ける骨も身もメカではないですか…… まあ、期待していますよ。")
  JumpToLabel("メニュー")
  DefineLabel("72")
  ShowMessageFace("phoenix_fc1",4,0,2,10)
  ShowMessage("\\n<Mini (Affection:\\V[3072])>あっ、ホーオー様だ！ 一緒にあそぶのだ！")
  ShowMessageFace("saniria_fc2",0,0,2,11)
  ShowMessage("\\n<King of San Ilia (Affection:\\V[3531])>いいとも、何をして遊ぶ……？")
  ShowMessageFace("phoenix_fc1",1,0,2,12)
  ShowMessage("\\n<Mini (Affection:\\V[3072])>あたしが壺の中に入るから…… 下から、火であぶってほしいのだ！")
  ShowMessageFace("saniria_fc2",0,0,2,13)
  ShowMessage("\\n<King of San Ilia (Affection:\\V[3531])>それは……いったいどういう遊びなのだ？")
  JumpToLabel("メニュー")
  DefineLabel("86")
  ShowMessageFace("saniria_fc2",0,0,2,14)
  ShowMessage("\\n<King of San Ilia (Affection:\\V[3531])>魔物にも、イリアス様の教えを尊ぶ者がいたとは…… 神の前に全ては平等、実に喜ばしい事だ。")
  ShowMessageFace("name_s_fc1",0,0,2,15)
  ShowMessage("\\n<Rosary (Affection:\\V[3086])>あなたは、サン・イリア王…… まだ未熟な私に、道をお示し下さい。")
  ShowMessageFace("saniria_fc2",0,0,2,16)
  ShowMessage("\\n<King of San Ilia (Affection:\\V[3531])>私の家庭菜園を荒らしたのは、お主かな？ そのヌルヌルしたヴェールに見覚えがあるのだが……")
  JumpToLabel("メニュー")
  DefineLabel("122")
  ShowMessageFace("saniria_fc2",0,0,2,17)
  ShowMessage("\\n<King of San Ilia (Affection:\\V[3531])>魔物にも、イリアス様の教えを尊ぶ者がいたとは…… 神の前に全ては平等、実に喜ばしい事だ。")
  ShowMessageFace("sisterlamia_fc1",0,0,2,18)
  ShowMessage("\\n<Sofia (Affection:\\V[3122])>色眼鏡で見られる事も多いです…… でも、神の教えを世界に広げたいのです。")
  ShowMessageFace("sisterlamia_fc1",4,0,2,19)
  ShowMessage("\\n<Sofia (Affection:\\V[3122])>信仰の教主たるサン・イリア王…… どうか、私にも道を示して下さい。")
  ShowMessageFace("saniria_fc2",0,0,2,20)
  ShowMessage("\\n<King of San Ilia (Affection:\\V[3531])>笑顔が怖い…… まずは、自然な笑みを心掛けるのが第一であろう。")
  JumpToLabel("メニュー")
  DefineLabel("123")
  ShowMessageFace("saniria_fc2",0,0,2,21)
  ShowMessage("\\n<King of San Ilia (Affection:\\V[3531])>魔物にも、イリアス様の教えを尊ぶ者がいたとは…… 神の前に全ては平等、実に喜ばしい事だ。")
  ShowMessageFace("sisccubus_fc1",2,0,2,22)
  ShowMessage("\\n<Christie (Affection:\\V[3123])>サン・イリア王…… 欲を断てない私に、どうか道を示して下さい。")
  ShowMessageFace("saniria_fc2",0,0,2,23)
  ShowMessage("\\n<King of San Ilia (Affection:\\V[3531])>深夜、全裸で外をうろつく事をやめるように……")
  JumpToLabel("メニュー")
  DefineLabel("128")
  ShowMessageFace("saniria_fc2",0,0,2,24)
  ShowMessage("\\n<King of San Ilia (Affection:\\V[3531])>お主も、サイボーグ手術を受けたのか？")
  ShowMessageFace("kaniloid_fc1",0,0,2,25)
  ShowMessage("\\n<Jillian (Affection:\\V[3128])>そうだが…… 同じタイプの人間は初めて見たぞ。")
  ShowMessageFace("saniria_fc2",0,0,2,26)
  ShowMessage("\\n<King of San Ilia (Affection:\\V[3531])>お互い頑張っていこうではないか。 全世界をメカにするために……")
  ShowMessageFace("kaniloid_fc1",2,0,2,27)
  ShowMessage("\\n<Jillian (Affection:\\V[3128])>…………！？")
  ShowMessageFace("saniria_fc2",0,0,2,28)
  ShowMessage("\\n<King of San Ilia (Affection:\\V[3531])>……冗談だ。")
  JumpToLabel("メニュー")
  DefineLabel("139")
  ShowMessageFace("saniria_fc2",0,0,2,29)
  ShowMessage("\\n<King of San Ilia (Affection:\\V[3531])>おや、妖精たち。 絵本を読んであげよう。")
  ShowMessageFace("fairys_fc1",3,0,2,30)
  ShowMessage("\\n<Fairies (Affection:\\V[3139])>わ～い、よんで～！")
  ShowMessageFace("sonia_fc1",0,0,2,31)
  ShowMessage("\\n<Sonya>法王猊下、妖精達と仲が良いんですね。")
  ShowMessageFace("saniria_fc2",0,0,2,32)
  ShowMessage("\\n<King of San Ilia (Affection:\\V[3531])>少し前から、城下に遊びに来ていたのだよ。 では絵本だ、『そこで神の裁きは悪人を焼き尽くし……』")
  ShowMessageFace("sonia_fc3",2,0,2,33)
  ShowMessage("\\n<Sonya>（布教してる……！)")
  JumpToLabel("メニュー")
  DefineLabel("529")
  ShowMessageFace("saniria_fc2",0,0,2,34)
  ShowMessage("\\n<King of San Ilia (Affection:\\V[3531])>これはサバサ女王……いや、今は王女か。 お父上から、何かあった時は頼むと言われていたよ。")
  ShowMessageFace("sara_fc1",3,0,2,35)
  ShowMessage("\\n<Sara (Affection:\\V[3529])>ご無沙汰しておりました、サン・イリア王。 何かあった時って、父はまさか亡き後の事も……？")
  ShowMessageFace("saniria_fc2",0,0,2,36)
  ShowMessage("\\n<King of San Ilia (Affection:\\V[3531])>いや、家出をしたり冒険の旅に飛び出したり…… そういう時に色々と、そういう事だよ。")
  ShowMessageFace("sara_fc1",4,0,2,37)
  ShowMessage("\\n<Sara (Affection:\\V[3529])>お父様……それはないでしょ……")
  JumpToLabel("メニュー")
  DefineLabel("メニュー")
  StartLoop()
   355("unlimited_choices(11, [\"Give presents\",")
   655("\"Add to party\",")
   655("\"View present list\",\"Never mind\"])")
   If(1,11,0,0,0)
    355("present_start(531)")
    0()
   EndIf()
   If(1,11,0,1,0)
    PictureClear(5)
    355("move_actor_ex(531)")
    EndEventProcessing()
    0()
   EndIf()
   If(1,11,0,2,0)
    ShowMessageFace("",0,0,2,38)
    ShowMessage("Affection  100:\\ia[1031]")
    ShowMessage("Affection  500:\\ia[1261]")
    ShowMessage("Affection 2000:\\ia[1127]")
    ShowMessage("Affection 4000:\\ia[1034]")
    0()
   EndIf()
   If(1,11,0,3,1)
    PictureClear(5)
    EndEventProcessing()
    0()
   EndIf()
   0()
  EndLoop()
  0()
 PAGE   2
  // condition: party contains actor #531
  0()



EVENT   6
 PAGE   1
  // condition: switch 1563 is ON
  355("actor_label_jump")
  ShowMessageFace("People4",7,0,2,1)
  ShowMessage("\\n<Pilate (Affection:\\V[3563])>To take even someone like me with you! Thank you! Thank you!")
  JumpToLabel("メニュー")
  DefineLabel("メニュー")
  ShowChoices(strings("Add to party","Never mind"),2)
  IfPlayerPicksChoice(0,null)
   PictureClear(5)
   355("move_actor_ex(563)")
   EndEventProcessing()
   0()
  IfPlayerPicksChoice(1,null)
   PictureClear(5)
   EndEventProcessing()
   0()
  404()
  0()
 PAGE   2
  // condition: party contains actor #563
  0()



EVENT   7
 PAGE   1
  // condition: switch 1565 is ON
  355("actor_label_jump")
  ShowMessageFace("Actor3",6,0,2,1)
  ShowMessage("\\n<Samson (Affection:\\V[3565])>サバサの剛槌と讃えられし我が力！ いざ、ご覧にいれようぞ！")
  JumpToLabel("メニュー")
  DefineLabel("メニュー")
  ShowChoices(strings("Add to party","Never mind"),2)
  IfPlayerPicksChoice(0,null)
   PictureClear(5)
   355("move_actor_ex(565)")
   EndEventProcessing()
   0()
  IfPlayerPicksChoice(1,null)
   PictureClear(5)
   EndEventProcessing()
   0()
  404()
  0()
 PAGE   2
  // condition: party contains actor #565
  0()



EVENT   8
 PAGE   1
  // condition: switch 1564 is ON
  355("actor_label_jump")
  ShowMessageFace("Actor1",4,0,2,1)
  ShowMessage("\\n<John (Affection:\\V[3564])>我が力が必要でしょうか？ イリアの電光と呼ばれた槍さばき、ご覧に入れましょう。")
  JumpToLabel("メニュー")
  DefineLabel("メニュー")
  ShowChoices(strings("Add to party","Never mind"),2)
  IfPlayerPicksChoice(0,null)
   PictureClear(5)
   355("move_actor_ex(564)")
   EndEventProcessing()
   0()
  IfPlayerPicksChoice(1,null)
   PictureClear(5)
   EndEventProcessing()
   0()
  404()
  0()
 PAGE   2
  // condition: party contains actor #564
  0()