﻿
DisplayName "Pocket Castle Barracks"



EVENT   2
 PAGE   1
  0()



EVENT   3
 PAGE   1
  0()



EVENT   4
 PAGE   1
  0()



EVENT   5
 PAGE   1
  0()



EVENT   6
 PAGE   1
  0()



EVENT   7
 PAGE   1
  0()



EVENT   1
 PAGE   1
  281(0)
  250(bytes(0x04,0x08,0x6f,0x3a,0x0c,0x52,0x50,0x47,0x3a,0x3a,0x53,0x45,0x08,0x3a,0x0a,0x40,0x6e,0x61,0x6d,0x65,0x49,0x22,0x09,0x4d,0x6f,0x76,0x65,0x06,0x3a,0x06,0x45,0x54,0x3a,0x0b,0x40,0x70,0x69,0x74,0x63,0x68,0x69,0x69,0x3a,0x0c,0x40,0x76,0x6f,0x6c,0x75,0x6d,0x65,0x69,0x55))
  TeleportPlayer(0,229,1,14,6,0)
  0()



EVENT   14
 PAGE   1
  281(0)
  250(bytes(0x04,0x08,0x6f,0x3a,0x0c,0x52,0x50,0x47,0x3a,0x3a,0x53,0x45,0x08,0x3a,0x0a,0x40,0x6e,0x61,0x6d,0x65,0x49,0x22,0x09,0x4d,0x6f,0x76,0x65,0x06,0x3a,0x06,0x45,0x54,0x3a,0x0b,0x40,0x70,0x69,0x74,0x63,0x68,0x69,0x69,0x3a,0x0c,0x40,0x76,0x6f,0x6c,0x75,0x6d,0x65,0x69,0x55))
  TeleportPlayer(0,272,12,5,0,0)
  0()



EVENT   17
 PAGE   1
  281(0)
  250(bytes(0x04,0x08,0x6f,0x3a,0x0c,0x52,0x50,0x47,0x3a,0x3a,0x53,0x45,0x08,0x3a,0x0a,0x40,0x6e,0x61,0x6d,0x65,0x49,0x22,0x09,0x4d,0x6f,0x76,0x65,0x06,0x3a,0x06,0x45,0x54,0x3a,0x0b,0x40,0x70,0x69,0x74,0x63,0x68,0x69,0x69,0x3a,0x0c,0x40,0x76,0x6f,0x6c,0x75,0x6d,0x65,0x69,0x55))
  TeleportPlayer(0,276,26,17,0,0)
  0()



EVENT   15
 PAGE   1
  281(0)
  250(bytes(0x04,0x08,0x6f,0x3a,0x0c,0x52,0x50,0x47,0x3a,0x3a,0x53,0x45,0x08,0x3a,0x0a,0x40,0x6e,0x61,0x6d,0x65,0x49,0x22,0x09,0x4d,0x6f,0x76,0x65,0x06,0x3a,0x06,0x45,0x54,0x3a,0x0b,0x40,0x70,0x69,0x74,0x63,0x68,0x69,0x69,0x3a,0x0c,0x40,0x76,0x6f,0x6c,0x75,0x6d,0x65,0x69,0x55))
  TeleportPlayer(0,272,12,5,0,0)
  0()



EVENT   16
 PAGE   1
  281(0)
  250(bytes(0x04,0x08,0x6f,0x3a,0x0c,0x52,0x50,0x47,0x3a,0x3a,0x53,0x45,0x08,0x3a,0x0a,0x40,0x6e,0x61,0x6d,0x65,0x49,0x22,0x09,0x4d,0x6f,0x76,0x65,0x06,0x3a,0x06,0x45,0x54,0x3a,0x0b,0x40,0x70,0x69,0x74,0x63,0x68,0x69,0x69,0x3a,0x0c,0x40,0x76,0x6f,0x6c,0x75,0x6d,0x65,0x69,0x55))
  TeleportPlayer(0,272,12,5,0,0)
  0()



EVENT   18
 PAGE   1
  281(0)
  250(bytes(0x04,0x08,0x6f,0x3a,0x0c,0x52,0x50,0x47,0x3a,0x3a,0x53,0x45,0x08,0x3a,0x0a,0x40,0x6e,0x61,0x6d,0x65,0x49,0x22,0x09,0x4d,0x6f,0x76,0x65,0x06,0x3a,0x06,0x45,0x54,0x3a,0x0b,0x40,0x70,0x69,0x74,0x63,0x68,0x69,0x69,0x3a,0x0c,0x40,0x76,0x6f,0x6c,0x75,0x6d,0x65,0x69,0x55))
  TeleportPlayer(0,276,27,17,0,0)
  0()



EVENT   8
 PAGE   1
  281(0)
  250(bytes(0x04,0x08,0x6f,0x3a,0x0c,0x52,0x50,0x47,0x3a,0x3a,0x53,0x45,0x08,0x3a,0x0a,0x40,0x6e,0x61,0x6d,0x65,0x49,0x22,0x09,0x4d,0x6f,0x76,0x65,0x06,0x3a,0x06,0x45,0x54,0x3a,0x0b,0x40,0x70,0x69,0x74,0x63,0x68,0x69,0x69,0x3a,0x0c,0x40,0x76,0x6f,0x6c,0x75,0x6d,0x65,0x69,0x55))
  TeleportPlayer(0,229,1,14,6,0)
  0()



EVENT   9
 PAGE   1
  281(0)
  250(bytes(0x04,0x08,0x6f,0x3a,0x0c,0x52,0x50,0x47,0x3a,0x3a,0x53,0x45,0x08,0x3a,0x0a,0x40,0x6e,0x61,0x6d,0x65,0x49,0x22,0x09,0x4d,0x6f,0x76,0x65,0x06,0x3a,0x06,0x45,0x54,0x3a,0x0b,0x40,0x70,0x69,0x74,0x63,0x68,0x69,0x69,0x3a,0x0c,0x40,0x76,0x6f,0x6c,0x75,0x6d,0x65,0x69,0x55))
  TeleportPlayer(0,229,1,14,6,0)
  0()



EVENT   10
 PAGE   1
  281(0)
  250(bytes(0x04,0x08,0x6f,0x3a,0x0c,0x52,0x50,0x47,0x3a,0x3a,0x53,0x45,0x08,0x3a,0x0a,0x40,0x6e,0x61,0x6d,0x65,0x49,0x22,0x09,0x4d,0x6f,0x76,0x65,0x06,0x3a,0x06,0x45,0x54,0x3a,0x0b,0x40,0x70,0x69,0x74,0x63,0x68,0x69,0x69,0x3a,0x0c,0x40,0x76,0x6f,0x6c,0x75,0x6d,0x65,0x69,0x55))
  TeleportPlayer(0,229,1,14,6,0)
  0()



EVENT   11
 PAGE   1
  281(0)
  250(bytes(0x04,0x08,0x6f,0x3a,0x0c,0x52,0x50,0x47,0x3a,0x3a,0x53,0x45,0x08,0x3a,0x0a,0x40,0x6e,0x61,0x6d,0x65,0x49,0x22,0x09,0x4d,0x6f,0x76,0x65,0x06,0x3a,0x06,0x45,0x54,0x3a,0x0b,0x40,0x70,0x69,0x74,0x63,0x68,0x69,0x69,0x3a,0x0c,0x40,0x76,0x6f,0x6c,0x75,0x6d,0x65,0x69,0x55))
  TeleportPlayer(0,229,1,14,6,0)
  0()



EVENT   12
 PAGE   1
  281(0)
  250(bytes(0x04,0x08,0x6f,0x3a,0x0c,0x52,0x50,0x47,0x3a,0x3a,0x53,0x45,0x08,0x3a,0x0a,0x40,0x6e,0x61,0x6d,0x65,0x49,0x22,0x09,0x4d,0x6f,0x76,0x65,0x06,0x3a,0x06,0x45,0x54,0x3a,0x0b,0x40,0x70,0x69,0x74,0x63,0x68,0x69,0x69,0x3a,0x0c,0x40,0x76,0x6f,0x6c,0x75,0x6d,0x65,0x69,0x55))
  TeleportPlayer(0,229,1,14,6,0)
  0()



EVENT   13
 PAGE   1
  281(0)
  250(bytes(0x04,0x08,0x6f,0x3a,0x0c,0x52,0x50,0x47,0x3a,0x3a,0x53,0x45,0x08,0x3a,0x0a,0x40,0x6e,0x61,0x6d,0x65,0x49,0x22,0x09,0x4d,0x6f,0x76,0x65,0x06,0x3a,0x06,0x45,0x54,0x3a,0x0b,0x40,0x70,0x69,0x74,0x63,0x68,0x69,0x69,0x3a,0x0c,0x40,0x76,0x6f,0x6c,0x75,0x6d,0x65,0x69,0x55))
  TeleportPlayer(0,229,1,14,6,0)
  0()



EVENT   20
 PAGE   1
  RunCommonEvent(111)
  0()



EVENT   19
 PAGE   1
  // condition: switch 1529 is ON
  PictureDisplay(5,"80_sara_st01",0,0,0,0,100,100,0,0)
  PictureMove(5,null,0,0,0,0,100,100,255,0,30,true)
  If(1,3529,0,100,1)
   If(1,4529,0,0,0)
    ChangeVariable(4529,4529,0,0,1)
    ShowMessageFace("sara_fc1",1,0,2,1)
    ShowMessage("\\n<Sara (Affection:\\V[3529])>これ、ルカにあげるわ。 色々と世話になっているしね……")
    250(bytes(0x04,0x08,0x6f,0x3a,0x0c,0x52,0x50,0x47,0x3a,0x3a,0x53,0x45,0x08,0x3a,0x0a,0x40,0x6e,0x61,0x6d,0x65,0x49,0x22,0x0a,0x49,0x74,0x65,0x6d,0x31,0x06,0x3a,0x06,0x45,0x54,0x3a,0x0b,0x40,0x70,0x69,0x74,0x63,0x68,0x69,0x69,0x3a,0x0c,0x40,0x76,0x6f,0x6c,0x75,0x6d,0x65,0x69,0x55))
    ChangeInventoryArmor(1145,0,0,1,false)
    0()
   EndIf()
   0()
  EndIf()
  If(1,3529,0,500,1)
   If(1,4529,0,1,0)
    ChangeVariable(4529,4529,0,0,2)
    ShowMessageFace("sara_fc1",1,0,2,2)
    ShowMessage("\\n<Sara (Affection:\\V[3529])>これ、ルカにあげるわ。 色々と世話になっているしね……")
    250(bytes(0x04,0x08,0x6f,0x3a,0x0c,0x52,0x50,0x47,0x3a,0x3a,0x53,0x45,0x08,0x3a,0x0a,0x40,0x6e,0x61,0x6d,0x65,0x49,0x22,0x0a,0x49,0x74,0x65,0x6d,0x31,0x06,0x3a,0x06,0x45,0x54,0x3a,0x0b,0x40,0x70,0x69,0x74,0x63,0x68,0x69,0x69,0x3a,0x0c,0x40,0x76,0x6f,0x6c,0x75,0x6d,0x65,0x69,0x55))
    ChangeInventoryArmor(1736,0,0,1,false)
    0()
   EndIf()
   0()
  EndIf()
  If(1,3529,0,2000,1)
   If(1,4529,0,2,0)
    ChangeVariable(4529,4529,0,0,3)
    ShowMessageFace("sara_fc1",1,0,2,3)
    ShowMessage("\\n<Sara (Affection:\\V[3529])>これ、ルカにあげるわ。 色々と世話になっているしね……")
    250(bytes(0x04,0x08,0x6f,0x3a,0x0c,0x52,0x50,0x47,0x3a,0x3a,0x53,0x45,0x08,0x3a,0x0a,0x40,0x6e,0x61,0x6d,0x65,0x49,0x22,0x0a,0x49,0x74,0x65,0x6d,0x31,0x06,0x3a,0x06,0x45,0x54,0x3a,0x0b,0x40,0x70,0x69,0x74,0x63,0x68,0x69,0x69,0x3a,0x0c,0x40,0x76,0x6f,0x6c,0x75,0x6d,0x65,0x69,0x55))
    ChangeInventoryArmor(1118,0,0,1,false)
    0()
   EndIf()
   0()
  EndIf()
  If(1,3529,0,4000,1)
   If(1,4529,0,3,0)
    ChangeVariable(4529,4529,0,0,4)
    ShowMessageFace("sara_fc1",1,0,2,4)
    ShowMessage("\\n<Sara (Affection:\\V[3529])>これ、ルカにあげるわ。 色々と世話になっているしね……")
    250(bytes(0x04,0x08,0x6f,0x3a,0x0c,0x52,0x50,0x47,0x3a,0x3a,0x53,0x45,0x08,0x3a,0x0a,0x40,0x6e,0x61,0x6d,0x65,0x49,0x22,0x0a,0x49,0x74,0x65,0x6d,0x31,0x06,0x3a,0x06,0x45,0x54,0x3a,0x0b,0x40,0x70,0x69,0x74,0x63,0x68,0x69,0x69,0x3a,0x0c,0x40,0x76,0x6f,0x6c,0x75,0x6d,0x65,0x69,0x55))
    ChangeInventoryArmor(1623,0,0,1,false)
    0()
   EndIf()
   0()
  EndIf()
  355("actor_label_jump")
  ShowMessageFace("sara_fc1",1,0,2,5)
  ShowMessage("\\n<Sara (Affection:\\V[3529])>淫魔の力は、しばらく封印！ 制御できなくなったら、困るもんね。")
  JumpToLabel("メニュー")
  DefineLabel("132")
  ShowMessageFace("zonbe_fc2",0,0,2,6)
  ShowMessage("\\n<Eri (Affection:\\V[3132])>サバサの女王陛下…… 私も生前は、サバサ王家に仕えていた剣士だった……")
  ShowMessageFace("sara_fc1",1,0,2,7)
  ShowMessage("\\n<Sara (Affection:\\V[3529])>その忠義に感謝するわ。 これからも、一緒に戦ってくれる？")
  ShowMessageFace("zonbe_fc2",0,0,2,8)
  ShowMessage("\\n<Eri (Affection:\\V[3132])>喜んで……この忠義、死してなお……")
  JumpToLabel("メニュー")
  DefineLabel("156")
  ShowMessageFace("sara_fc1",4,0,2,9)
  ShowMessage("\\n<Sara (Affection:\\V[3529])>そ、その鎧……")
  ShowMessageFace("d_fighter_fc1",3,0,2,10)
  ShowMessage("\\n<Regina (Affection:\\V[3156])>ふん、痴女で悪かったわね……")
  ShowMessageFace("sara_fc1",1,0,2,11)
  ShowMessage("\\n<Sara (Affection:\\V[3529])>とっても素敵ね！")
  ShowMessageFace("d_fighter_fc1",0,0,2,12)
  ShowMessage("\\n<Regina (Affection:\\V[3156])>……えっ？")
  JumpToLabel("メニュー")
  DefineLabel("163")
  ShowMessageFace("lily_fc1",3,0,2,13)
  ShowMessage("\\n<Lily (Affection:\\V[3163])>あら、王女様。 何か私に言いたいことでもあるのかしら？")
  ShowMessageFace("sara_fc1",4,0,2,14)
  ShowMessage("\\n<Sara (Affection:\\V[3529])>リリィ……あなたは、父上を…… サバサ王を恨んでいるの？")
  ShowMessageFace("lily_fc1",5,0,2,15)
  ShowMessage("\\n<Lily (Affection:\\V[3163])>為政者である以上、仕方ない判断でもあったわ。 その割を食ったのは、私達だったけれど……")
  ShowMessageFace("sara_fc1",4,0,2,16)
  ShowMessage("\\n<Sara (Affection:\\V[3529])>ごめんなさい……")
  ShowMessageFace("lily_fc1",3,0,2,17)
  ShowMessage("\\n<Lily (Affection:\\V[3163])>あなた個人に謝罪されるいわれはないわ…… その頃のあなたは、何の実権もない小娘だったのだから。")
  ShowMessageFace("sara_fc1",1,0,2,18)
  ShowMessage("\\n<Sara (Affection:\\V[3529])>ええ……ここにいる以上、あなたは仲間よ。 よろしく、リリィ。")
  ShowMessageFace("lily_fc1",3,0,2,19)
  ShowMessage("\\n<Lily (Affection:\\V[3163])>ふふっ、よろしく……")
  JumpToLabel("メニュー")
  DefineLabel("525")
  ShowMessageFace("sara_fc1",1,0,2,20)
  ShowMessage("\\n<Sara (Affection:\\V[3529])>あっ、ソニア。 食堂でご飯でも食べない？")
  ShowMessageFace("sonia_fc1",0,0,2,21)
  ShowMessage("\\n<Sonya (Affection:\\V[3525])>うん！　新メニューのイクラ丼食べようよ！")
  ShowMessageFace("ruka_fc1",0,0,2,22)
  ShowMessage("\\n<Luka>ソニアとサラは、仲が良いんだね。")
  ShowMessageFace("sonia_fc1",0,0,2,23)
  ShowMessage("\\n<Sonya (Affection:\\V[3525])>村じゃ、同世代の女の子ってほとんどいなかったでしょ。 こういう友達って、いなかったのよ……")
  ShowMessageFace("sara_fc1",1,0,2,24)
  ShowMessage("\\n<Sara (Affection:\\V[3529])>そうよね。 女同士で、こういう関係って……")
  ShowMessageFace("sonia_fc3",2,0,2,25)
  ShowMessage("\\n<Sonya (Affection:\\V[3525])>ちょ……えっ！？")
  ShowMessageFace("ruka_fc1",0,0,2,26)
  ShowMessage("\\n<Luka>えっ……！？")
  ShowMessageFace("sara_fc1",3,0,2,27)
  ShowMessage("\\n<Sara (Affection:\\V[3529])>えっ……？")
  JumpToLabel("メニュー")
  DefineLabel("531")
  ShowMessageFace("saniria_fc2",0,0,2,28)
  ShowMessage("\\n<King of San Ilia (Affection:\\V[3531])>これはサバサ女王……いや、今は王女か。 お父上から、何かあった時は頼むと言われていたよ。")
  ShowMessageFace("sara_fc1",3,0,2,29)
  ShowMessage("\\n<Sara (Affection:\\V[3529])>ご無沙汰しておりました、サン・イリア王。 何かあった時って、父はまさか亡き後の事も……？")
  ShowMessageFace("saniria_fc2",0,0,2,30)
  ShowMessage("\\n<King of San Ilia (Affection:\\V[3531])>いや、家出をしたり冒険の旅に飛び出したり…… そういう時に色々と、そういう事だよ。")
  ShowMessageFace("sara_fc1",4,0,2,31)
  ShowMessage("\\n<Sara (Affection:\\V[3529])>お父様……それはないでしょ……")
  JumpToLabel("メニュー")
  DefineLabel("533")
  ShowMessageFace("sara_fc1",1,0,2,32)
  ShowMessage("\\n<Sara (Affection:\\V[3529])>グランドノア女王、ずいぶんとお久しぶりです。")
  ShowMessageFace("grandnoa_fc1",0,0,2,33)
  ShowMessage("\\n<Queen of Grand Noah (Affection:\\V[3533])>はて、誰と間違えているのです……？ 私は正体不明のメダル女王ですが。")
  ShowMessageFace("sara_fc1",4,0,2,34)
  ShowMessage("\\n<Sara (Affection:\\V[3529])>そのキャラ設定、意地でも通すんですか……？")
  JumpToLabel("メニュー")
  DefineLabel("メニュー")
  StartLoop()
   355("unlimited_choices(11, [\"Give presents\",")
   655("\"Add to party\",")
   655("\"View present list\",\"Request\",")
   655("\"Never mind\"])")
   If(1,11,0,0,0)
    355("present_start(529)")
    0()
   EndIf()
   If(1,11,0,1,0)
    PictureClear(5)
    355("move_actor_ex(529)")
    EndEventProcessing()
    0()
   EndIf()
   If(1,11,0,2,0)
    ShowMessageFace("",0,0,2,35)
    ShowMessage("Affection  100:\\ia[145]")
    ShowMessage("Affection  500:\\ia[1736]")
    ShowMessage("Affection 2000:\\ia[1118]")
    ShowMessage("Affection 4000:\\ia[1623]")
    0()
   EndIf()
   If(1,11,0,3,0)
    PictureClear(5)
    ShowMessageFace("",0,0,2,36)
    ShowMessage("Ask her for what? (Affection:\\V[3529])")
    ShowChoices(strings("Blowjob(Affection:10)","Reverse rape(Affection:100)","Never mind"),3)
    IfPlayerPicksChoice(0,null)
     If(1,3529,0,10,1)
      355("call_novel_scene(4072)")
      EndEventProcessing()
      0()
     Else()
      ShowMessageFace("sara_fc1",4,0,2,37)
      ShowMessage("\\n<Sara (Affection:\\V[3529])>いちおう、立場ってのがあるし…… もう少し仲良くなってからね。")
      0()
     EndIf()
     0()
    IfPlayerPicksChoice(1,null)
     If(1,3529,0,20,1)
      355("call_novel_scene(4073)")
      EndEventProcessing()
      0()
     Else()
      ShowMessageFace("sara_fc1",4,0,2,38)
      ShowMessage("\\n<Sara (Affection:\\V[3529])>いちおう、立場ってのがあるし…… もう少し仲良くなってからね。")
      0()
     EndIf()
     0()
    IfPlayerPicksChoice(2,null)
     0()
    404()
    0()
   EndIf()
   If(1,11,0,4,1)
    PictureClear(5)
    EndEventProcessing()
    0()
   EndIf()
   0()
  EndLoop()
  0()
 PAGE   2
  // condition: party contains actor #529
  0()



EVENT   21
 PAGE   1
  // condition: switch 1156 is ON
  PictureDisplay(5,"80_d_fighter_st01",0,0,0,0,100,100,0,0)
  PictureMove(5,null,0,0,0,0,100,100,255,0,30,true)
  If(1,3156,0,10,1)
   If(1,4156,0,0,0)
    ChangeVariable(4156,4156,0,0,1)
    ShowMessageFace("d_fighter_fc1",2,0,2,1)
    ShowMessage("\\n<Regina (Affection:\\V[3156])>あ、あの……これ…… せっかくだから、使って……")
    250(bytes(0x04,0x08,0x6f,0x3a,0x0c,0x52,0x50,0x47,0x3a,0x3a,0x53,0x45,0x08,0x3a,0x0a,0x40,0x6e,0x61,0x6d,0x65,0x49,0x22,0x0a,0x49,0x74,0x65,0x6d,0x31,0x06,0x3a,0x06,0x45,0x54,0x3a,0x0b,0x40,0x70,0x69,0x74,0x63,0x68,0x69,0x69,0x3a,0x0c,0x40,0x76,0x6f,0x6c,0x75,0x6d,0x65,0x69,0x55))
    ChangeInventoryWeapon(94,0,0,1,false)
    0()
   EndIf()
   0()
  EndIf()
  If(1,3156,0,100,1)
   If(1,4156,0,1,0)
    ChangeVariable(4156,4156,0,0,2)
    ShowMessageFace("d_fighter_fc1",2,0,2,2)
    ShowMessage("\\n<Regina (Affection:\\V[3156])>あ、あの……これ…… せっかくだから、使って……")
    250(bytes(0x04,0x08,0x6f,0x3a,0x0c,0x52,0x50,0x47,0x3a,0x3a,0x53,0x45,0x08,0x3a,0x0a,0x40,0x6e,0x61,0x6d,0x65,0x49,0x22,0x0a,0x49,0x74,0x65,0x6d,0x31,0x06,0x3a,0x06,0x45,0x54,0x3a,0x0b,0x40,0x70,0x69,0x74,0x63,0x68,0x69,0x69,0x3a,0x0c,0x40,0x76,0x6f,0x6c,0x75,0x6d,0x65,0x69,0x55))
    ChangeInventoryArmor(1145,0,0,1,false)
    0()
   EndIf()
   0()
  EndIf()
  If(1,3156,0,500,1)
   If(1,4156,0,2,0)
    ChangeVariable(4156,4156,0,0,3)
    ShowMessageFace("d_fighter_fc1",2,0,2,3)
    ShowMessage("\\n<Regina (Affection:\\V[3156])>あ、あの……これ…… せっかくだから、使って……")
    250(bytes(0x04,0x08,0x6f,0x3a,0x0c,0x52,0x50,0x47,0x3a,0x3a,0x53,0x45,0x08,0x3a,0x0a,0x40,0x6e,0x61,0x6d,0x65,0x49,0x22,0x0a,0x49,0x74,0x65,0x6d,0x31,0x06,0x3a,0x06,0x45,0x54,0x3a,0x0b,0x40,0x70,0x69,0x74,0x63,0x68,0x69,0x69,0x3a,0x0c,0x40,0x76,0x6f,0x6c,0x75,0x6d,0x65,0x69,0x55))
    ChangeInventoryArmor(1285,0,0,1,false)
    0()
   EndIf()
   0()
  EndIf()
  If(1,3156,0,2000,1)
   If(1,4156,0,3,0)
    ChangeVariable(4156,4156,0,0,4)
    ShowMessageFace("d_fighter_fc1",2,0,2,4)
    ShowMessage("\\n<Regina (Affection:\\V[3156])>あ、あの……これ…… せっかくだから、使って……")
    250(bytes(0x04,0x08,0x6f,0x3a,0x0c,0x52,0x50,0x47,0x3a,0x3a,0x53,0x45,0x08,0x3a,0x0a,0x40,0x6e,0x61,0x6d,0x65,0x49,0x22,0x0a,0x49,0x74,0x65,0x6d,0x31,0x06,0x3a,0x06,0x45,0x54,0x3a,0x0b,0x40,0x70,0x69,0x74,0x63,0x68,0x69,0x69,0x3a,0x0c,0x40,0x76,0x6f,0x6c,0x75,0x6d,0x65,0x69,0x55))
    ChangeInventoryArmor(1018,0,0,1,false)
    0()
   EndIf()
   0()
  EndIf()
  355("actor_label_jump")
  ShowMessageFace("d_fighter_fc1",0,0,2,5)
  ShowMessage("\\n<Regina (Affection:\\V[3156])>この恥ずかしい格好、どうにかしたいんだけど…… 一族に伝わる戦闘装束だから、着なきゃいけないのよね。")
  JumpToLabel("メニュー")
  DefineLabel("95")
  ShowMessageFace("delh_a_fc1",0,0,2,6)
  ShowMessage("\\n<Lona (Affection:\\V[3095])>あなた、なかなかの剣士と見たわ。 （格好は痴女そのものだけど……)")
  ShowMessageFace("d_fighter_fc1",3,0,2,7)
  ShowMessage("\\n<Regina (Affection:\\V[3156])>そういうあなたも、相当のものね…… （わぁ、エロエルフだ……略してエロフだ……)")
  ShowMessageFace("delh_a_fc1",0,0,2,8)
  ShowMessage("\\n<Lona (Affection:\\V[3095])>ここは少し、相手してもらえない？ （あの格好、恥ずかしくないのかしら……)")
  ShowMessageFace("d_fighter_fc1",3,0,2,9)
  ShowMessage("\\n<Regina (Affection:\\V[3156])>望むところよ、さあ来なさい……！ （あんなエロさ全開で、よく外歩けるわね……)")
  JumpToLabel("メニュー")
  DefineLabel("101")
  ShowMessageFace("d_fighter_fc1",0,0,2,10)
  ShowMessage("\\n<Regina (Affection:\\V[3156])>（この女なんて、シャツ一枚に下半身裸なのに…… 　なんで、私の方が痴女扱いされるの……？)")
  ShowMessageFace("cent2_fc1",0,0,2,11)
  ShowMessage("\\n<Lihitinu (Affection:\\V[3101])>ろくでもない事を考えてる顔ね……")
  JumpToLabel("メニュー")
  DefineLabel("132")
  ShowMessageFace("zonbe_fc2",0,0,2,12)
  ShowMessage("\\n<Eri (Affection:\\V[3132])>あ……うぅ……")
  ShowMessageFace("d_fighter_fc1",0,0,2,13)
  ShowMessage("\\n<Regina (Affection:\\V[3156])>私も死んだら、この格好でうろつく事になるのかしら…… ゾンビになって、恥ずかしさの感覚さえ失ってしまって……")
  ShowMessageFace("zonbe_fc2",0,0,2,14)
  ShowMessage("\\n<Eri (Affection:\\V[3132])>……なんだ、ずいぶん恥ずかしい格好だな……")
  ShowMessageFace("d_fighter_fc1",3,0,2,15)
  ShowMessage("\\n<Regina (Affection:\\V[3156])>な、なによ！　ゾンビに言われたくないわよ！")
  JumpToLabel("メニュー")
  DefineLabel("143")
  ShowMessageFace("eva_fc1",2,0,2,16)
  ShowMessage("\\n<Eva (Affection:\\V[3143])>うわっ、何その変態っぽい格好……")
  ShowMessageFace("d_fighter_fc1",3,0,2,17)
  ShowMessage("\\n<Regina (Affection:\\V[3156])>あ、あんたの方が露出度高いじゃない！")
  ShowMessageFace("eva_fc1",2,0,2,18)
  ShowMessage("\\n<Eva (Affection:\\V[3143])>ひょっとして、お金ないの……？")
  ShowMessageFace("d_fighter_fc1",3,0,2,19)
  ShowMessage("\\n<Regina (Affection:\\V[3156])>お金の問題じゃないわよ！ これは、先祖代々伝えられた戦闘装束なの！")
  ShowMessageFace("eva_fc1",0,0,2,20)
  ShowMessage("\\n<Eva (Affection:\\V[3143])>先祖代々って……それ、高く売れない？")
  ShowMessageFace("d_fighter_fc1",0,0,2,21)
  ShowMessage("\\n<Regina (Affection:\\V[3156])>（マイペースな淫魔よね……)")
  JumpToLabel("メニュー")
  DefineLabel("529")
  ShowMessageFace("sara_fc1",4,0,2,22)
  ShowMessage("\\n<Sara (Affection:\\V[3529])>そ、その鎧……")
  ShowMessageFace("d_fighter_fc1",3,0,2,23)
  ShowMessage("\\n<Regina (Affection:\\V[3156])>ふん、痴女で悪かったわね……")
  ShowMessageFace("sara_fc1",1,0,2,24)
  ShowMessage("\\n<Sara (Affection:\\V[3529])>とっても素敵ね！")
  ShowMessageFace("d_fighter_fc1",0,0,2,25)
  ShowMessage("\\n<Regina (Affection:\\V[3156])>……えっ？")
  JumpToLabel("メニュー")
  DefineLabel("メニュー")
  StartLoop()
   355("unlimited_choices(11, [\"Give presents\",")
   655("\"Add to party\",")
   655("\"View present list\",\"Request\",")
   655("\"Never mind\"])")
   If(1,11,0,0,0)
    355("present_start(156)")
    0()
   EndIf()
   If(1,11,0,1,0)
    PictureClear(5)
    355("move_actor_ex(156)")
    EndEventProcessing()
    0()
   EndIf()
   If(1,11,0,2,0)
    ShowMessageFace("",0,0,2,26)
    ShowMessage("Affection   10:\\iw[94]")
    ShowMessage("Affection  100:\\ia[1145]")
    ShowMessage("Affection  500:\\ia[1285]")
    ShowMessage("Affection 2000:\\ia[1018]")
    0()
   EndIf()
   If(1,11,0,3,0)
    PictureClear(5)
    ShowMessageFace("",0,0,2,27)
    ShowMessage("Ask her for what? (Affection:\\V[3156])")
    ShowChoices(strings("Blowjob(Affection:10)","Reverse rape(Affection:100)","Never mind"),3)
    IfPlayerPicksChoice(0,null)
     If(1,3156,0,10,1)
      355("call_novel_scene(4581)")
      EndEventProcessing()
      0()
     Else()
      ShowMessageFace("d_fighter_fc1",0,0,2,28)
      ShowMessage("\\n<Regina (Affection:\\V[3156])>そ、そういうの……分からないし……")
      0()
     EndIf()
     0()
    IfPlayerPicksChoice(1,null)
     If(1,3156,0,100,1)
      355("call_novel_scene(4582)")
      EndEventProcessing()
      0()
     Else()
      ShowMessageFace("d_fighter_fc1",0,0,2,29)
      ShowMessage("\\n<Regina (Affection:\\V[3156])>そ、そういうの……分からないし……")
      0()
     EndIf()
     0()
    IfPlayerPicksChoice(2,null)
     0()
    404()
    0()
   EndIf()
   If(1,11,0,4,1)
    PictureClear(5)
    EndEventProcessing()
    0()
   EndIf()
   0()
  EndLoop()
  0()
 PAGE   2
  // condition: party contains actor #156
  0()



EVENT   22
 PAGE   1
  // condition: switch 1106 is ON
  PictureDisplay(5,"80_nanabi_st01",0,0,0,0,100,100,0,0)
  PictureMove(5,null,0,0,0,0,100,100,255,0,30,true)
  If(1,3106,0,500,1)
   If(1,4106,0,0,0)
    ChangeVariable(4106,4106,0,0,1)
    ShowMessageFace("nanabi_fc1",0,0,2,1)
    ShowMessage("\\n<Nanabi (Affection:\\V[3106])>遠慮はいりません、これを受け取りなさい。 これからも良好な関係を築くとしましょう……")
    250(bytes(0x04,0x08,0x6f,0x3a,0x0c,0x52,0x50,0x47,0x3a,0x3a,0x53,0x45,0x08,0x3a,0x0a,0x40,0x6e,0x61,0x6d,0x65,0x49,0x22,0x0a,0x49,0x74,0x65,0x6d,0x31,0x06,0x3a,0x06,0x45,0x54,0x3a,0x0b,0x40,0x70,0x69,0x74,0x63,0x68,0x69,0x69,0x3a,0x0c,0x40,0x76,0x6f,0x6c,0x75,0x6d,0x65,0x69,0x55))
    ChangeInventoryArmor(1086,0,0,1,false)
    0()
   EndIf()
   0()
  EndIf()
  If(1,3106,0,2000,1)
   If(1,4106,0,1,0)
    ChangeVariable(4106,4106,0,0,2)
    ShowMessageFace("nanabi_fc1",0,0,2,2)
    ShowMessage("\\n<Nanabi (Affection:\\V[3106])>遠慮はいりません、これを受け取りなさい。 これからも良好な関係を築くとしましょう……")
    250(bytes(0x04,0x08,0x6f,0x3a,0x0c,0x52,0x50,0x47,0x3a,0x3a,0x53,0x45,0x08,0x3a,0x0a,0x40,0x6e,0x61,0x6d,0x65,0x49,0x22,0x0a,0x49,0x74,0x65,0x6d,0x31,0x06,0x3a,0x06,0x45,0x54,0x3a,0x0b,0x40,0x70,0x69,0x74,0x63,0x68,0x69,0x69,0x3a,0x0c,0x40,0x76,0x6f,0x6c,0x75,0x6d,0x65,0x69,0x55))
    ChangeInventoryArmor(1192,0,0,1,false)
    0()
   EndIf()
   0()
  EndIf()
  If(1,3106,0,4000,1)
   If(1,4106,0,2,0)
    ChangeVariable(4106,4106,0,0,3)
    ShowMessageFace("nanabi_fc1",0,0,2,3)
    ShowMessage("\\n<Nanabi (Affection:\\V[3106])>遠慮はいりません、これを受け取りなさい。 これからも良好な関係を築くとしましょう……")
    250(bytes(0x04,0x08,0x6f,0x3a,0x0c,0x52,0x50,0x47,0x3a,0x3a,0x53,0x45,0x08,0x3a,0x0a,0x40,0x6e,0x61,0x6d,0x65,0x49,0x22,0x0a,0x49,0x74,0x65,0x6d,0x31,0x06,0x3a,0x06,0x45,0x54,0x3a,0x0b,0x40,0x70,0x69,0x74,0x63,0x68,0x69,0x69,0x3a,0x0c,0x40,0x76,0x6f,0x6c,0x75,0x6d,0x65,0x69,0x55))
    ChangeInventoryArmor(1379,0,0,1,false)
    0()
   EndIf()
   0()
  EndIf()
  If(1,3106,0,6000,1)
   If(1,4106,0,3,0)
    ChangeVariable(4106,4106,0,0,4)
    ShowMessageFace("nanabi_fc1",0,0,2,4)
    ShowMessage("\\n<Nanabi (Affection:\\V[3106])>遠慮はいりません、これを受け取りなさい。 これからも良好な関係を築くとしましょう……")
    250(bytes(0x04,0x08,0x6f,0x3a,0x0c,0x52,0x50,0x47,0x3a,0x3a,0x53,0x45,0x08,0x3a,0x0a,0x40,0x6e,0x61,0x6d,0x65,0x49,0x22,0x0a,0x49,0x74,0x65,0x6d,0x31,0x06,0x3a,0x06,0x45,0x54,0x3a,0x0b,0x40,0x70,0x69,0x74,0x63,0x68,0x69,0x69,0x3a,0x0c,0x40,0x76,0x6f,0x6c,0x75,0x6d,0x65,0x69,0x55))
    ChangeInventoryArmor(1651,0,0,1,false)
    0()
   EndIf()
   0()
  EndIf()
  355("actor_label_jump")
  ShowMessageFace("nanabi_fc1",0,0,2,5)
  ShowMessage("\\n<Nanabi (Affection:\\V[3106])>たまには逢瀬もいいですね…… いっそ二人で旅立ちませんか？")
  JumpToLabel("メニュー")
  DefineLabel("5")
  ShowMessageFace("alice_fc5",0,0,2,6)
  ShowMessage("\\n<Alice (Affection:\\V[3005])>きつねめ……")
  ShowMessageFace("nanabi_fc1",0,0,2,7)
  ShowMessage("\\n<Nanabi (Affection:\\V[3106])>そう嫌わないで下さい、魔王様。 きつね族一同、あなたに尽くしてきたのです。")
  ShowMessageFace("alice_fc5",0,0,2,8)
  ShowMessage("\\n<Alice (Affection:\\V[3005])>余を子供扱いするな……")
  ShowMessageFace("nanabi_fc1",0,0,2,9)
  ShowMessage("\\n<Nanabi (Affection:\\V[3106])>子供ではないですか…… ほら、アメですよ。")
  ShowMessageFace("alice_fc5",7,0,2,10)
  ShowMessage("\\n<Alice (Affection:\\V[3005])>…………♪")
  ShowMessageFace("alice_fc5",3,0,2,11)
  ShowMessage("\\n<Alice (Affection:\\V[3005])>こんなものに釣られると思うか……")
  ShowMessageFace("nanabi_fc1",0,0,2,12)
  ShowMessage("\\n<Nanabi (Affection:\\V[3106])>釣られたではないですか……")
  JumpToLabel("メニュー")
  DefineLabel("102")
  ShowMessageFace("youko_fc1",2,0,2,13)
  ShowMessage("\\n<Kitsu (Affection:\\V[3102])>七尾様、たすけて～！ かむろちゃんに追い越されそう～！")
  ShowMessageFace("nanabi_fc1",0,0,2,14)
  ShowMessage("\\n<Nanabi (Affection:\\V[3106])>後輩より努力するより他にありませんね。 後についてくる子のために、頼れる背中を示しなさい。")
  ShowMessageFace("youko_fc1",0,0,2,15)
  ShowMessage("\\n<Kitsu (Affection:\\V[3102])>背中…… あたしのちっちゃな背中にも、未来が！")
  ShowMessageFace("nanabi_fc1",0,0,2,16)
  ShowMessage("\\n<Nanabi (Affection:\\V[3106])>まあ、言うほど歳は変わらないでしょうけど…… がんばりなさいね。")
  JumpToLabel("メニュー")
  DefineLabel("103")
  ShowMessageFace("kamuro_fc1",0,0,2,17)
  ShowMessage("\\n<Kamuro (Affection:\\V[3103])>七尾様……私は、どうしても自分に自信が持てません。 いっぱいがんばってるのに、なぜなんでしょう……")
  ShowMessageFace("nanabi_fc1",0,0,2,18)
  ShowMessage("\\n<Nanabi (Affection:\\V[3106])>いっそ、頑張らずにやってみては？ あなたは、いつも気負いすぎなのですから……")
  ShowMessageFace("kamuro_fc1",1,0,2,19)
  ShowMessage("\\n<Kamuro (Affection:\\V[3103])>なるほど！ がんばらないよう、がんばります！")
  ShowMessageFace("nanabi_fc1",2,0,2,20)
  ShowMessage("\\n<Nanabi (Affection:\\V[3106])>結局、がんばるのですね……")
  JumpToLabel("メニュー")
  DefineLabel("メニュー")
  StartLoop()
   355("unlimited_choices(11, [\"Give presents\",")
   655("\"Add to party\",")
   655("\"View present list\",\"Request\",")
   655("\"Never mind\"])")
   If(1,11,0,0,0)
    355("present_start(106)")
    0()
   EndIf()
   If(1,11,0,1,0)
    PictureClear(5)
    355("move_actor_ex(106)")
    EndEventProcessing()
    0()
   EndIf()
   If(1,11,0,2,0)
    ShowMessageFace("",0,0,2,21)
    ShowMessage("Affection  500:\\ia[1086]")
    ShowMessage("Affection 2000:\\ia[1192]")
    ShowMessage("Affection 4000:\\ia[1379]")
    ShowMessage("Affection 6000:\\ia[1651]")
    0()
   EndIf()
   If(1,11,0,3,0)
    PictureClear(5)
    ShowMessageFace("",0,0,2,22)
    ShowMessage("Ask her for what? (Affection:\\V[3106])")
    ShowChoices(strings("Semen Squeezing Tails(Affection:10)","Reverse rape(Affection:100)","Never mind"),3)
    IfPlayerPicksChoice(0,null)
     If(1,3106,0,10,1)
      355("call_novel_scene(4321)")
      EndEventProcessing()
      0()
     Else()
      ShowMessageFace("nanabi_fc1",0,0,2,23)
      ShowMessage("\\n<Nanabi (Affection:\\V[3106])>まだまだ、甘やかすわけにはいきませんよ……")
      0()
     EndIf()
     0()
    IfPlayerPicksChoice(1,null)
     If(1,3106,0,100,1)
      355("call_novel_scene(4322)")
      EndEventProcessing()
      0()
     Else()
      ShowMessageFace("nanabi_fc1",0,0,2,24)
      ShowMessage("\\n<Nanabi (Affection:\\V[3106])>まだまだ、甘やかすわけにはいきませんよ……")
      0()
     EndIf()
     0()
    IfPlayerPicksChoice(2,null)
     0()
    404()
    0()
   EndIf()
   If(1,11,0,4,1)
    PictureClear(5)
    EndEventProcessing()
    0()
   EndIf()
   0()
  EndLoop()
  0()
 PAGE   2
  // condition: party contains actor #106
  0()



EVENT   23
 PAGE   1
  // condition: switch 1080 is ON
  PictureDisplay(5,"80_orc_st01",0,0,0,0,100,100,0,0)
  PictureMove(5,null,0,0,0,0,100,100,255,0,30,true)
  If(1,3080,0,10,1)
   If(1,4080,0,0,0)
    ChangeVariable(4080,4080,0,0,1)
    ShowMessageFace("orc_fc1",1,0,2,1)
    ShowMessage("\\n<Hip (Affection:\\V[3080])>ダンナ、これを受け取ってくれますよね……？")
    250(bytes(0x04,0x08,0x6f,0x3a,0x0c,0x52,0x50,0x47,0x3a,0x3a,0x53,0x45,0x08,0x3a,0x0a,0x40,0x6e,0x61,0x6d,0x65,0x49,0x22,0x0a,0x49,0x74,0x65,0x6d,0x31,0x06,0x3a,0x06,0x45,0x54,0x3a,0x0b,0x40,0x70,0x69,0x74,0x63,0x68,0x69,0x69,0x3a,0x0c,0x40,0x76,0x6f,0x6c,0x75,0x6d,0x65,0x69,0x55))
    ChangeInventoryWeapon(401,0,0,1,false)
    0()
   EndIf()
   0()
  EndIf()
  If(1,3080,0,100,1)
   If(1,4080,0,1,0)
    ChangeVariable(4080,4080,0,0,2)
    ShowMessageFace("orc_fc1",1,0,2,2)
    ShowMessage("\\n<Hip (Affection:\\V[3080])>ダンナ、これを受け取ってくれますよね……？")
    250(bytes(0x04,0x08,0x6f,0x3a,0x0c,0x52,0x50,0x47,0x3a,0x3a,0x53,0x45,0x08,0x3a,0x0a,0x40,0x6e,0x61,0x6d,0x65,0x49,0x22,0x0a,0x49,0x74,0x65,0x6d,0x31,0x06,0x3a,0x06,0x45,0x54,0x3a,0x0b,0x40,0x70,0x69,0x74,0x63,0x68,0x69,0x69,0x3a,0x0c,0x40,0x76,0x6f,0x6c,0x75,0x6d,0x65,0x69,0x55))
    ChangeInventoryArmor(1016,0,0,1,false)
    0()
   EndIf()
   0()
  EndIf()
  If(1,3080,0,500,1)
   If(1,4080,0,2,0)
    ChangeVariable(4080,4080,0,0,3)
    ShowMessageFace("orc_fc1",1,0,2,3)
    ShowMessage("\\n<Hip (Affection:\\V[3080])>ダンナ、これを受け取ってくれますよね……？")
    250(bytes(0x04,0x08,0x6f,0x3a,0x0c,0x52,0x50,0x47,0x3a,0x3a,0x53,0x45,0x08,0x3a,0x0a,0x40,0x6e,0x61,0x6d,0x65,0x49,0x22,0x0a,0x49,0x74,0x65,0x6d,0x31,0x06,0x3a,0x06,0x45,0x54,0x3a,0x0b,0x40,0x70,0x69,0x74,0x63,0x68,0x69,0x69,0x3a,0x0c,0x40,0x76,0x6f,0x6c,0x75,0x6d,0x65,0x69,0x55))
    ChangeInventoryArmor(1309,0,0,1,false)
    0()
   EndIf()
   0()
  EndIf()
  If(1,3080,0,2000,1)
   If(1,4080,0,3,0)
    ChangeVariable(4080,4080,0,0,4)
    ShowMessageFace("orc_fc1",1,0,2,4)
    ShowMessage("\\n<Hip (Affection:\\V[3080])>ダンナ、これを受け取ってくれますよね……？")
    250(bytes(0x04,0x08,0x6f,0x3a,0x0c,0x52,0x50,0x47,0x3a,0x3a,0x53,0x45,0x08,0x3a,0x0a,0x40,0x6e,0x61,0x6d,0x65,0x49,0x22,0x0a,0x49,0x74,0x65,0x6d,0x31,0x06,0x3a,0x06,0x45,0x54,0x3a,0x0b,0x40,0x70,0x69,0x74,0x63,0x68,0x69,0x69,0x3a,0x0c,0x40,0x76,0x6f,0x6c,0x75,0x6d,0x65,0x69,0x55))
    ChangeInventoryArmor(1018,0,0,1,false)
    0()
   EndIf()
   0()
  EndIf()
  355("actor_label_jump")
  ShowMessageFace("orc_fc1",1,0,2,5)
  ShowMessage("\\n<Hip (Affection:\\V[3080])>ぶひ！　今日はどこを襲いに行くんですかー！？")
  JumpToLabel("メニュー")
  DefineLabel("62")
  ShowMessageFace("orc_fc1",0,0,2,6)
  ShowMessage("\\n<Hip (Affection:\\V[3080])>あなたは……棍棒仲間ですね！ あなたもオークですか？")
  ShowMessageFace("gob_fc1",0,0,2,7)
  ShowMessage("\\n<Gob (Affection:\\V[3062])>ボク、ゴブリンだよ！")
  ShowMessageFace("orc_fc1",1,0,2,8)
  ShowMessage("\\n<Hip (Affection:\\V[3080])>ゴブリン！　とても親近感を感じます！ 今度、一緒に村を襲いましょう！")
  ShowMessageFace("gob_fc1",3,0,2,9)
  ShowMessage("\\n<Gob (Affection:\\V[3062])>ま、またの機会にね……")
  JumpToLabel("メニュー")
  DefineLabel("164")
  ShowMessageFace("orc_fc1",0,0,2,10)
  ShowMessage("\\n<Hip (Affection:\\V[3080])>あなたは……棍棒仲間ですね！ あなたもオークですか？")
  ShowMessageFace("kooni_fc1",2,0,2,11)
  ShowMessage("\\n<Shizuku (Affection:\\V[3164])>いや……あたしは鬼なんだけど。")
  ShowMessageFace("orc_fc1",1,0,2,12)
  ShowMessage("\\n<Hip (Affection:\\V[3080])>オニ！　まさに悪党の代名詞ですね。 オークと仲良くしましょう。")
  ShowMessageFace("kooni_fc1",2,0,2,13)
  ShowMessage("\\n<Shizuku (Affection:\\V[3164])>う、うん……よろしくね……")
  JumpToLabel("メニュー")
  DefineLabel("525")
  ShowMessageFace("orc_fc1",0,0,2,14)
  ShowMessage("\\n<Hip (Affection:\\V[3080])>あなたは……棍棒仲間ですね！ あなたもオークですか？")
  ShowMessageFace("sonia_fc2",2,0,2,15)
  ShowMessage("\\n<Sonya (Affection:\\V[3525])>いや、人間だけど…… ……ってか、見て分からない？")
  ShowMessageFace("orc_fc1",0,0,2,16)
  ShowMessage("\\n<Hip (Affection:\\V[3080])>……………………")
  ShowMessageFace("sonia_fc3",2,0,2,17)
  ShowMessage("\\n<Sonya (Affection:\\V[3525])>ちょ！　なんで、そこで黙るの！？")
  ShowMessageFace("orc_fc1",0,0,2,18)
  ShowMessage("\\n<Hip (Affection:\\V[3080])>いえ、ムチムチしていたのでオークかと……")
  JumpToLabel("メニュー")
  DefineLabel("メニュー")
  StartLoop()
   355("unlimited_choices(11, [\"Give presents\",")
   655("\"Add to party\",")
   655("\"View present list\",\"Request\",")
   655("\"Never mind\"])")
   If(1,11,0,0,0)
    355("present_start(80)")
    0()
   EndIf()
   If(1,11,0,1,0)
    PictureClear(5)
    355("move_actor_ex(80)")
    EndEventProcessing()
    0()
   EndIf()
   If(1,11,0,2,0)
    ShowMessageFace("",0,0,2,19)
    ShowMessage("Affection   10:\\iw[401]")
    ShowMessage("Affection  100:\\ia[1016]")
    ShowMessage("Affection  500:\\ia[1309]")
    ShowMessage("Affection 2000:\\ia[1018]")
    0()
   EndIf()
   If(1,11,0,3,0)
    PictureClear(5)
    ShowMessageFace("",0,0,2,20)
    ShowMessage("Ask her for what? (Affection:\\V[3080])")
    ShowChoices(strings("Reverse mind(Affection:10)","Never mind"),2)
    IfPlayerPicksChoice(0,null)
     If(1,3080,0,10,1)
      355("call_novel_scene(4191)")
      EndEventProcessing()
      0()
     Else()
      ShowMessageFace("orc_fc1",0,0,2,21)
      ShowMessage("\\n<Hip (Affection:\\V[3080])>また今度にしてほしいです……")
      0()
     EndIf()
     0()
    IfPlayerPicksChoice(1,null)
     0()
    404()
    0()
   EndIf()
   If(1,11,0,4,1)
    PictureClear(5)
    EndEventProcessing()
    0()
   EndIf()
   0()
  EndLoop()
  0()
 PAGE   2
  // condition: party contains actor #80
  0()



EVENT   26
 PAGE   1
  // condition: switch 1132 is ON
  PictureDisplay(5,"80_zonbe_st11",0,0,0,0,100,100,0,0)
  PictureMove(5,null,0,0,0,0,100,100,255,0,30,true)
  If(1,3132,0,10,1)
   If(1,4132,0,0,0)
    ChangeVariable(4132,4132,0,0,1)
    ShowMessageFace("zonbe_fc2",0,0,2,1)
    ShowMessage("\\n<Eri (Affection:\\V[3132])>私の墓に、捧げられていた…… 朽ちるには惜しい……使って……")
    250(bytes(0x04,0x08,0x6f,0x3a,0x0c,0x52,0x50,0x47,0x3a,0x3a,0x53,0x45,0x08,0x3a,0x0a,0x40,0x6e,0x61,0x6d,0x65,0x49,0x22,0x0a,0x49,0x74,0x65,0x6d,0x31,0x06,0x3a,0x06,0x45,0x54,0x3a,0x0b,0x40,0x70,0x69,0x74,0x63,0x68,0x69,0x69,0x3a,0x0c,0x40,0x76,0x6f,0x6c,0x75,0x6d,0x65,0x69,0x55))
    ChangeInventoryWeapon(11,0,0,1,false)
    0()
   EndIf()
   0()
  EndIf()
  If(1,3132,0,100,1)
   If(1,4132,0,1,0)
    ChangeVariable(4132,4132,0,0,2)
    ShowMessageFace("zonbe_fc2",0,0,2,2)
    ShowMessage("\\n<Eri (Affection:\\V[3132])>私の墓に、捧げられていた…… 朽ちるには惜しい……使って……")
    250(bytes(0x04,0x08,0x6f,0x3a,0x0c,0x52,0x50,0x47,0x3a,0x3a,0x53,0x45,0x08,0x3a,0x0a,0x40,0x6e,0x61,0x6d,0x65,0x49,0x22,0x0a,0x49,0x74,0x65,0x6d,0x31,0x06,0x3a,0x06,0x45,0x54,0x3a,0x0b,0x40,0x70,0x69,0x74,0x63,0x68,0x69,0x69,0x3a,0x0c,0x40,0x76,0x6f,0x6c,0x75,0x6d,0x65,0x69,0x55))
    ChangeInventoryArmor(1011,0,0,1,false)
    0()
   EndIf()
   0()
  EndIf()
  If(1,3132,0,500,1)
   If(1,4132,0,2,0)
    ChangeVariable(4132,4132,0,0,3)
    ShowMessageFace("zonbe_fc2",0,0,2,3)
    ShowMessage("\\n<Eri (Affection:\\V[3132])>私の墓に、捧げられていた…… 朽ちるには惜しい……使って……")
    250(bytes(0x04,0x08,0x6f,0x3a,0x0c,0x52,0x50,0x47,0x3a,0x3a,0x53,0x45,0x08,0x3a,0x0a,0x40,0x6e,0x61,0x6d,0x65,0x49,0x22,0x0a,0x49,0x74,0x65,0x6d,0x31,0x06,0x3a,0x06,0x45,0x54,0x3a,0x0b,0x40,0x70,0x69,0x74,0x63,0x68,0x69,0x69,0x3a,0x0c,0x40,0x76,0x6f,0x6c,0x75,0x6d,0x65,0x69,0x55))
    ChangeInventoryArmor(1285,0,0,1,false)
    0()
   EndIf()
   0()
  EndIf()
  If(1,3132,0,2000,1)
   If(1,4132,0,3,0)
    ChangeVariable(4132,4132,0,0,4)
    ShowMessageFace("zonbe_fc2",0,0,2,4)
    ShowMessage("\\n<Eri (Affection:\\V[3132])>私の墓に、捧げられていた…… 朽ちるには惜しい……使って……")
    250(bytes(0x04,0x08,0x6f,0x3a,0x0c,0x52,0x50,0x47,0x3a,0x3a,0x53,0x45,0x08,0x3a,0x0a,0x40,0x6e,0x61,0x6d,0x65,0x49,0x22,0x0a,0x49,0x74,0x65,0x6d,0x31,0x06,0x3a,0x06,0x45,0x54,0x3a,0x0b,0x40,0x70,0x69,0x74,0x63,0x68,0x69,0x69,0x3a,0x0c,0x40,0x76,0x6f,0x6c,0x75,0x6d,0x65,0x69,0x55))
    ChangeInventoryArmor(1458,0,0,1,false)
    0()
   EndIf()
   0()
  EndIf()
  355("actor_label_jump")
  ShowMessageFace("zonbe_fc2",0,0,2,5)
  ShowMessage("\\n<Eri (Affection:\\V[3132])>まだ、剣を振れる…… まだ私は戦える……")
  JumpToLabel("メニュー")
  DefineLabel("133")
  ShowMessageFace("zonbe_fc3",3,0,2,6)
  ShowMessage("\\n<Zombies (Affection:\\V[3133])>うぅ……あぁぁ……")
  ShowMessageFace("zonbe_fc2",0,0,2,7)
  ShowMessage("\\n<Eri (Affection:\\V[3132])>いつか、私も…… この連中のように、心まで朽ちていくのか……")
  ShowMessageFace("zonbe_fc3",0,0,2,8)
  ShowMessage("\\n<Zombies (Affection:\\V[3133])>失礼ね……朽ちてはいないわよ……")
  ShowMessageFace("zonbe_fc2",0,0,2,9)
  ShowMessage("\\n<Eri (Affection:\\V[3132])>…………！？")
  JumpToLabel("メニュー")
  DefineLabel("156")
  ShowMessageFace("zonbe_fc2",0,0,2,10)
  ShowMessage("\\n<Eri (Affection:\\V[3132])>あ……うぅ……")
  ShowMessageFace("d_fighter_fc1",0,0,2,11)
  ShowMessage("\\n<Regina (Affection:\\V[3156])>私も死んだら、この格好でうろつく事になるのかしら…… ゾンビになって、恥ずかしさの感覚さえ失ってしまって……")
  ShowMessageFace("zonbe_fc2",0,0,2,12)
  ShowMessage("\\n<Eri (Affection:\\V[3132])>……なんだ、ずいぶん恥ずかしい格好だな……")
  ShowMessageFace("d_fighter_fc1",3,0,2,13)
  ShowMessage("\\n<Regina (Affection:\\V[3156])>な、なによ！　ゾンビに言われたくないわよ！")
  JumpToLabel("メニュー")
  DefineLabel("529")
  ShowMessageFace("zonbe_fc2",0,0,2,14)
  ShowMessage("\\n<Eri (Affection:\\V[3132])>サバサの女王陛下…… 私も生前は、サバサ王家に仕えていた剣士だった……")
  ShowMessageFace("sara_fc1",1,0,2,15)
  ShowMessage("\\n<Sara (Affection:\\V[3529])>その忠義に感謝するわ。 これからも、一緒に戦ってくれる？")
  ShowMessageFace("zonbe_fc2",0,0,2,16)
  ShowMessage("\\n<Eri (Affection:\\V[3132])>喜んで……この忠義、死してなお……")
  JumpToLabel("メニュー")
  DefineLabel("メニュー")
  StartLoop()
   355("unlimited_choices(11, [\"Give presents\",")
   655("\"Add to party\",")
   655("\"View present list\",\"Request\",")
   655("\"Never mind\"])")
   If(1,11,0,0,0)
    355("present_start(132)")
    0()
   EndIf()
   If(1,11,0,1,0)
    PictureClear(5)
    355("move_actor_ex(132)")
    EndEventProcessing()
    0()
   EndIf()
   If(1,11,0,2,0)
    ShowMessageFace("",0,0,2,17)
    ShowMessage("Affection   10:\\iw[11]")
    ShowMessage("Affection  100:\\ia[1011]")
    ShowMessage("Affection  500:\\ia[1285]")
    ShowMessage("Affection 2000:\\ia[1458]")
    0()
   EndIf()
   If(1,11,0,3,0)
    PictureClear(5)
    ShowMessageFace("",0,0,2,18)
    ShowMessage("Ask her for what? (Affection:\\V[3132])")
    ShowChoices(strings("Pointless Mating(Affection:10)","Never mind"),2)
    IfPlayerPicksChoice(0,null)
     If(1,3132,0,10,1)
      355("call_novel_scene(4456)")
      EndEventProcessing()
      0()
     Else()
      ShowMessageFace("zonbe_fc2",0,0,2,19)
      ShowMessage("\\n<Eri (Affection:\\V[3132])>魂が抜けそう……またの機会に……")
      0()
     EndIf()
     0()
    IfPlayerPicksChoice(1,null)
     0()
    404()
    0()
   EndIf()
   If(1,11,0,4,1)
    PictureClear(5)
    EndEventProcessing()
    0()
   EndIf()
   0()
  EndLoop()
  0()
 PAGE   2
  // condition: party contains actor #132
  0()



EVENT   25
 PAGE   1
  // condition: switch 1096 is ON
  PictureDisplay(5,"80_delh_b_st01",0,0,0,0,100,100,0,0)
  PictureMove(5,null,0,0,0,0,100,100,255,0,30,true)
  If(1,3096,0,10,1)
   If(1,4096,0,0,0)
    ChangeVariable(4096,4096,0,0,1)
    ShowMessageFace("delh_b_fc1",0,0,2,1)
    ShowMessage("\\n<Marion (Affection:\\V[3096])>これを持って行きなさい。 高くつくかもねぇ、ふふっ……")
    250(bytes(0x04,0x08,0x6f,0x3a,0x0c,0x52,0x50,0x47,0x3a,0x3a,0x53,0x45,0x08,0x3a,0x0a,0x40,0x6e,0x61,0x6d,0x65,0x49,0x22,0x0a,0x49,0x74,0x65,0x6d,0x31,0x06,0x3a,0x06,0x45,0x54,0x3a,0x0b,0x40,0x70,0x69,0x74,0x63,0x68,0x69,0x69,0x3a,0x0c,0x40,0x76,0x6f,0x6c,0x75,0x6d,0x65,0x69,0x55))
    ChangeInventoryArmor(237,0,0,1,false)
    0()
   EndIf()
   0()
  EndIf()
  If(1,3096,0,100,1)
   If(1,4096,0,1,0)
    ChangeVariable(4096,4096,0,0,2)
    ShowMessageFace("delh_b_fc1",0,0,2,2)
    ShowMessage("\\n<Marion (Affection:\\V[3096])>これを持って行きなさい。 高くつくかもねぇ、ふふっ……")
    250(bytes(0x04,0x08,0x6f,0x3a,0x0c,0x52,0x50,0x47,0x3a,0x3a,0x53,0x45,0x08,0x3a,0x0a,0x40,0x6e,0x61,0x6d,0x65,0x49,0x22,0x0a,0x49,0x74,0x65,0x6d,0x31,0x06,0x3a,0x06,0x45,0x54,0x3a,0x0b,0x40,0x70,0x69,0x74,0x63,0x68,0x69,0x69,0x3a,0x0c,0x40,0x76,0x6f,0x6c,0x75,0x6d,0x65,0x69,0x55))
    ChangeInventoryArmor(1006,0,0,1,false)
    0()
   EndIf()
   0()
  EndIf()
  If(1,3096,0,500,1)
   If(1,4096,0,2,0)
    ChangeVariable(4096,4096,0,0,3)
    ShowMessageFace("delh_b_fc1",0,0,2,3)
    ShowMessage("\\n<Marion (Affection:\\V[3096])>これを持って行きなさい。 高くつくかもねぇ、ふふっ……")
    250(bytes(0x04,0x08,0x6f,0x3a,0x0c,0x52,0x50,0x47,0x3a,0x3a,0x53,0x45,0x08,0x3a,0x0a,0x40,0x6e,0x61,0x6d,0x65,0x49,0x22,0x0a,0x49,0x74,0x65,0x6d,0x31,0x06,0x3a,0x06,0x45,0x54,0x3a,0x0b,0x40,0x70,0x69,0x74,0x63,0x68,0x69,0x69,0x3a,0x0c,0x40,0x76,0x6f,0x6c,0x75,0x6d,0x65,0x69,0x55))
    ChangeInventoryArmor(1246,0,0,1,false)
    0()
   EndIf()
   0()
  EndIf()
  If(1,3096,0,2000,1)
   If(1,4096,0,3,0)
    ChangeVariable(4096,4096,0,0,4)
    ShowMessageFace("delh_b_fc1",0,0,2,4)
    ShowMessage("\\n<Marion (Affection:\\V[3096])>これを持って行きなさい。 高くつくかもねぇ、ふふっ……")
    250(bytes(0x04,0x08,0x6f,0x3a,0x0c,0x52,0x50,0x47,0x3a,0x3a,0x53,0x45,0x08,0x3a,0x0a,0x40,0x6e,0x61,0x6d,0x65,0x49,0x22,0x0a,0x49,0x74,0x65,0x6d,0x31,0x06,0x3a,0x06,0x45,0x54,0x3a,0x0b,0x40,0x70,0x69,0x74,0x63,0x68,0x69,0x69,0x3a,0x0c,0x40,0x76,0x6f,0x6c,0x75,0x6d,0x65,0x69,0x55))
    ChangeInventoryArmor(1203,0,0,1,false)
    0()
   EndIf()
   0()
  EndIf()
  355("actor_label_jump")
  ShowMessageFace("delh_b_fc1",0,0,2,5)
  ShowMessage("\\n<Marion (Affection:\\V[3096])>私の触手達は今日も元気よ。 確かめてみる？　ふふふっ……")
  JumpToLabel("メニュー")
  DefineLabel("95")
  ShowMessageFace("delh_b_fc1",0,0,2,6)
  ShowMessage("\\n<Marion (Affection:\\V[3096])>相変わらず、剣の修行に熱心なのね。 ダークエルフなのだから、欲に溺れなさい……")
  ShowMessageFace("delh_a_fc1",0,0,2,7)
  ShowMessage("\\n<Lona (Affection:\\V[3095])>でも、修行しないと腕が鈍るし……")
  ShowMessageFace("delh_b_fc1",0,0,2,8)
  ShowMessage("\\n<Marion (Affection:\\V[3096])>それが闇に堕ちた者のセリフ？ あなたは、健康的に日焼けしたエルフなのかしら……？")
  ShowMessageFace("delh_a_fc1",1,0,2,9)
  ShowMessage("\\n<Lona (Affection:\\V[3095])>そうね、目が醒めたわ！ さっそく人間を犯さないと！")
  ShowMessageFace("sonia_fc4",0,0,2,10)
  ShowMessage("\\n<Sonya>（ダークエルフの世界も大変なのね……)")
  JumpToLabel("メニュー")
  DefineLabel("136")
  ShowMessageFace("elf_fc1",0,0,2,11)
  ShowMessage("\\n<Claudia (Affection:\\V[3136])>ふん、堕ちたエルフじゃない。 そんな姿で、惨めなものね……")
  ShowMessageFace("delh_b_fc1",0,0,2,12)
  ShowMessage("\\n<Marion (Affection:\\V[3096])>あなたも、この触手で堕ちてみる……？")
  ShowMessageFace("elf_fc1",2,0,2,13)
  ShowMessage("\\n<Claudia (Affection:\\V[3136])>そ、そんな……触手で穴という穴を…… そんな、私……ああ、だめ……")
  ShowMessageFace("delh_b_fc1",2,0,2,14)
  ShowMessage("\\n<Marion (Affection:\\V[3096])>あなた、本当に堕ちるわよ……？")
  JumpToLabel("メニュー")
  DefineLabel("160")
  ShowMessageFace("wormv_fc1",0,0,2,15)
  ShowMessage("\\n<Julia (Affection:\\V[3160])>あら、同類……？ あなたも、リリィに力を与えられたんですか？")
  ShowMessageFace("delh_b_fc1",0,0,2,16)
  ShowMessage("\\n<Marion (Affection:\\V[3096])>いいえ……でも触手召喚の原理は同じね。 この肉体を触媒に触手を同化させたの……")
  ShowMessageFace("wormv_fc1",0,0,2,17)
  ShowMessage("\\n<Julia (Affection:\\V[3160])>さしずめあなたは、ワームエルフといったところですか……")
  ShowMessageFace("delh_b_fc1",2,0,2,18)
  ShowMessage("\\n<Marion (Affection:\\V[3096])>そういう貴方は、ダーク人間…… ……いまいちなネーミングね。")
  JumpToLabel("メニュー")
  DefineLabel("メニュー")
  StartLoop()
   355("unlimited_choices(11, [\"Give presents\",")
   655("\"Add to party\",")
   655("\"View present list\",\"Request\",")
   655("\"Never mind\"])")
   If(1,11,0,0,0)
    355("present_start(96)")
    0()
   EndIf()
   If(1,11,0,1,0)
    PictureClear(5)
    355("move_actor_ex(96)")
    EndEventProcessing()
    0()
   EndIf()
   If(1,11,0,2,0)
    ShowMessageFace("",0,0,2,19)
    ShowMessage("Affection   10:\\ia[237]")
    ShowMessage("Affection  100:\\ia[1006]")
    ShowMessage("Affection  500:\\ia[1246]")
    ShowMessage("Affection 2000:\\ia[1203]")
    0()
   EndIf()
   If(1,11,0,3,0)
    PictureClear(5)
    ShowMessageFace("",0,0,2,20)
    ShowMessage("Ask her for what? (Affection:\\V[3096])")
    ShowChoices(strings("Tentacle Drain 1(Affection:10)","Tentacle Drain 2(Affection:100)","Never mind"),3)
    IfPlayerPicksChoice(0,null)
     If(1,3096,0,10,1)
      355("call_novel_scene(4271)")
      EndEventProcessing()
      0()
     Else()
      ShowMessageFace("delh_b_fc1",0,0,2,21)
      ShowMessage("\\n<Marion (Affection:\\V[3096])>もう少し、お預けよ……ふふふっ。")
      0()
     EndIf()
     0()
    IfPlayerPicksChoice(1,null)
     If(1,3096,0,100,1)
      355("call_novel_scene(4272)")
      EndEventProcessing()
      0()
     Else()
      ShowMessageFace("delh_b_fc1",0,0,2,22)
      ShowMessage("\\n<Marion (Affection:\\V[3096])>もう少し、お預けよ……ふふふっ。")
      0()
     EndIf()
     0()
    IfPlayerPicksChoice(2,null)
     0()
    404()
    0()
   EndIf()
   If(1,11,0,4,1)
    PictureClear(5)
    EndEventProcessing()
    0()
   EndIf()
   0()
  EndLoop()
  0()
 PAGE   2
  // condition: party contains actor #96
  0()



EVENT   27
 PAGE   1
  // condition: switch 1093 is ON
  PictureDisplay(5,"80_liot_st01",0,0,0,0,100,100,0,0)
  PictureMove(5,null,0,0,0,0,100,100,255,0,30,true)
  If(1,3093,0,10,1)
   If(1,4093,0,0,0)
    ChangeVariable(4093,4093,0,0,1)
    ShowMessageFace("liot_fc1",0,0,2,1)
    ShowMessage("\\n<Riot (Affection:\\V[3093])>これを持って行け。 その……拾ったものだ。")
    250(bytes(0x04,0x08,0x6f,0x3a,0x0c,0x52,0x50,0x47,0x3a,0x3a,0x53,0x45,0x08,0x3a,0x0a,0x40,0x6e,0x61,0x6d,0x65,0x49,0x22,0x0a,0x49,0x74,0x65,0x6d,0x31,0x06,0x3a,0x06,0x45,0x54,0x3a,0x0b,0x40,0x70,0x69,0x74,0x63,0x68,0x69,0x69,0x3a,0x0c,0x40,0x76,0x6f,0x6c,0x75,0x6d,0x65,0x69,0x55))
    ChangeInventoryWeapon(337,0,0,1,false)
    0()
   EndIf()
   0()
  EndIf()
  If(1,3093,0,100,1)
   If(1,4093,0,1,0)
    ChangeVariable(4093,4093,0,0,2)
    ShowMessageFace("liot_fc1",0,0,2,2)
    ShowMessage("\\n<Riot (Affection:\\V[3093])>これを持って行け。 その……拾ったものだ。")
    250(bytes(0x04,0x08,0x6f,0x3a,0x0c,0x52,0x50,0x47,0x3a,0x3a,0x53,0x45,0x08,0x3a,0x0a,0x40,0x6e,0x61,0x6d,0x65,0x49,0x22,0x0a,0x49,0x74,0x65,0x6d,0x31,0x06,0x3a,0x06,0x45,0x54,0x3a,0x0b,0x40,0x70,0x69,0x74,0x63,0x68,0x69,0x69,0x3a,0x0c,0x40,0x76,0x6f,0x6c,0x75,0x6d,0x65,0x69,0x55))
    ChangeInventoryArmor(1036,0,0,1,false)
    0()
   EndIf()
   0()
  EndIf()
  If(1,3093,0,500,1)
   If(1,4093,0,2,0)
    ChangeVariable(4093,4093,0,0,3)
    ShowMessageFace("liot_fc1",0,0,2,3)
    ShowMessage("\\n<Riot (Affection:\\V[3093])>これを持って行け。 その……拾ったものだ。")
    250(bytes(0x04,0x08,0x6f,0x3a,0x0c,0x52,0x50,0x47,0x3a,0x3a,0x53,0x45,0x08,0x3a,0x0a,0x40,0x6e,0x61,0x6d,0x65,0x49,0x22,0x0a,0x49,0x74,0x65,0x6d,0x31,0x06,0x3a,0x06,0x45,0x54,0x3a,0x0b,0x40,0x70,0x69,0x74,0x63,0x68,0x69,0x69,0x3a,0x0c,0x40,0x76,0x6f,0x6c,0x75,0x6d,0x65,0x69,0x55))
    ChangeInventoryArmor(1037,0,0,1,false)
    0()
   EndIf()
   0()
  EndIf()
  If(1,3093,0,2000,1)
   If(1,4093,0,3,0)
    ChangeVariable(4093,4093,0,0,4)
    ShowMessageFace("liot_fc1",0,0,2,4)
    ShowMessage("\\n<Riot (Affection:\\V[3093])>これを持って行け。 その……拾ったものだ。")
    250(bytes(0x04,0x08,0x6f,0x3a,0x0c,0x52,0x50,0x47,0x3a,0x3a,0x53,0x45,0x08,0x3a,0x0a,0x40,0x6e,0x61,0x6d,0x65,0x49,0x22,0x0a,0x49,0x74,0x65,0x6d,0x31,0x06,0x3a,0x06,0x45,0x54,0x3a,0x0b,0x40,0x70,0x69,0x74,0x63,0x68,0x69,0x69,0x3a,0x0c,0x40,0x76,0x6f,0x6c,0x75,0x6d,0x65,0x69,0x55))
    ChangeInventoryArmor(1154,0,0,1,false)
    0()
   EndIf()
   0()
  EndIf()
  355("actor_label_jump")
  ShowMessageFace("liot_fc1",0,0,2,5)
  ShowMessage("\\n<Riot (Affection:\\V[3093])>このままでは体がなまってしまうぞ。 さあ、狩りの時間だ……")
  JumpToLabel("メニュー")
  DefineLabel("68")
  ShowMessageFace("dragonp_fc1",0,0,2,6)
  ShowMessage("\\n<Papi (Affection:\\V[3068])>強そうなドラゴンのお姉さんなのだ！")
  ShowMessageFace("liot_fc1",0,0,2,7)
  ShowMessage("\\n<Riot (Affection:\\V[3093])>……失せろ、小娘。 ガキと遊んでいる暇はない。")
  ShowMessageFace("dragonp_fc1",0,0,2,8)
  ShowMessage("\\n<Papi (Affection:\\V[3068])>わぁ、鋭い爪なのだー！ 強そうなのだ、うらやましいのだー！")
  ShowMessageFace("liot_fc1",3,0,2,9)
  ShowMessage("\\n<Riot (Affection:\\V[3093])>う、失せろ……")
  JumpToLabel("メニュー")
  DefineLabel("150")
  ShowMessageFace("mummy_fc1",2,0,2,10)
  ShowMessage("\\n<Patra (Affection:\\V[3150])>むっ、竜人か…… 結婚願望はあるか？　付き合っている男性は……？")
  ShowMessageFace("liot_fc1",0,0,2,11)
  ShowMessage("\\n<Riot (Affection:\\V[3093])>いきなり、何の話だ……？")
  ShowMessageFace("mummy_fc1",2,0,2,12)
  ShowMessage("\\n<Patra (Affection:\\V[3150])>竜印の試練というのがあるのだが…… 近年は不人気著しくてな……")
  ShowMessageFace("liot_fc1",0,0,2,13)
  ShowMessage("\\n<Riot (Affection:\\V[3093])>それで自ら勧誘か。 儀式関係者も、色々と苦しいのだな……")
  JumpToLabel("メニュー")
  DefineLabel("171")
  ShowMessageFace("liot_fc1",0,0,2,14)
  ShowMessage("\\n<Riot (Affection:\\V[3093])>むっ、上級の竜人か……")
  ShowMessageFace("lizardboss_fc1",3,0,2,15)
  ShowMessage("\\n<Miranda (Affection:\\V[3171])>あんたは……竜人っぽいけど、なんか違うねぇ。 どこ出身だい？")
  ShowMessageFace("liot_fc1",0,0,2,16)
  ShowMessage("\\n<Riot (Affection:\\V[3093])>記憶がない……")
  ShowMessageFace("lizardboss_fc1",0,0,2,17)
  ShowMessage("\\n<Miranda (Affection:\\V[3171])>その歳で物忘れとは、ひどいねぇ。 あんたもウロコ盗賊団に入るかい？")
  ShowMessageFace("liot_fc1",0,0,2,18)
  ShowMessage("\\n<Riot (Affection:\\V[3093])>……考えておく。")
  JumpToLabel("メニュー")
  DefineLabel("メニュー")
  StartLoop()
   355("unlimited_choices(11, [\"Give presents\",")
   655("\"Add to party\",")
   655("\"View present list\",\"Request\",")
   655("\"Never mind\"])")
   If(1,11,0,0,0)
    355("present_start(93)")
    0()
   EndIf()
   If(1,11,0,1,0)
    PictureClear(5)
    355("move_actor_ex(93)")
    EndEventProcessing()
    0()
   EndIf()
   If(1,11,0,2,0)
    ShowMessageFace("",0,0,2,19)
    ShowMessage("Affection   10:\\iw[337]")
    ShowMessage("Affection  100:\\ia[1036]")
    ShowMessage("Affection  500:\\ia[1037]")
    ShowMessage("Affection 2000:\\ia[1154]")
    0()
   EndIf()
   If(1,11,0,3,0)
    PictureClear(5)
    ShowMessageFace("",0,0,2,20)
    ShowMessage("Ask her for what? (Affection:\\V[3093])")
    ShowChoices(strings("Mating(Affection:10)","Onahole(Affection:100)","Never mind"),3)
    IfPlayerPicksChoice(0,null)
     If(1,3093,0,10,1)
      355("call_novel_scene(4256)")
      EndEventProcessing()
      0()
     Else()
      ShowMessageFace("liot_fc1",0,0,2,21)
      ShowMessage("\\n<Riot (Affection:\\V[3093])>今はそんな気分じゃない……")
      0()
     EndIf()
     0()
    IfPlayerPicksChoice(1,null)
     If(1,3093,0,100,1)
      355("call_novel_scene(4257)")
      EndEventProcessing()
      0()
     Else()
      ShowMessageFace("liot_fc1",0,0,2,22)
      ShowMessage("\\n<Riot (Affection:\\V[3093])>今はそんな気分じゃない……")
      0()
     EndIf()
     0()
    IfPlayerPicksChoice(2,null)
     0()
    404()
    0()
   EndIf()
   If(1,11,0,4,1)
    PictureClear(5)
    EndEventProcessing()
    0()
   EndIf()
   0()
  EndLoop()
  0()
 PAGE   2
  // condition: party contains actor #93
  0()



EVENT   29
 PAGE   1
  // condition: switch 1557 is ON
  PictureDisplay(5,"80_justice_st01",0,0,0,0,100,100,0,0)
  PictureMove(5,null,0,0,0,0,100,100,255,0,30,true)
  355("actor_label_jump")
  ShowMessageFace("justice_fc1",0,0,2,1)
  ShowMessage("\\n<Jessica (Affection:\\V[3557])>燃える魂（スピリッツ)！ それは、正義の炎（ファイア)！")
  JumpToLabel("メニュー")
  DefineLabel("143")
  ShowMessageFace("justice_fc1",0,0,2,2)
  ShowMessage("\\n<Jessica (Affection:\\V[3557])>出たな、淫魔（サキュバス)！")
  ShowMessageFace("eva_fc1",2,0,2,3)
  ShowMessage("\\n<Eva (Affection:\\V[3143])>面倒くさいコスプレ女、こんなところにまで！ いい年してそんな事やってて、恥ずかしくないの？")
  ShowMessageFace("justice_fc1",0,0,2,4)
  ShowMessage("\\n<Jessica (Affection:\\V[3557])>お前こそ、世のため人のためにちゃんと働け！")
  ShowMessageFace("eva_fc1",2,0,2,5)
  ShowMessage("\\n<Eva (Affection:\\V[3143])>あんたに言われたくないわよ！")
  JumpToLabel("メニュー")
  DefineLabel("メニュー")
  ShowChoices(strings("Add to party","Never mind"),2)
  IfPlayerPicksChoice(0,null)
   PictureClear(5)
   355("move_actor_ex(557)")
   EndEventProcessing()
   0()
  IfPlayerPicksChoice(1,null)
   PictureClear(5)
   EndEventProcessing()
   0()
  404()
  0()
 PAGE   2
  // condition: party contains actor #557
  0()



EVENT   28
 PAGE   1
  // condition: switch 1550 is ON
  PictureDisplay(5,"80_mob_kakutou_st01",0,0,0,0,100,100,0,0)
  PictureMove(5,null,0,0,0,0,100,100,255,0,30,true)
  355("actor_label_jump")
  ShowMessageFace("mob_kakutou_fc1",0,0,2,1)
  ShowMessage("\\n<Mei-Lin (Affection:\\V[3550])>ここじゃ腕がなまりそう…… ねぇ、野良修行に連れてってよ！")
  JumpToLabel("メニュー")
  DefineLabel("メニュー")
  ShowChoices(strings("Add to party","Never mind"),2)
  IfPlayerPicksChoice(0,null)
   PictureClear(5)
   355("move_actor_ex(550)")
   EndEventProcessing()
   0()
  IfPlayerPicksChoice(1,null)
   PictureClear(5)
   EndEventProcessing()
   0()
  404()
  0()
 PAGE   2
  // condition: party contains actor #550
  0()



EVENT   30
 PAGE   1
  // condition: switch 1559 is ON
  PictureDisplay(5,"80_mob_assasin1_st01",0,0,0,0,100,100,0,0)
  PictureMove(5,null,0,0,0,0,100,100,255,0,30,true)
  355("actor_label_jump")
  ShowMessageFace("mob_assasin1_fc1",1,0,2,1)
  ShowMessage("\\n<Saran (Affection:\\V[3559])>影の刃、その向かう先はお前が決めるがいい……")
  JumpToLabel("メニュー")
  DefineLabel("メニュー")
  ShowChoices(strings("Add to party","Never mind"),2)
  IfPlayerPicksChoice(0,null)
   PictureClear(5)
   355("move_actor_ex(559)")
   EndEventProcessing()
   0()
  IfPlayerPicksChoice(1,null)
   PictureClear(5)
   EndEventProcessing()
   0()
  404()
  0()
 PAGE   2
  // condition: party contains actor #559
  0()



EVENT   24
 PAGE   1
  // condition: switch 1095 is ON
  PictureDisplay(5,"80_delh_a_st01",0,0,0,0,100,100,0,0)
  PictureMove(5,null,0,0,0,0,100,100,255,0,30,true)
  If(1,3095,0,10,1)
   If(1,4095,0,0,0)
    ChangeVariable(4095,4095,0,0,1)
    ShowMessageFace("delh_a_fc1",0,0,2,1)
    ShowMessage("\\n<Lona (Affection:\\V[3095])>これを受け取ってもらえる？ その……特に深い意味はないわ。")
    250(bytes(0x04,0x08,0x6f,0x3a,0x0c,0x52,0x50,0x47,0x3a,0x3a,0x53,0x45,0x08,0x3a,0x0a,0x40,0x6e,0x61,0x6d,0x65,0x49,0x22,0x0a,0x49,0x74,0x65,0x6d,0x31,0x06,0x3a,0x06,0x45,0x54,0x3a,0x0b,0x40,0x70,0x69,0x74,0x63,0x68,0x69,0x69,0x3a,0x0c,0x40,0x76,0x6f,0x6c,0x75,0x6d,0x65,0x69,0x55))
    ChangeInventoryWeapon(56,0,0,1,false)
    0()
   EndIf()
   0()
  EndIf()
  If(1,3095,0,100,1)
   If(1,4095,0,1,0)
    ChangeVariable(4095,4095,0,0,2)
    ShowMessageFace("delh_a_fc1",0,0,2,2)
    ShowMessage("\\n<Lona (Affection:\\V[3095])>これを受け取ってもらえる？ その……特に深い意味はないわ。")
    250(bytes(0x04,0x08,0x6f,0x3a,0x0c,0x52,0x50,0x47,0x3a,0x3a,0x53,0x45,0x08,0x3a,0x0a,0x40,0x6e,0x61,0x6d,0x65,0x49,0x22,0x0a,0x49,0x74,0x65,0x6d,0x31,0x06,0x3a,0x06,0x45,0x54,0x3a,0x0b,0x40,0x70,0x69,0x74,0x63,0x68,0x69,0x69,0x3a,0x0c,0x40,0x76,0x6f,0x6c,0x75,0x6d,0x65,0x69,0x55))
    ChangeInventoryArmor(1011,0,0,1,false)
    0()
   EndIf()
   0()
  EndIf()
  If(1,3095,0,500,1)
   If(1,4095,0,2,0)
    ChangeVariable(4095,4095,0,0,3)
    ShowMessageFace("delh_a_fc1",0,0,2,3)
    ShowMessage("\\n<Lona (Affection:\\V[3095])>これを受け取ってもらえる？ その……特に深い意味はないわ。")
    250(bytes(0x04,0x08,0x6f,0x3a,0x0c,0x52,0x50,0x47,0x3a,0x3a,0x53,0x45,0x08,0x3a,0x0a,0x40,0x6e,0x61,0x6d,0x65,0x49,0x22,0x0a,0x49,0x74,0x65,0x6d,0x31,0x06,0x3a,0x06,0x45,0x54,0x3a,0x0b,0x40,0x70,0x69,0x74,0x63,0x68,0x69,0x69,0x3a,0x0c,0x40,0x76,0x6f,0x6c,0x75,0x6d,0x65,0x69,0x55))
    ChangeInventoryArmor(1285,0,0,1,false)
    0()
   EndIf()
   0()
  EndIf()
  If(1,3095,0,2000,1)
   If(1,4095,0,3,0)
    ChangeVariable(4095,4095,0,0,4)
    ShowMessageFace("delh_a_fc1",0,0,2,4)
    ShowMessage("\\n<Lona (Affection:\\V[3095])>これを受け取ってもらえる？ その……特に深い意味はないわ。")
    250(bytes(0x04,0x08,0x6f,0x3a,0x0c,0x52,0x50,0x47,0x3a,0x3a,0x53,0x45,0x08,0x3a,0x0a,0x40,0x6e,0x61,0x6d,0x65,0x49,0x22,0x0a,0x49,0x74,0x65,0x6d,0x31,0x06,0x3a,0x06,0x45,0x54,0x3a,0x0b,0x40,0x70,0x69,0x74,0x63,0x68,0x69,0x69,0x3a,0x0c,0x40,0x76,0x6f,0x6c,0x75,0x6d,0x65,0x69,0x55))
    ChangeInventoryArmor(1047,0,0,1,false)
    0()
   EndIf()
   0()
  EndIf()
  355("actor_label_jump")
  ShowMessageFace("delh_a_fc1",0,0,2,5)
  ShowMessage("\\n<Lona (Affection:\\V[3095])>ここで大人しくしていると、黒くなる一方よ。 さあ、私を連れて行きなさい！")
  JumpToLabel("メニュー")
  DefineLabel("96")
  ShowMessageFace("delh_b_fc1",0,0,2,6)
  ShowMessage("\\n<Marion (Affection:\\V[3096])>相変わらず、剣の修行に熱心なのね。 ダークエルフなのだから、欲に溺れなさい……")
  ShowMessageFace("delh_a_fc1",0,0,2,7)
  ShowMessage("\\n<Lona (Affection:\\V[3095])>でも、修行しないと腕が鈍るし……")
  ShowMessageFace("delh_b_fc1",0,0,2,8)
  ShowMessage("\\n<Marion (Affection:\\V[3096])>それが闇に堕ちた者のセリフ？ あなたは、健康的に日焼けしたエルフなのかしら……？")
  ShowMessageFace("delh_a_fc1",1,0,2,9)
  ShowMessage("\\n<Lona (Affection:\\V[3095])>そうね、目が醒めたわ！ さっそく人間を犯さないと！")
  ShowMessageFace("sonia_fc4",0,0,2,10)
  ShowMessage("\\n<Sonya>（ダークエルフの世界も大変なのね……)")
  JumpToLabel("メニュー")
  DefineLabel("156")
  ShowMessageFace("delh_a_fc1",0,0,2,11)
  ShowMessage("\\n<Lona (Affection:\\V[3095])>あなた、なかなかの剣士と見たわ。 （格好は痴女そのものだけど……)")
  ShowMessageFace("d_fighter_fc1",3,0,2,12)
  ShowMessage("\\n<Regina (Affection:\\V[3156])>そういうあなたも、相当のものね…… （わぁ、エロエルフだ……略してエロフだ……)")
  ShowMessageFace("delh_a_fc1",0,0,2,13)
  ShowMessage("\\n<Lona (Affection:\\V[3095])>ここは少し、相手してもらえない？ （あの格好、恥ずかしくないのかしら……)")
  ShowMessageFace("d_fighter_fc1",3,0,2,14)
  ShowMessage("\\n<Regina (Affection:\\V[3156])>望むところよ、さあ来なさい……！ （あんなエロさ全開で、よく外歩けるわね……)")
  JumpToLabel("メニュー")
  DefineLabel("170")
  ShowMessageFace("delh_a_fc1",0,0,2,15)
  ShowMessage("\\n<Lona (Affection:\\V[3095])>盗賊のくせに、なかなか腕が立ちそうじゃない……")
  ShowMessageFace("lizardthief_fc2",0,0,2,16)
  ShowMessage("\\n<Len (Affection:\\V[3170])>あなたこそ…… ダークエルフのくせに、鍛錬は欠かしていないようですね。")
  ShowMessageFace("delh_a_fc1",0,0,2,17)
  ShowMessage("\\n<Lona (Affection:\\V[3095])>それじゃあ、ここで勝負でも……")
  ShowMessageFace("lizardthief_fc2",0,0,2,18)
  ShowMessage("\\n<Len (Affection:\\V[3170])>一向に構いません、受けて立ちましょう……")
  ShowMessageFace("sonia_fc2",5,0,2,19)
  ShowMessage("\\n<Sonya>ああもう、ここで果たし合い禁止！")
  JumpToLabel("メニュー")
  DefineLabel("メニュー")
  StartLoop()
   355("unlimited_choices(11, [\"Give presents\",")
   655("\"Add to party\",")
   655("\"View present list\",\"Request\",")
   655("\"Never mind\"])")
   If(1,11,0,0,0)
    355("present_start(95)")
    0()
   EndIf()
   If(1,11,0,1,0)
    PictureClear(5)
    355("move_actor_ex(95)")
    EndEventProcessing()
    0()
   EndIf()
   If(1,11,0,2,0)
    ShowMessageFace(binary"",0,0,2,20)
    ShowMessage("Affection   10:\\iw[56]")
    ShowMessage("Affection  100:\\ia[1011]")
    ShowMessage("Affection  500:\\ia[1285]")
    ShowMessage("Affection 2000:\\ia[1047]")
    0()
   EndIf()
   If(1,11,0,3,0)
    PictureClear(5)
    ShowMessageFace("",0,0,2,21)
    ShowMessage("Ask her for what? (Affection:\\V[3095])")
    ShowChoices(strings("Elf reverse rape(Affection:10)","Never mind"),2)
    IfPlayerPicksChoice(0,null)
     If(1,3095,0,10,1)
      355("call_novel_scene(4266)")
      EndEventProcessing()
      0()
     Else()
      ShowMessageFace("delh_a_fc1",2,0,2,22)
      ShowMessage("\\n<Lona (Affection:\\V[3095])>あまり欲に溺れると、ますます黒くなるから……")
      0()
     EndIf()
     0()
    IfPlayerPicksChoice(1,null)
     0()
    404()
    0()
   EndIf()
   If(1,11,0,4,1)
    PictureClear(5)
    EndEventProcessing()
    0()
   EndIf()
   0()
  EndLoop()
  0()
 PAGE   2
  // condition: party contains actor #95
  0()
