﻿
DisplayName "Happiness Village"



EVENT   1
 PAGE   1
  0()



EVENT   2
 PAGE   1
  250(bytes(0x04,0x08,0x6f,0x3a,0x0c,0x52,0x50,0x47,0x3a,0x3a,0x53,0x45,0x08,0x3a,0x0a,0x40,0x6e,0x61,0x6d,0x65,0x49,0x22,0x09,0x4d,0x6f,0x76,0x65,0x06,0x3a,0x06,0x45,0x54,0x3a,0x0b,0x40,0x70,0x69,0x74,0x63,0x68,0x69,0x69,0x3a,0x0c,0x40,0x76,0x6f,0x6c,0x75,0x6d,0x65,0x69,0x55))
  TeleportPlayer(0,342,70,12,0,0)
  0()



EVENT   3
 PAGE   1
  250(bytes(0x04,0x08,0x6f,0x3a,0x0c,0x52,0x50,0x47,0x3a,0x3a,0x53,0x45,0x08,0x3a,0x0a,0x40,0x6e,0x61,0x6d,0x65,0x49,0x22,0x09,0x4d,0x6f,0x76,0x65,0x06,0x3a,0x06,0x45,0x54,0x3a,0x0b,0x40,0x70,0x69,0x74,0x63,0x68,0x69,0x69,0x3a,0x0c,0x40,0x76,0x6f,0x6c,0x75,0x6d,0x65,0x69,0x55))
  TeleportPlayer(0,342,39,32,0,0)
  0()



EVENT   4
 PAGE   1
  250(bytes(0x04,0x08,0x6f,0x3a,0x0c,0x52,0x50,0x47,0x3a,0x3a,0x53,0x45,0x08,0x3a,0x0a,0x40,0x6e,0x61,0x6d,0x65,0x49,0x22,0x09,0x4d,0x6f,0x76,0x65,0x06,0x3a,0x06,0x45,0x54,0x3a,0x0b,0x40,0x70,0x69,0x74,0x63,0x68,0x69,0x69,0x3a,0x0c,0x40,0x76,0x6f,0x6c,0x75,0x6d,0x65,0x69,0x55))
  TeleportPlayer(0,342,39,12,0,0)
  0()



EVENT   6
 PAGE   1
  250(bytes(0x04,0x08,0x6f,0x3a,0x0c,0x52,0x50,0x47,0x3a,0x3a,0x53,0x45,0x08,0x3a,0x0a,0x40,0x6e,0x61,0x6d,0x65,0x49,0x22,0x09,0x4d,0x6f,0x76,0x65,0x06,0x3a,0x06,0x45,0x54,0x3a,0x0b,0x40,0x70,0x69,0x74,0x63,0x68,0x69,0x69,0x3a,0x0c,0x40,0x76,0x6f,0x6c,0x75,0x6d,0x65,0x69,0x55))
  TeleportPlayer(0,342,11,32,0,0)
  0()



EVENT   7
 PAGE   1
  ShowMessageFace("",0,0,2,1)
  ShowMessage("Luka leaves his party members outside and enters the house alone...")
  216(1)
  250(bytes(0x04,0x08,0x6f,0x3a,0x0c,0x52,0x50,0x47,0x3a,0x3a,0x53,0x45,0x08,0x3a,0x0a,0x40,0x6e,0x61,0x6d,0x65,0x49,0x22,0x09,0x4d,0x6f,0x76,0x65,0x06,0x3a,0x06,0x45,0x54,0x3a,0x0b,0x40,0x70,0x69,0x74,0x63,0x68,0x69,0x69,0x3a,0x0c,0x40,0x76,0x6f,0x6c,0x75,0x6d,0x65,0x69,0x55))
  TeleportPlayer(0,342,11,12,0,0)
  0()



EVENT   8
 PAGE   1
  250(bytes(0x04,0x08,0x6f,0x3a,0x0c,0x52,0x50,0x47,0x3a,0x3a,0x53,0x45,0x08,0x3a,0x0a,0x40,0x6e,0x61,0x6d,0x65,0x49,0x22,0x09,0x4d,0x6f,0x76,0x65,0x06,0x3a,0x06,0x45,0x54,0x3a,0x0b,0x40,0x70,0x69,0x74,0x63,0x68,0x69,0x69,0x3a,0x0c,0x40,0x76,0x6f,0x6c,0x75,0x6d,0x65,0x69,0x55))
  TeleportPlayer(0,342,12,61,0,0)
  0()



EVENT   9
 PAGE   1
  250(bytes(0x04,0x08,0x6f,0x3a,0x0c,0x52,0x50,0x47,0x3a,0x3a,0x53,0x45,0x08,0x3a,0x0a,0x40,0x6e,0x61,0x6d,0x65,0x49,0x22,0x09,0x4d,0x6f,0x76,0x65,0x06,0x3a,0x06,0x45,0x54,0x3a,0x0b,0x40,0x70,0x69,0x74,0x63,0x68,0x69,0x69,0x3a,0x0c,0x40,0x76,0x6f,0x6c,0x75,0x6d,0x65,0x69,0x55))
  TeleportPlayer(0,2,353,325,0,0)
  0()



EVENT   10
 PAGE   1
  250(bytes(0x04,0x08,0x6f,0x3a,0x0c,0x52,0x50,0x47,0x3a,0x3a,0x53,0x45,0x08,0x3a,0x0a,0x40,0x6e,0x61,0x6d,0x65,0x49,0x22,0x09,0x4d,0x6f,0x76,0x65,0x06,0x3a,0x06,0x45,0x54,0x3a,0x0b,0x40,0x70,0x69,0x74,0x63,0x68,0x69,0x69,0x3a,0x0c,0x40,0x76,0x6f,0x6c,0x75,0x6d,0x65,0x69,0x55))
  TeleportPlayer(0,2,353,325,0,0)
  0()



EVENT   11
 PAGE   1
  250(bytes(0x04,0x08,0x6f,0x3a,0x0c,0x52,0x50,0x47,0x3a,0x3a,0x53,0x45,0x08,0x3a,0x0a,0x40,0x6e,0x61,0x6d,0x65,0x49,0x22,0x09,0x4d,0x6f,0x76,0x65,0x06,0x3a,0x06,0x45,0x54,0x3a,0x0b,0x40,0x70,0x69,0x74,0x63,0x68,0x69,0x69,0x3a,0x0c,0x40,0x76,0x6f,0x6c,0x75,0x6d,0x65,0x69,0x55))
  TeleportPlayer(0,2,354,325,0,0)
  0()



EVENT   5
 PAGE   1
  ShowMessageFace("",0,0,2,1)
  ShowMessage("\\n<Woman>Welcome! Happiness Village has the best fruit! How about some sweet honey?")
  355("actor_label_jump")
  JumpToLabel("店")
  DefineLabel("79")
  ShowMessageFace("nuruko_fc1",0,0,2,2)
  ShowMessage("\\n<Nuruko>Kyuu! Kyuu!")
  ShowMessageFace("sonia_fc1",0,0,2,3)
  ShowMessage("\\n<Sonya>You want an apple, Nuruko? ...Luka, gold please.")
  JumpToLabel("店")
  DefineLabel("81")
  ShowMessageFace("mitubati_fc1",0,0,2,4)
  ShowMessage("\\n<Honey>Sometimes even I'm tempted by store-bought honey...")
  JumpToLabel("店")
  DefineLabel("83")
  ShowMessageFace("hapy_a_fc1",0,0,2,5)
  ShowMessage("\\n<Reina>I want to taste the honey! ♪")
  JumpToLabel("店")
  DefineLabel("84")
  ShowMessageFace("hapy_bc_fc1",6,0,2,6)
  ShowMessage("\\n<Pii>Yay, they sell bananas! ♪")
  JumpToLabel("店")
  DefineLabel("111")
  ShowMessageFace("suika_fc1",0,0,2,7)
  ShowMessage("\\n<Melon>I wonder if honey is sweeter than watermelons.")
  JumpToLabel("店")
  DefineLabel("125")
  ShowMessageFace("grizzly_fc1",0,0,2,8)
  ShowMessage("\\n<Aisha>Bear! Honey!")
  JumpToLabel("店")
  DefineLabel("162")
  ShowMessageFace("mitutubo_fc1",0,0,2,9)
  ShowMessage("\\n<Mitsuko>My pot is already filled with sweet honey. ♪")
  JumpToLabel("店")
  DefineLabel("店")
  Shop(0,301,0,0,false)
  605(0,302,0,0)
  605(0,304,0,0)
  605(0,305,0,0)
  605(0,315,0,0)
  605(0,436,0,0)
  0()



EVENT   13
 PAGE   1
  ShowMessageFace("",0,0,2,1)
  ShowMessage("\\n<Boy>All the cute harpies left and went somewhere! Where did you go, Pipi??")
  355("actor_label_jump")
  EndEventProcessing()
  DefineLabel("72")
  ShowMessageFace("phoenix_fc1",4,0,2,2)
  ShowMessage("\\n<Mini>Let it up to us! We'll find her for you!")
  EndEventProcessing()
  DefineLabel("74")
  ShowMessageFace("usagi_fc1",2,0,2,3)
  ShowMessage("\\n<Barnny>Poor kid... Now I really want to find them.")
  EndEventProcessing()
  0()
 PAGE   2
  // condition: variable 1011 >= 4
  ShowMessageFace("",0,0,2,1)
  ShowMessage("\\n<Boy>All the cute harpies are back! Pipi was safe too!")
  ShowMessageFace("",0,0,2,2)
  ShowMessage("\\n<Boy>I prayed to the Goddess every day for her return. It would have been awful if something had happened to my future bride!")
  355("actor_label_jump")
  EndEventProcessing()
  DefineLabel("83")
  ShowMessageFace("hapy_a_fc1",0,0,2,3)
  ShowMessage("\\n<Reina>Oh my, an early bloomer. It looks like I'll have lots of new friends to look forward to. ♪")
  EndEventProcessing()
  0()



EVENT   14
 PAGE   1
  If(1,1011,0,3,2)
   ShowMessageFace("",0,0,2,1)
   ShowMessage("\\n<Old Man>Where could all those harpies have disappeared to? My son is betrothed to one of them, and now we have no idea where she is.")
   ShowMessageFace("",0,0,2,2)
   ShowMessage("\\n<Old Man>We've looked everywhere, but there isn't a sign of them. Where on earth are they?")
   0()
  EndIf()
  If(1,1011,0,4,1)
   ShowMessageFace("",0,0,2,3)
   ShowMessage("\\n<Old Man>My son and I are overjoyed that the harpies are safe and sound, including my son's wife-to-be.")
   ShowMessageFace("",0,0,2,4)
   ShowMessage("\\n<Old Man>After all that, I'm thinking we should move up the ceremony. Then maybe it'll be time to tell my son about his new little brother...")
   ShowMessageFace("",0,0,2,5)
   ShowMessage("\\n<Old Man>Oh, my wife's a harpy too, of course, but she can choose the gender of her offspring. She's too good to me...")
   355("actor_label_jump")
   EndEventProcessing()
   DefineLabel("78")
   ShowMessageFace("syesta_fc1",0,0,2,6)
   ShowMessage("\\n<Shesta>What a splendid life... I can remember something like that...")
   EndEventProcessing()
   DefineLabel("83")
   ShowMessageFace("hapy_a_fc1",0,0,2,7)
   ShowMessage("\\n<Reina>I wish you all the best. ♪")
   EndEventProcessing()
   0()
  EndIf()
  0()



EVENT   16
 PAGE   1
  ShowMessageFace("",0,0,2,1)
  ShowMessage("\\n<Traveling Merchant>Crap, crap, crap! I came all the way here to buy Harpy Feathers only to find that all the harpies are gone.")
  ShowMessageFace("",0,0,2,2)
  ShowMessage("\\n<Traveling Merchant>There are no signs of a struggle, and none of the villagers here noticed anything wrong. They all just suddenly vanished one night.")
  ShowMessageFace("",0,0,2,3)
  ShowMessage("\\n<Traveling Merchant>They must have left on their own volition, but it's strange they wouldn't say a word to the villagers that they lived with so closely.")
  ShowMessageFace("",0,0,2,4)
  ShowMessage("\\n<Traveling Merchant>This whole region is a giant forest, which is making the search for them rather hard, I've heard.")
  355("actor_label_jump")
  EndEventProcessing()
  DefineLabel("66")
  ShowMessageFace("vgirl_fc1",0,0,2,5)
  ShowMessage("\\n<Vanilla>Harpy Feather sales? Maybe I need to get friendly with the harpies too...")
  EndEventProcessing()
  0()
 PAGE   2
  // condition: variable 1011 >= 4
  0()



EVENT   17
 PAGE   1
  If(1,1011,0,3,2)
   ShowMessageFace("",0,0,2,1)
   ShowMessage("\\n<Traveling Warrior>I can't believe it. I came all the way here looking for a strong harpy to test myself against, but they've all disappeared.")
   ShowMessageFace("",0,0,2,2)
   ShowMessage("\\n<Traveling Warrior>Huh? No! I swear I'm not looking for one to marry! I want to practice my swordplay...")
   0()
  EndIf()
  If(1,1011,0,4,1)
   ShowMessageFace("",0,0,2,3)
   ShowMessage("\\n<Traveling Warrior>Oooh, the harpies are back? Well then, it's time to go find a strong one to test my skills!")
   ShowMessageFace("",0,0,2,4)
   ShowMessage("\\n<Traveling Warrior>Huh? No! I swear I'm not going to look for one to marry! I want to practice my swordplay...")
   355("actor_label_jump")
   EndEventProcessing()
   DefineLabel("83")
   ShowMessageFace("hapy_a_fc1",1,0,2,5)
   ShowMessage("\\n<Reina>I'd be glad to test your skills, ahaha!")
   EndEventProcessing()
   0()
  EndIf()
  0()



EVENT   19
 PAGE   1
  If(1,1011,0,3,2)
   ShowMessageFace("",0,0,2,1)
   ShowMessage("\\n<Guard>There's a large unused tower far to the north of here, but the entrance is blocked so that no one can enter.")
   ShowMessageFace("",0,0,2,2)
   ShowMessage("\\n<Guard>I'm guessing that something is sealed inside, or perhaps someone evil...")
   ShowMessageFace("",0,0,2,3)
   ShowMessage("\\n<Guard>In any case, I doubt that the harpies could have been sealed in there. No one could do that to the Queen Harpy without causing quite a stir, at least.")
   If(0,6,0)
    ShowMessageFace("sonia_fc2",2,0,2,4)
    ShowMessage("\\n<Sonya>An old mysterious tower... very suspicious. It sounds like we can't get in, but it's worth remembering.")
    0()
   EndIf()
   0()
  EndIf()
  If(1,1011,0,4,1)
   ShowMessageFace("",0,0,2,5)
   ShowMessage("\\n<Guard>So they were in that old tower after all. Looks like I was right to be suspicious of it.")
   ShowMessageFace("",0,0,2,6)
   ShowMessage("\\n<Guard>It must have taken a lot of strength and courage to go into that tower and distribute the medicine while fighting off all those harpies. I'm impressed.")
   If(8,602)
    ShowMessageFace("",0,0,2,7)
    ShowMessage("\\n<Guard>By the way, are you finding the [Guard] job useful?")
    ShowChoices(strings("Yes","No","Haven't tried it"),2)
    IfPlayerPicksChoice(0,null)
     ShowMessageFace("",0,0,2,8)
     ShowMessage("\\n<Guard>I knew you had good taste!")
     0()
    IfPlayerPicksChoice(1,null)
     ShowMessageFace("",0,0,2,9)
     ShowMessage("\\n<Guard>Oh yeah? Well, it is just a plain basic job...")
     0()
    IfPlayerPicksChoice(2,null)
     ShowMessageFace("",0,0,2,10)
     ShowMessage("\\n<Guard>R-really? No, that doesn't bother me... at all...")
     0()
    404()
    ShowMessageFace("",0,0,2,11)
    ShowMessage("\\n<Guard>Skills that lower your foes' stats in battle are very useful. They especially shine against tough bosses.")
    ShowMessageFace("",0,0,2,12)
    ShowMessage("\\n<Guard>Also, if you master both Guard and Warrior, you can become a [Palace Guard]. I'd love to have their skills that weaken and damage all foes at once.")
    ShowMessageFace("",0,0,2,13)
    ShowMessage("\\n<Guard>So please, please consider giving guarding a shot.")
    0()
   EndIf()
   0()
  EndIf()
  0()



EVENT   20
 PAGE   1
  ShowMessageFace("",0,0,2,1)
  ShowMessage("\\n<Old Man>One day several months ago, the Harpy Queen sent a messenger to tell us that something had come up and all the harpies were heading back to their village.")
  ShowMessageFace("",0,0,2,2)
  ShowMessage("\\n<Old Man>They all went home, but I figured they'd be right back considering they practically live next door.")
  ShowMessageFace("",0,0,2,3)
  ShowMessage("\\n<Old Man>I never expected that would be the last time we'd see any of them...")
  355("actor_label_jump")
  EndEventProcessing()
  DefineLabel("58")
  ShowMessageFace("inp_fc2",2,0,2,4)
  ShowMessage("\\n<Remi>A mass disappearance. Scary...")
  EndEventProcessing()
  DefineLabel("59")
  ShowMessageFace("mdg_fc1",2,0,2,5)
  ShowMessage("\\n<Ragora>Have you checked underground? Maybe they dug holes and went to sleep in the earth...")
  EndEventProcessing()
  0()
 PAGE   2
  // condition: variable 1011 >= 4
  ShowMessageFace("",0,0,2,1)
  ShowMessage("\\n<Old Man>I'm relived that the harpies have returned, but I never expected that they got sick and quarantined themselves.")
  ShowMessageFace("",0,0,2,2)
  ShowMessage("\\n<Old Man>On that subject, I've heard that the university in Iliasport trains scholars and doctors.")
  ShowMessageFace("",0,0,2,3)
  ShowMessage("\\n<Old Man>Hopefully their research can someday put an end to strange diseases like this one, but I doubt I'll be alive to see it...")
  355("actor_label_jump")
  EndEventProcessing()
  DefineLabel("71")
  ShowMessageFace("okami_fc1",0,0,2,4)
  ShowMessage("\\n<Amara>Don't be so pessimistic! Live for another 500 years!")
  EndEventProcessing()
  0()



EVENT   21
 PAGE   1
  If(1,1011,0,3,2)
   ShowMessageFace("",0,0,2,1)
   ShowMessage("\\n<Old Man>It's no trivial matter that Queen Harpy herself is missing. What on earth happened...")
   0()
  EndIf()
  If(1,1011,0,4,1)
   ShowMessageFace("",0,0,2,2)
   ShowMessage("\\n<Old Man>I'm glad most of the harpies returned, but I heard that Queen Harpy hasn't made a full recovery.")
   ShowMessageFace("",0,0,2,3)
   ShowMessage("\\n<Old Man>I would have thought that a strong monster like her would recover quickly, but apparently the disease feeds off her magical power and uses her strength against her.")
   355("actor_label_jump")
   EndEventProcessing()
   DefineLabel("82")
   ShowMessageFace("suzume_fc1",0,0,2,4)
   ShowMessage("\\n<Chirp>I want to find the Fruit of the World Tree for her...")
   EndEventProcessing()
   DefineLabel("83")
   ShowMessageFace("hapy_a_fc1",0,0,2,5)
   ShowMessage("\\n<Reina>Don't worry, we'll find the Fruit of the World Tree and save her.")
   EndEventProcessing()
   DefineLabel("84")
   ShowMessageFace("hapy_bc_fc1",3,0,2,6)
   ShowMessage("\\n<Pina>I want to go look for the Fruit of the World Tree...")
   EndEventProcessing()
   0()
  EndIf()
  0()



EVENT   22
 PAGE   1
  ShowMessageFace("",0,0,2,1)
  ShowMessage("\\n<Traveling Warrior>Harpies have a lot of attacks that manipulate the wind. If you have any equipment that reduces wind elemental damage, it'll give you an edge.")
  355("actor_label_jump")
  EndEventProcessing()
  DefineLabel("56")
  ShowMessageFace("inp_fc1",0,0,2,2)
  ShowMessage("\\n<Rami>Succubus types are naturally strong against wind so imps will give you an edge too. ♪")
  EndEventProcessing()
  DefineLabel("75")
  ShowMessageFace("hituzi_fc1",3,0,2,3)
  ShowMessage("\\n<Mary>Sheep are baaaaaad against wind! It makes our wool stand on end!")
  EndEventProcessing()
  DefineLabel("83")
  ShowMessageFace("hapy_a_fc1",2,0,2,4)
  ShowMessage("\\n<Reina>(This guy is letting everyone know our weaknesses... We're going to have to deal with him quietly...)")
  EndEventProcessing()
  0()



EVENT   24
 PAGE   1
  ShowMessageFace("",0,0,2,1)
  ShowMessage("\\n<Youth>You might have already noticed, but you can walk under this tree.")
  0()



EVENT   25
 PAGE   1
  ShowMessageFace("",0,0,2,1)
  ShowMessage("\\n<Middle-Aged Man>Our relationship with the harpies was extremely good. They love our boys to death, after all.")
  ShowMessageFace("",0,0,2,2)
  ShowMessage("\\n<Middle-Aged Man>So I don't think they got mad at us and left or anything. I mean, they even need humans to have children.")
  ShowMessageFace("",0,0,2,3)
  ShowMessage("\\n<Middle-Aged Man>It's depressing not seeing them flapping their wings above us. It was such a common sight just a few months ago...")
  355("actor_label_jump")
  EndEventProcessing()
  DefineLabel("72")
  ShowMessageFace("phoenix_fc1",3,0,2,4)
  ShowMessage("\\n<Mini>I'll do my best to flap my wings for you! I bet you'll love it...")
  ShowMessageFace("",0,0,2,5)
  ShowMessage("\\n<Middle-Aged Man>Um, thanks for your concern, but I'll pass...")
  EndEventProcessing()
  0()
 PAGE   2
  // condition: variable 1011 >= 4
  ShowMessageFace("",0,0,2,1)
  ShowMessage("\\n<Middle-Aged Man>It's wonderful that the harpies were found. The boys in the village were starting to look really pale.")
  ShowMessageFace("",0,0,2,2)
  ShowMessage("\\n<Middle-Aged Man>There aren't many back in the village yet since they're busy at their own homes, but we should see the skies full of harpies again soon enough.")
  355("actor_label_jump")
  EndEventProcessing()
  DefineLabel("82")
  ShowMessageFace("suzume_fc1",0,0,2,3)
  ShowMessage("\\n<Chirp>I'm sure they'll come to visit once they've cleaned up. There's so much dust to get rid of after being gone...")
  EndEventProcessing()
  DefineLabel("83")
  ShowMessageFace("hapy_a_fc1",0,0,2,4)
  ShowMessage("\\n<Reina>After being away for so long, our village is a wreck. I imagine everyone will be back here as soon as things are clean again.")
  EndEventProcessing()
  0()



EVENT   26
 PAGE   1
  If(1,1011,0,3,2)
   ShowMessageFace("fairy_fc1",0,0,2,1)
   ShowMessage("\\n<Fairy>Where could all those harpies have gone... Oh, a customer?")
   0()
  EndIf()
  ShowMessageFace("fairy_fc1",0,0,2,2)
  ShowMessage("\\n<Fairy>I'm the fairy blacksmith and friend of the wind. I can craft wind-imbued weapons and armor for you.♪")
  355("call_synthesize(5)")
  0()



EVENT   18
 PAGE   1
  If(1,1011,0,3,2)
   ShowMessageFace("",0,0,2,1)
   ShowMessage("\\n<Guard>We've gone looking for them countless times already, but the only harpies we've managed to find are ones that didn't live in their settlement.")
   ShowMessageFace("",0,0,2,2)
   ShowMessage("\\n<Guard>I think we need to expand the search beyond the local forest, but it's hard to cover a larger area with the numbers we've got.")
   0()
  EndIf()
  If(1,1011,0,4,1)
   ShowMessageFace("",0,0,2,3)
   ShowMessage("\\n<Guard>So the harpies locked themselves in a tower... That explains why we couldn't find them.")
   ShowMessageFace("",0,0,2,4)
   ShowMessage("\\n<Guard>In any case, I'm relieved they're back. I hope we can live in peace and harmony like this forever...")
   355("actor_label_jump")
   EndEventProcessing()
   DefineLabel("80")
   ShowMessageFace("orc_fc1",0,0,2,5)
   ShowMessage("\\n<Hip>That's right, peace is very valuable. That's why it's an orc's job to attack peaceful villages...")
   EndEventProcessing()
   DefineLabel("86")
   ShowMessageFace("name_s_fc1",0,0,2,6)
   ShowMessage("\\n<Rosary>Let us pray to the Goddess Ilias for continued peace...")
   EndEventProcessing()
   0()
  EndIf()
  0()



EVENT   23
 PAGE   1
  ShowMessageFace("",0,0,2,1)
  ShowMessage("\\n<Old Man>If you travel directly north from here, you'll come across a mysterious tower. It's been there as long as anyone can remember, but no one knows what it's used for.")
  ShowMessageFace("",0,0,2,2)
  ShowMessage("\\n<Old Man>The entrance is locked up so no one can get inside though... Perhaps there's a great treasure hidden away in there.")
  355("actor_label_jump")
  EndEventProcessing()
  DefineLabel("68")
  ShowMessageFace("dragonp_fc1",0,0,2,3)
  ShowMessage("\\n<Papi>Treasure!? Let's check it out!")
  EndEventProcessing()
  DefineLabel("70")
  ShowMessageFace("nezumi_fc1",1,0,2,4)
  ShowMessage("\\n<Ratty>A whole room full of cheese, maybe? That'd be great...")
  EndEventProcessing()
  0()
 PAGE   2
  // condition: variable 1011 >= 4
  ShowMessageFace("",0,0,2,1)
  ShowMessage("\\n<Old Man>If you travel directly north from here, you'll come across a mysterious tower. I thought it might have been full of treasure...")
  ShowMessageFace("",0,0,2,2)
  ShowMessage("\\n<Old Man>But it turned out the harpies were holed up inside. Actually, each and every one of them is a precious treasure to us!")
  ShowMessageFace("",0,0,2,3)
  ShowMessage("\\n<Old Man>...do you think that'll work as a pickup line?")
  355("actor_label_jump")
  EndEventProcessing()
  DefineLabel("55")
  ShowMessageFace("name_fc1",0,0,2,4)
  ShowMessage("\\n<Melk>......")
  EndEventProcessing()
  DefineLabel("61")
  ShowMessageFace("mimizu_fc1",0,0,2,5)
  ShowMessage("\\n<Mimi>......")
  EndEventProcessing()
  DefineLabel("73")
  ShowMessageFace("hiru_fc1",0,0,2,6)
  ShowMessage("\\n<Hiru>......")
  EndEventProcessing()
  0()



EVENT   27
 PAGE   1
  ShowMessageFace("",0,0,2,1)
  ShowMessage("\\n<Priest>Welcome to the Shaded Church. What can I do for you?")
  ShowChoices(strings("Pray","Never mind"),2)
  IfPlayerPicksChoice(0,null)
   ChangeVariable(1002,1002,0,0,8)
   ShowMessageFace("",0,0,2,2)
   ShowMessage("\\n<Priest>Well then, let us pray to Ilias. ...there, you should feel a bond drawing you to this place.")
   ShowMessageFace("",0,0,2,3)
   ShowMessage("\\n<Priest>If something were to happen to you on your journey, the bond should lead you back here. May Ilias watch over you...")
   0()
  IfPlayerPicksChoice(1,null)
   ShowMessageFace("",0,0,2,4)
   ShowMessage("\\n<Priest>May Ilias watch over you...")
   0()
  404()
  0()



EVENT   28
 PAGE   1
  // condition: variable 1011 >= 4
  ShowMessageFace("",0,0,2,1)
  ShowMessage("\\n<Youth>My wife came home! Now we're back to bangin' every night!")
  ShowMessageFace("",0,0,2,2)
  ShowMessage("\\n<Harpy>Dear, not so loud... I'm going to have to bang you tonight for that.")
  355("actor_label_jump")
  EndEventProcessing()
  DefineLabel("70")
  ShowMessageFace("nezumi_fc1",2,0,2,3)
  ShowMessage("\\n<Ratty>...tch.")
  EndEventProcessing()
  DefineLabel("72")
  ShowMessageFace("phoenix_fc1",3,0,2,4)
  ShowMessage("\\n<Mini>Bang...ing? Is something exploding?")
  EndEventProcessing()
  DefineLabel("74")
  ShowMessageFace("usagi_fc1",1,0,2,5)
  ShowMessage("\\n<Barnny>Oh my, fufufu...")
  EndEventProcessing()
  DefineLabel("83")
  ShowMessageFace("hapy_a_fc1",0,0,2,6)
  ShowMessage("\\n<Reina>Have fun, you two. ♪")
  EndEventProcessing()
  DefineLabel("105")
  ShowMessageFace("mimic_fc1",2,0,2,7)
  ShowMessage("\\n<Minelli>Die in a fire.")
  EndEventProcessing()
  0()



EVENT   15
 PAGE   1
  If(1,1011,0,3,2)
   ShowMessageFace("",0,0,2,1)
   ShowMessage("\\n<Youth>My harpy wife went back to her village and then disappeared completely. Sigh, where could she have gone...")
   0()
  EndIf()
  If(1,1011,0,4,1)
   ShowMessageFace("",0,0,2,2)
   ShowMessage("\\n<Youth>My wife came home! Now we're back to bangin' every night!")
   ShowMessageFace("",0,0,2,3)
   ShowMessage("\\n<Harpy>Dear, not so loud... I'm going to have to bang you tonight for that.")
   355("actor_label_jump")
   EndEventProcessing()
   DefineLabel("70")
   ShowMessageFace("nezumi_fc1",2,0,2,4)
   ShowMessage("\\n<Ratty>...tch.")
   EndEventProcessing()
   DefineLabel("72")
   ShowMessageFace("phoenix_fc1",3,0,2,5)
   ShowMessage("\\n<Mini>Bang...ing? Is something exploding?")
   EndEventProcessing()
   DefineLabel("74")
   ShowMessageFace("usagi_fc1",1,0,2,6)
   ShowMessage("\\n<Barnny>Oh my, fufufu...")
   EndEventProcessing()
   DefineLabel("83")
   ShowMessageFace("hapy_a_fc1",0,0,2,7)
   ShowMessage("\\n<Reina>Have fun, you two. ♪")
   EndEventProcessing()
   0()
  EndIf()
  0()



EVENT   29
 PAGE   1
  250(bytes(0x04,0x08,0x6f,0x3a,0x0c,0x52,0x50,0x47,0x3a,0x3a,0x53,0x45,0x08,0x3a,0x0a,0x40,0x6e,0x61,0x6d,0x65,0x49,0x22,0x0a,0x49,0x74,0x65,0x6d,0x31,0x06,0x3a,0x06,0x45,0x54,0x3a,0x0b,0x40,0x70,0x69,0x74,0x63,0x68,0x69,0x69,0x3a,0x0c,0x40,0x76,0x6f,0x6c,0x75,0x6d,0x65,0x69,0x55))
  ChangeSelfSwitch("A",0)
  ChangeInventory_Item(168,0,0,1)
  0()
 PAGE   2
  // condition: self-switch A is ON
  0()



EVENT   30
 PAGE   1
  0()



EVENT   31
 PAGE   1
  0()



EVENT   32
 PAGE   1
  0()



EVENT   33
 PAGE   1
  0()



EVENT   34
 PAGE   1
  0()



EVENT   35
 PAGE   1
  0()



EVENT   36
 PAGE   1
  0()



EVENT   37
 PAGE   1
  0()



EVENT   38
 PAGE   1
  0()



EVENT   39
 PAGE   1
  0()



EVENT   40
 PAGE   1
  0()



EVENT   41
 PAGE   1
  0()



EVENT   42
 PAGE   1
  0()



EVENT   43
 PAGE   1
  0()



EVENT   44
 PAGE   1
  0()



EVENT   45
 PAGE   1
  0()



EVENT   46
 PAGE   1
  0()



EVENT   47
 PAGE   1
  0()



EVENT   48
 PAGE   1
  ShowMessageFace("",0,0,2,1)
  ShowMessage("\\n<Village Girl>We were getting along so well with our harpy sisters when they disappeared. I'm really worried. I hope they're safe...")
  ShowMessageFace("",0,0,2,2)
  ShowMessage("\\n<Girl>I hope Pii is doing well. I go looking for her every day with my big sister, but we can't find her...")
  355("actor_label_jump")
  EndEventProcessing()
  DefineLabel("62")
  ShowMessageFace("gob_fc1",3,0,2,3)
  ShowMessage("\\n<Gob>We'll find them for you somehow...")
  EndEventProcessing()
  0()
 PAGE   2
  // condition: variable 1011 >= 4
  If(4,84,0)
   ShowMessageFace("",0,0,2,1)
   ShowMessage("\\n<Girl>Ah, Pii!")
   ShowMessageFace("hapy_bc_fc1",5,0,2,2)
   ShowMessage("\\n<Pii>I'm sorry for making you worry...")
   ShowMessageFace("",0,0,2,3)
   ShowMessage("\\n<Village Girl>Where did you go this time? It looks like you're out adventuring.")
   ShowMessageFace("hapy_bc_fc1",3,0,2,4)
   ShowMessage("\\n<Pina>We'll be away from the village a bit longer. Look forward to all the goodies we'll bring back!")
   EndEventProcessing()
   0()
  EndIf()
  ShowMessageFace("",0,0,2,5)
  ShowMessage("\\n<Girl>Pii and her sister were found! I heard they got sick and were stuck in a tower.")
  ShowMessageFace("",0,0,2,6)
  ShowMessage("\\n<Village Girl>Apparently they're still recovering from the sickness in the nearby tower.")
  355("actor_label_jump")
  EndEventProcessing()
  DefineLabel("53")
  ShowMessageFace("slime_fc1",0,0,2,7)
  ShowMessage("\\n<Lime>That's great news. ♪")
  EndEventProcessing()
  0()



EVENT   49
 PAGE   1
  ShowMessageFace("",0,0,2,1)
  ShowMessage("\\n<Village Girl>We were getting along so well with our harpy sisters when they disappeared. I'm really worried. I hope they're safe...")
  ShowMessageFace("",0,0,2,2)
  ShowMessage("\\n<Girl>I hope Pii is doing well. I go looking for her every day with my big sister, but we can't find her...")
  355("actor_label_jump")
  EndEventProcessing()
  DefineLabel("62")
  ShowMessageFace("gob_fc1",3,0,2,3)
  ShowMessage("\\n<Gob>We'll find them for you somehow...")
  EndEventProcessing()
  0()
 PAGE   2
  // condition: variable 1011 >= 4
  If(4,84,0)
   ShowMessageFace("",0,0,2,1)
   ShowMessage("\\n<Girl>Ah, Pii!")
   ShowMessageFace("hapy_bc_fc1",5,0,2,2)
   ShowMessage("\\n<Pii>I'm sorry for making you worry...")
   ShowMessageFace("",0,0,2,3)
   ShowMessage("\\n<Village Girl>Where did you go this time? It looks like you're out adventuring.")
   ShowMessageFace("hapy_bc_fc1",3,0,2,4)
   ShowMessage("\\n<Pina>We'll be away from the village a bit longer. Look forward to all the goodies we'll bring back!")
   EndEventProcessing()
   0()
  EndIf()
  ShowMessageFace("",0,0,2,5)
  ShowMessage("\\n<Girl>Pii and her sister were found! I heard they got sick and were stuck in a tower.")
  ShowMessageFace("",0,0,2,6)
  ShowMessage("\\n<Village Girl>Apparently they're still recovering from the sickness in the nearby tower.")
  355("actor_label_jump")
  EndEventProcessing()
  DefineLabel("53")
  ShowMessageFace("slime_fc1",0,0,2,7)
  ShowMessage("\\n<Lime>That's great news. ♪")
  EndEventProcessing()
  0()



EVENT   50
 PAGE   1
  ShowMessageFace("",0,0,2,1)
  ShowMessage("\\n<Traveling Warrior>Are you paying proper attention to your party's weak attributes? You need to be especially careful with party members weak to pleasure.")
  ShowMessageFace("",0,0,2,2)
  ShowMessage("\\n<Traveling Warrior>You may be surprised by how much damage they take in battle. If you know a member is weak to elements that an enemy uses, you can swap that member to the reserves.")
  355("actor_label_jump")
  EndEventProcessing()
  DefineLabel("68")
  ShowMessageFace("dragonp_fc1",2,0,2,3)
  ShowMessage("\\n<Papi>I'm really weak to pleasure... But I'm great at hitting and taking hits!")
  EndEventProcessing()
  0()



EVENT   51
 PAGE   1
  // condition: variable 1011 >= 4
  ShowMessageFace("suzume_fc1",1,0,2,1)
  ShowMessage("\\n<Sparrow Girl>Chirp chirp! We sparrows greet the morning sun!")
  ShowMessageFace("suzume_fc1",3,0,2,2)
  ShowMessage("\\n<Sparrow Girl>Huh? It's already noon? I'm so out of it after everything that's happened lately...")
  355("actor_label_jump")
  EndEventProcessing()
  DefineLabel("82")
  ShowMessageFace("suzume_fc1",0,0,2,3)
  ShowMessage("\\n<Chirp>You better recover fast before another sparrow takes your job.")
  EndEventProcessing()
  DefineLabel("75")
  ShowMessageFace("hituzi_fc1",3,0,2,4)
  ShowMessage("\\n<Mary>Morning? Noon? Night? It's always time for booze!")
  EndEventProcessing()
  EndEventProcessing()
  DefineLabel("77")
  ShowMessageFace("jeid_fc1",0,0,2,5)
  ShowMessage("\\n<Jaide>I can tell time more accurately than that.")
  EndEventProcessing()
  0()



EVENT   52
 PAGE   1
  ShowMessageFace("",0,0,2,1)
  ShowMessage("\\n<Traveling Warrior>They say the blacksmith here specializes in the wind element. I heard he can craft weapons and armor that contain the power of the wind.")
  ShowMessageFace("",0,0,2,2)
  ShowMessage("\\n<Traveling Warrior>It doesn't look like he has a shop though. I'm sure he's in this village somewhere, but where?")
  0()



EVENT   53
 PAGE   1
  ShowMessageFace("dog_fc1",0,0,2,1)
  ShowMessage("\\n<Dog Girl>Woof woof! I love honey!")
  If(4,60,0)
   ShowMessageFace("dog_fc1",2,0,2,2)
   ShowMessage("\\n<Pochi>So we've been defanged and domesticated here too...")
   ShowMessageFace("dog_fc1",4,0,2,3)
   ShowMessage("\\n<Pochi>But I'd really like to taste some honey! ♪")
   If(2,"A",1)
    ChangeSelfSwitch("A",0)
    ChangeVariable(1036,1036,1,0,1)
    If(1,1036,0,9,1)
     RunCommonEvent(311)
     0()
    Else()
     0()
    EndIf()
    0()
   EndIf()
   0()
  EndIf()
  0()



EVENT   54
 PAGE   1
  // condition: switch 1080 is ON
  ShowMessageFace("orc_fc1",1,0,2,1)
  ShowMessage("\\n<Hip>Oink! This is an orc raid! We orcs are attacking Happiness Village!")
  ShowMessageFace("",0,0,2,2)
  ShowMessage("\\n<Guard>Oh, hello Hip. You should really visit your mother once in a while.")
  ShowMessageFace("orc_fc1",2,0,2,3)
  ShowMessage("\\n<Hip>Oh, I forgot this is my hometown...")
  0()
 PAGE   2
  // condition: party contains actor #80
  0()



EVENT   55
 PAGE   1
  // condition: switch 1540 is ON
  241(bytes(0x04,0x08,0x6f,0x3a,0x0d,0x52,0x50,0x47,0x3a,0x3a,0x42,0x47,0x4d,0x08,0x3a,0x0a,0x40,0x6e,0x61,0x6d,0x65,0x49,0x22,0x0a,0x61,0x6d,0x69,0x72,0x61,0x06,0x3a,0x06,0x45,0x54,0x3a,0x0c,0x40,0x76,0x6f,0x6c,0x75,0x6d,0x65,0x69,0x69,0x3a,0x0b,0x40,0x70,0x69,0x74,0x63,0x68,0x69,0x69))
  If(2,"A",1)
   ChangeSelfSwitch("A",0)
   RunCommonEvent(322)
   0()
  Else()
   ShowMessageFace("amira_fc1",0,0,2,1)
   ShowMessage("\\n<Amira>You've found me here. Keep searching for me...")
   0()
  EndIf()
  241(bytes(0x04,0x08,0x6f,0x3a,0x0d,0x52,0x50,0x47,0x3a,0x3a,0x42,0x47,0x4d,0x08,0x3a,0x0a,0x40,0x6e,0x61,0x6d,0x65,0x49,0x22,0x0a,0x6d,0x75,0x72,0x61,0x32,0x06,0x3a,0x06,0x45,0x54,0x3a,0x0c,0x40,0x76,0x6f,0x6c,0x75,0x6d,0x65,0x69,0x69,0x3a,0x0b,0x40,0x70,0x69,0x74,0x63,0x68,0x69,0x69))
  EndEventProcessing()
  0()
 PAGE   2
  // condition: party contains actor #540
  0()



EVENT   56
 PAGE   1
  0()



EVENT   12
 PAGE   1
  ShowMessageFace("",0,0,2,1)
  ShowMessage("\\n<Youth>Welcome to Happiness Village, where we live in peace with the harpies! Need help getting somewhere?")
  281(1)
  355("unlimited_choices(11, [\"Inn\",")
  655("\"Shops\",\"Blacksmith\",")
  655("\"Church\",\"Nowhere\"])")
  If(1,11,0,0,0)
   TeleportPlayer(0,341,9,50,2,0)
   EndEventProcessing()
   0()
  EndIf()
  If(1,11,0,1,0)
   TeleportPlayer(0,341,25,51,2,0)
   EndEventProcessing()
   0()
  EndIf()
  If(1,11,0,2,0)
   TeleportPlayer(0,341,28,26,2,0)
   EndEventProcessing()
   0()
  EndIf()
  If(1,11,0,3,0)
   TeleportPlayer(0,341,16,28,2,0)
   EndEventProcessing()
   0()
  EndIf()
  If(1,11,0,4,0)
   EndEventProcessing()
   0()
  EndIf()
  0()
