=begin
=改造/セーブ




==更新履歴
  Date     Version Author Comment

=end

#==============================================================================
# ■ DataManager
#==============================================================================
class << DataManager
  #--------------------------------------------------------------------------
  # ○ モジュール初期化
  #--------------------------------------------------------------------------
  def init
    @last_savefile_index = 0
    create_game_objects
    setup_battle_test if $BTEST
  end
  #--------------------------------------------------------------------------
  # ● システムファイル名の取得
  #--------------------------------------------------------------------------
  def system_filename
    return "Save/SystemSave.rvdata2"
  end  
  #--------------------------------------------------------------------------
  # ● システムバックアップファイル名の取得
  #--------------------------------------------------------------------------
  def system_backup_filename
    return "Save/SystemSaveBackup.rvdata2"
  end  
  #--------------------------------------------------------------------------
  # ● システムデータの初期化
  #--------------------------------------------------------------------------
  def setup_system
    return if system_object_exist?
    if system_file_exist?
      load_system 
    else
      create_system_objects
    end
    $game_library.make_preparation_list
  end
  #--------------------------------------------------------------------------
  # ● システムオブジェクトが存在する？
  #--------------------------------------------------------------------------
  def system_object_exist?
    return ($game_library && $game_system_switches)
  end
  #--------------------------------------------------------------------------
  # ● システムファイルが存在する？
  #--------------------------------------------------------------------------
  def system_file_exist?
    return File.exist?(system_filename)
  end
  #--------------------------------------------------------------------------
  # ● システムセーブの実行
  #--------------------------------------------------------------------------
  def save_system
    return false unless system_object_exist?
    
    p "システムセーブの実行" if $TEST 
    begin
      Dir.mkdir("Save") unless Dir.exist?("Save")
      @system_save_count += 1
      save_system_without_rescue
      save_system_backup_without_rescue if @system_save_count % 3 == 0
      true
    rescue
      false
    end
  end
  #--------------------------------------------------------------------------
  # ● システムロードの実行
  #--------------------------------------------------------------------------
  def load_system
    p "システムロードの実行" if $TEST 
    load_system_without_rescue rescue false
  end
  #--------------------------------------------------------------------------
  # ● システムバックアップセーブの実行（例外処理なし）
  #--------------------------------------------------------------------------
  def save_system_backup_without_rescue
    File.open(system_backup_filename, "wb") do |file|
      Marshal.dump(make_system_save_contents, file)
    end
    return true
  end
  #--------------------------------------------------------------------------
  # ● システムセーブの実行（例外処理なし）
  #--------------------------------------------------------------------------
  def save_system_without_rescue
    File.open(system_filename, "wb") do |file|
      Marshal.dump(make_system_save_contents, file)
    end
    return true
  end
  #--------------------------------------------------------------------------
  # ● システムロードの実行（例外処理なし）
  #--------------------------------------------------------------------------
  def load_system_without_rescue
    File.open(system_filename, "rb") do |file|
      extract_system_save_contents(Marshal.load(file))
    end
    return true
  end
  #--------------------------------------------------------------------------
  # ● システムセーブ内容の作成
  #--------------------------------------------------------------------------
  def make_system_save_contents
    contents = {}
    contents[:system_save_count]  = @system_save_count
    contents[:library]            = $game_library
    contents[:system_switches]    = $game_system_switches
    contents
  end
  #--------------------------------------------------------------------------
  # ● システムセーブ内容の展開
  #--------------------------------------------------------------------------
  def extract_system_save_contents(contents)
    @system_save_count    = contents[:system_save_count].nil? ? 0 : contents[:system_save_count]
    $game_library         = contents[:library].nil? ? Game_Library.new : contents[:library]
    $game_system_switches = contents[:system_switches].nil? ? Game_SystemSwitches.new : contents[:system_switches]
  end  
  #--------------------------------------------------------------------------
  # ● 各種システムオブジェクトの作成
  #--------------------------------------------------------------------------
  def create_system_objects
    p "システムオブジェクトの生成" if $TEST 
    @system_save_count    = 0
    $game_library         = Game_Library.new
    $game_system_switches = Game_SystemSwitches.new
  end
  #--------------------------------------------------------------------------
  # ○ セーブファイルの存在判定
  #--------------------------------------------------------------------------
  def save_file_exists?
    !Dir.glob('Save/Save*.rvdata2').empty?
  end
  #--------------------------------------------------------------------------
  # ○ セーブファイルの最大数
  #--------------------------------------------------------------------------
  def savefile_max
    return 99
  end  
  #--------------------------------------------------------------------------
  # ○ ファイル名の作成
  #     index : ファイルインデックス
  #--------------------------------------------------------------------------
  def make_filename(index)
    sprintf("Save/Save%02d.rvdata2", index + 1)
  end  
  #--------------------------------------------------------------------------
  # ○ セーブの実行
  #--------------------------------------------------------------------------
  def save_game(index)
    begin
      Dir.mkdir("Save") unless Dir.exist?("Save")
      save_game_without_rescue(index)
      save_thumbnail(sprintf("Save/Save%02d", index + 1))
      if $game_system.save_count % 5 == 0
        save_game_backup_without_rescue
        save_thumbnail("Save/SaveBackup")
      end
      true
    rescue
      delete_save_file(index)
      false
    end
  end
  #--------------------------------------------------------------------------
  # ○ セーブヘッダの作成
  #--------------------------------------------------------------------------
  def make_save_header
    header = {}
    header[:characters] = $game_party.characters_for_savefile
    header[:playtime_s] = $game_system.playtime_s
    header[:realtime_s] = $game_system.realtime_s
    header[:luca_level] = $game_actors[NWConst::Actor::LUCA].base_level
    header
  end
  #--------------------------------------------------------------------------
  # ● バックアップセーブの実行（例外処理なし）
  #--------------------------------------------------------------------------
  def save_game_backup_without_rescue
    File.open("Save/SaveBackup.rvdata2", "wb") do |file|
      Marshal.dump(make_save_header, file)
      Marshal.dump(make_save_contents, file)
    end
    return true
  end
  #--------------------------------------------------------------------------
  # ● サムネイル画像の作成
  #--------------------------------------------------------------------------
  def make_thumbnail
    @thumbnails = {}
    @current_thumbnail = nil
    @dummy_thumbnail = nil
    src_bitmap = SceneManager.background_bitmap
    @current_thumbnail = Bitmap.new(160, 120)
    @current_thumbnail.stretch_blt(@current_thumbnail.rect, src_bitmap, src_bitmap.rect)
    @dummy_thumbnail = Bitmap.new(160, 120)
    @dummy_thumbnail.fill_rect(@dummy_thumbnail.rect, Color.new(0, 0, 0))
    
    Dir.mkdir("Save") unless Dir.exist?("Save")
    Dir.entries("Save").each{|file_name|
      next unless file_name =~ /Save(\d+)\.png/i
      @thumbnails[$1.to_i - 1] = Bitmap.new("Save/" + file_name)
    }
  end
  #--------------------------------------------------------------------------
  # ● サムネイル画像の解放
  #--------------------------------------------------------------------------
  def dispose_thumbnail
    @current_thumbnail.dispose
    @dummy_thumbnail.dispose
    @thumbnails.each_value{|thumbnail| thumbnail.dispose}
    @current_thumbnail = nil
    @dummy_thumbnail = nil
    @thumbnails = {}
  end
  #--------------------------------------------------------------------------
  # ● 現在サムネイル画像の取得
  #--------------------------------------------------------------------------
  def get_current_thumbnail
    return @current_thumbnail
  end  
  #--------------------------------------------------------------------------
  # ● ダミーサムネイル画像の取得
  #--------------------------------------------------------------------------
  def get_dummy_thumbnail
    return @dummy_thumbnail
  end  
  #--------------------------------------------------------------------------
  # ● サムネイル画像の取得
  #--------------------------------------------------------------------------
  def get_thumbnail(index)
    return @thumbnails[index]
  end  
  #--------------------------------------------------------------------------
  # ● サムネイル画像の変更
  #--------------------------------------------------------------------------
  def change_thumbnail(index)
    @thumbnails[index].dispose if @thumbnails[index]
    bitmap = Bitmap.new(160, 120)
    bitmap.blt(0, 0, @current_thumbnail, bitmap.rect) 
    @thumbnails[index] = bitmap
  end
  #--------------------------------------------------------------------------
  # ● サムネイル画像の保存
  #--------------------------------------------------------------------------
  def save_thumbnail(file_name)
    @current_thumbnail.save(file_name, :PNG)
  end
end

#==============================================================================
# ■ Game_Party
#==============================================================================
class Game_Party < Game_Unit
  #--------------------------------------------------------------------------
  # ○ セーブファイル表示用のキャラクター画像情報
  #--------------------------------------------------------------------------
  def characters_for_savefile
    all_members.collect do |actor|
      [actor.character_name, actor.character_index]
    end
  end  
end

#==============================================================================
# ■ Window_SaveFile
#==============================================================================
class Window_SaveFile < Window_Base
  #--------------------------------------------------------------------------
  # ○ リフレッシュ
  #--------------------------------------------------------------------------
  def refresh
    contents.clear
    draw_thumbnail(0, 0)
    draw_filename(164, 0)
    draw_realtime(164, 0, contents.width - 164, 2)
    draw_party_characters(164, contents.height - line_height - 4)
    draw_level(164, contents.height - line_height, contents.width - 164, 0)
    draw_playtime(164, contents.height - line_height, contents.width - 164, 2)
  end
  #--------------------------------------------------------------------------
  # ● サムネイルの描画
  #--------------------------------------------------------------------------
  def draw_thumbnail(x, y)
    thumbnail = DataManager.get_thumbnail(@file_index)
    thumbnail ||= DataManager.get_dummy_thumbnail
    contents.blt(x, y, thumbnail, thumbnail.rect) 
  end  
  #--------------------------------------------------------------------------
  # ● ファイル名の描画
  #--------------------------------------------------------------------------
  def draw_filename(x, y)
    change_color(normal_color)
    name = Vocab::File + " #{@file_index + 1}"
    draw_text(x, y, 200, line_height, name)
    @name_width = text_size(name).width
  end
  #--------------------------------------------------------------------------
  # ○ パーティキャラの描画
  #--------------------------------------------------------------------------
  def draw_party_characters(x, y)
    header = DataManager.load_header(@file_index)
    return unless header
    
    header[:characters].each{|data|
      character_name = data[0]
      n = data[1]
      bitmap = Cache.character(character_name)
      sign = character_name[/^[\!\$]./]
      if sign && sign.include?('$')
        cw = bitmap.width / 3
        ch = bitmap.height / 4
      else
        cw = bitmap.width / 12
        ch = bitmap.height / 8
      end
      src_rect = Rect.new((n%4*3+1)*cw, (n/4*4)*ch, cw, ch)
      contents.blt(x, y - ch, bitmap, src_rect)
      x += cw
    }
  end
  #--------------------------------------------------------------------------
  # ○ プレイ時間の描画
  #--------------------------------------------------------------------------
  def draw_playtime(x, y, width, align)
    header = DataManager.load_header(@file_index)
    return unless header
    text = sprintf("Playtime:%s", header[:playtime_s])
    draw_text(x, y, width, line_height, text, align)
  end
  #--------------------------------------------------------------------------
  # ● ルカのレベルの描画
  #--------------------------------------------------------------------------
  def draw_level(x, y, width, align)
    header = DataManager.load_header(@file_index)
    return unless header
    text = sprintf("Luka Level:%s", header[:luca_level])
    draw_text(x, y, width, line_height, text, align)
  end
  #--------------------------------------------------------------------------
  # ● リアル時間の描画
  #--------------------------------------------------------------------------
  def draw_realtime(x, y, width, align)
    header = DataManager.load_header(@file_index)
    return unless header
    draw_text(x, y, width, line_height, header[:realtime_s], align)
  end
  #--------------------------------------------------------------------------
  # ○ カーソルの更新
  #--------------------------------------------------------------------------
  def update_cursor
    if @selected
      cursor_rect.set(164, 0, @name_width + 8, line_height)
    else
      cursor_rect.empty
    end
  end  
end

#==============================================================================
# ■ Scene_File
#==============================================================================
class Scene_File < Scene_MenuBase
  #--------------------------------------------------------------------------
  # ○ 開始処理
  #--------------------------------------------------------------------------
  def start
    super
    DataManager.make_thumbnail
    create_help_window
    create_savefile_viewport
    create_savefile_windows
    init_selection
  end
  #--------------------------------------------------------------------------
  # ○ 終了処理
  #--------------------------------------------------------------------------
  def terminate
    super
    @savefile_viewport.dispose
    @savefile_windows.each {|window| window.dispose }
    DataManager.dispose_thumbnail
  end  
  #--------------------------------------------------------------------------
  # ○ 画面内に表示するセーブファイル数を取得
  #--------------------------------------------------------------------------
  def visible_max
    return 3
  end  
  #--------------------------------------------------------------------------
  # ○ セーブファイル［決定］
  #--------------------------------------------------------------------------
  def on_savefile_ok
    DataManager.change_thumbnail(index)
  end
end

#==============================================================================
# ◆ Exit
#==============================================================================
module Exit
  # ---------------------------------------------------------------------------
  # ◆ カスタマイズポイント セットアップ処理を記述します。
  # ---------------------------------------------------------------------------
  def self.setup
    DataManager.load_database
    DataManager.setup_system
  end
  # ---------------------------------------------------------------------------
  # ◆ カスタマイズポイント 解放処理を記述します。
  # ---------------------------------------------------------------------------
  def self.dispose
    DataManager.save_system
  end
end





















